<?xml version="1.0" encoding="UTF-8" standalone="no"?>
<svg
   xmlns:dc="http://purl.org/dc/elements/1.1/"
   xmlns:cc="http://creativecommons.org/ns#"
   xmlns:rdf="http://www.w3.org/1999/02/22-rdf-syntax-ns#"
   xmlns:svg="http://www.w3.org/2000/svg"
   xmlns="http://www.w3.org/2000/svg"
   xmlns:sodipodi="http://sodipodi.sourceforge.net/DTD/sodipodi-0.dtd"
   xmlns:inkscape="http://www.inkscape.org/namespaces/inkscape"
   version="1.1"
   id="svg2"
   xml:space="preserve"
   width="504"
   height="504"
   viewBox="0 0 504 504"
   sodipodi:docname="board.svg"
   inkscape:export-filename="/home/mavit/src/boardgamearena/mijnlieffmavit/img/board.png"
   inkscape:export-xdpi="62.950001"
   inkscape:export-ydpi="62.950001"
   inkscape:version="1.0.1 (3bc2e813f5, 2020-09-07)"><metadata
     id="metadata8"><rdf:RDF><cc:Work
         rdf:about=""><dc:format>image/svg+xml</dc:format><dc:type
           rdf:resource="http://purl.org/dc/dcmitype/StillImage" /><dc:title></dc:title></cc:Work></rdf:RDF></metadata><defs
     id="defs6"><clipPath
       clipPathUnits="userSpaceOnUse"
       id="clipPath18"><path
         d="M 0,408.189 H 408.189 V 0 H 0 Z"
         id="path16" /></clipPath></defs><sodipodi:namedview
     pagecolor="#000000"
     bordercolor="#666666"
     borderopacity="1"
     objecttolerance="10"
     gridtolerance="10"
     guidetolerance="10"
     inkscape:pageopacity="0"
     inkscape:pageshadow="2"
     inkscape:window-width="1920"
     inkscape:window-height="1136"
     id="namedview4"
     showgrid="true"
     inkscape:pagecheckerboard="true"
     fit-margin-top="0"
     fit-margin-left="0"
     fit-margin-right="0"
     fit-margin-bottom="0"
     inkscape:zoom="1.3790323"
     inkscape:cx="324.81333"
     inkscape:cy="254.35827"
     inkscape:window-x="0"
     inkscape:window-y="27"
     inkscape:window-maximized="1"
     inkscape:current-layer="g10"><inkscape:grid
       type="xygrid"
       id="grid839"
       spacingx="126"
       spacingy="126"
       originx="0"
       originy="0" /></sodipodi:namedview><g
     inkscape:groupmode="layer"
     id="layer1"
     inkscape:label="background"
     transform="translate(-42.515379,-63.772278)" /><g
     id="g10"
     inkscape:groupmode="layer"
     inkscape:label="leaves"
     transform="matrix(1.3333333,0,0,-1.3333333,-42.515379,480.47972)"
     style="opacity:0.9"><g
       id="g20"
       transform="translate(67.311756,316.94764)"><path
         d="m 0,0 c 2.66,-1.251 5.156,-2.757 7.611,-4.326 2.44,-1.593 4.838,-3.251 7.07,-5.165 -2.661,1.25 -5.158,2.756 -7.612,4.326 C 4.631,-3.569 2.233,-1.912 0,0"
         style="fill:#ffffff;fill-opacity:1;fill-rule:nonzero;stroke:none"
         id="path22" /></g><g
       id="g24"
       transform="translate(101.97476,293.92954)"><path
         d="m 0,0 c 0,0 -8.432,10.847 -17.635,17.318 -0.486,0.341 -5.655,1.215 -14.512,5.802 -5.5,2.849 -16.405,10.313 -16.405,10.313 l 14.706,-11.38 7.949,-10.647 C -19.051,5.519 0,0 0,0"
         style="fill:#f36220;fill-opacity:1;fill-rule:nonzero;stroke:none"
         id="path26" /></g><g
       id="g28"
       transform="translate(63.595856,318.09024)"><path
         d="m 0,0 c 0,0 -3.06,-4.083 7.553,-8.292 10.612,-4.209 30.878,-6.952 30.878,-6.952 0,0 -12.487,9.827 -23.099,14.036 C 4.721,3.001 0,0 0,0"
         style="fill:#f36220;fill-opacity:1;fill-rule:nonzero;stroke:none"
         id="path30" /></g><g
       id="g32"
       transform="translate(64.425956,319.11604)"><path
         d="m 0,0 c 0,0 -3.056,-5.946 6.487,-8.055 9.543,-2.109 27.659,0.47 27.659,0.47 0,0 -13.198,6.05 -22.741,8.159 C 1.862,2.683 0,0 0,0"
         style="fill:#f36220;fill-opacity:1;fill-rule:nonzero;stroke:none"
         id="path34" /></g><g
       id="g36"
       transform="translate(64.680856,318.85094)"><path
         d="m 0,0 c 0,0 -0.337,-4.502 7.45,-4.59 7.787,-0.087 20.75,4.274 20.75,4.274 0,0 -10.228,5.845 -18.015,5.933 C 2.397,5.704 0,0 0,0"
         style="fill:#f36220;fill-opacity:1;fill-rule:nonzero;stroke:none"
         id="path38" /></g><g
       id="g40"
       transform="translate(64.671056,319.16494)"><path
         d="m 0,0 c 0,0 3.925,3.234 10.888,-3.82 6.962,-7.055 14.326,-21.727 14.326,-21.727 0,0 -15.618,9.481 -22.581,16.536 C -4.33,-1.956 0,0 0,0"
         style="fill:#f36220;fill-opacity:1;fill-rule:nonzero;stroke:none"
         id="path42" /></g><g
       id="g44"
       transform="translate(63.564656,318.61654)"><path
         d="m 0,0 c 0,0 7.817,2.594 11.718,-3.913 3.901,-6.508 2.038,-19.504 2.038,-19.504 0,0 -7.16,11.229 -13.682,16.356 C -5.044,-3.037 0,0 0,0"
         style="fill:#f36220;fill-opacity:1;fill-rule:nonzero;stroke:none"
         id="path46" /></g><g
       id="g48"
       transform="translate(64.125156,318.79574)"><path
         d="m 0,0 c 0,0 6.307,0.677 7.189,-4.793 0.883,-5.47 -3.991,-15.015 -3.991,-15.015 0,0 -8.028,6.426 -8.911,11.895 C -6.776,-1.327 -1.391,-0.515 0,0"
         style="fill:#f36220;fill-opacity:1;fill-rule:nonzero;stroke:none"
         id="path50" /></g><g
       id="g52"
       transform="translate(96.295156,297.28504)"><path
         d="m 0,0 c -2.649,1.589 -5.235,3.269 -7.812,4.962 -2.584,1.684 -5.123,3.432 -7.661,5.18 -2.525,1.768 -5.048,3.538 -7.528,5.371 l -3.718,2.753 c -1.218,0.947 -2.456,1.867 -3.657,2.839 1.331,-0.786 2.624,-1.625 3.938,-2.437 l 3.876,-2.523 c 2.583,-1.685 5.122,-3.433 7.659,-5.182 2.524,-1.769 5.049,-3.539 7.527,-5.372 C -4.89,3.766 -2.414,1.928 0,0"
         style="fill:#ffffff;fill-opacity:1;fill-rule:nonzero;stroke:none"
         id="path54" /></g><g
       id="g56"
       transform="translate(94.735556,306.62684)"><path
         d="M 0,0 C -1.224,0.246 -2.405,0.588 -3.587,0.752 -4.788,0.932 -5.852,0.931 -6.884,0.35 -7.437,0.077 -8.146,-0.162 -8.823,-0.176 l -0.508,-0.003 -0.488,0.065 c -0.33,0.029 -0.641,0.109 -0.946,0.202 -1.235,0.327 -2.356,0.885 -3.428,1.516 1.223,-0.245 2.405,-0.587 3.587,-0.751 1.201,-0.18 2.264,-0.179 3.296,0.401 0.553,0.271 1.263,0.512 1.94,0.524 l 0.508,0.003 0.488,-0.065 c 0.33,-0.029 0.64,-0.11 0.945,-0.202 C -2.194,1.187 -1.073,0.629 0,0"
         style="fill:#ffffff;fill-opacity:1;fill-rule:nonzero;stroke:none"
         id="path58" /></g><g
       id="g60"
       transform="translate(86.461156,296.42374)"><path
         d="m 0,0 c -0.436,0.346 -0.841,0.725 -1.25,1.105 -0.374,0.413 -0.771,0.809 -1.1,1.275 -0.345,0.452 -0.645,0.953 -0.85,1.552 -0.252,0.577 -0.101,1.425 0.143,1.917 0.221,0.489 0.291,0.8 0.151,1.272 -0.032,0.222 -0.164,0.457 -0.239,0.689 -0.108,0.23 -0.244,0.459 -0.357,0.695 -0.248,0.465 -0.553,0.918 -0.825,1.389 -0.297,0.458 -0.598,0.917 -0.868,1.41 0.436,-0.346 0.842,-0.725 1.252,-1.104 0.374,-0.413 0.77,-0.809 1.099,-1.276 0.346,-0.452 0.645,-0.953 0.851,-1.551 0.249,-0.579 0.1,-1.427 -0.145,-1.918 C -2.36,4.966 -2.429,4.654 -2.29,4.182 -2.257,3.959 -2.126,3.726 -2.051,3.493 -1.942,3.264 -1.809,3.034 -1.694,2.798 -1.445,2.333 -1.142,1.879 -0.868,1.409 -0.571,0.951 -0.271,0.492 0,0"
         style="fill:#ffffff;fill-opacity:1;fill-rule:nonzero;stroke:none"
         id="path62" /></g><g
       id="g64"
       transform="translate(94.224756,312.36954)"><path
         d="m 0,0 c -1.506,0.212 -2.986,0.471 -4.448,0.477 -1.471,0.024 -2.83,-0.328 -4.171,-0.941 -0.688,-0.285 -1.38,-0.62 -2.136,-0.85 -0.747,-0.238 -1.529,-0.386 -2.308,-0.439 -1.563,-0.111 -3.089,0.177 -4.549,0.574 1.521,-0.014 3.019,-0.029 4.46,0.201 1.449,0.226 2.747,0.791 4.135,1.431 0.705,0.299 1.459,0.571 2.245,0.718 0.392,0.07 0.793,0.09 1.185,0.127 C -5.192,1.291 -4.798,1.283 -4.409,1.253 -2.849,1.108 -1.396,0.582 0,0"
         style="fill:#ffffff;fill-opacity:1;fill-rule:nonzero;stroke:none"
         id="path66" /></g><g
       id="g68"
       transform="translate(75.869356,300.91684)"><path
         d="m 0,0 c -0.674,0.773 -1.259,1.622 -1.639,2.619 -0.202,0.492 -0.321,1.044 -0.288,1.653 0.04,0.611 0.421,1.255 0.891,1.603 C -0.1,6.571 0.889,6.774 1.106,7.502 1.339,8.268 1.005,9.31 0.743,10.274 1.065,9.875 1.355,9.448 1.576,8.967 1.785,8.488 1.967,7.943 1.865,7.319 1.775,6.67 1.252,6.168 0.812,5.876 0.356,5.573 -0.095,5.365 -0.412,5.095 -0.754,4.845 -0.919,4.549 -0.989,4.16 -1.056,3.766 -0.995,3.306 -0.895,2.842 -0.691,1.911 -0.314,0.974 0,0"
         style="fill:#ffffff;fill-opacity:1;fill-rule:nonzero;stroke:none"
         id="path70" /></g><g
       id="g72"
       transform="translate(86.461156,318.82264)"><path
         d="m 0,0 c -1.68,0.429 -3.366,0.736 -5.011,0.586 -1.649,-0.144 -3.177,-0.784 -4.73,-1.517 -1.553,-0.717 -3.291,-1.4 -5.108,-1.387 -1.809,-0.024 -3.518,0.578 -5.049,1.364 1.68,-0.428 3.366,-0.734 5.011,-0.585 1.649,0.143 3.178,0.784 4.73,1.516 1.553,0.716 3.292,1.398 5.107,1.385 C -3.239,1.386 -1.531,0.785 0,0"
         style="fill:#ffffff;fill-opacity:1;fill-rule:nonzero;stroke:none"
         id="path74" /></g><g
       id="g76"
       transform="translate(66.562656,302.84654)"><path
         d="m 0,0 c -1.068,0.965 -2.145,2.14 -2.371,3.771 -0.114,0.802 0.092,1.654 0.463,2.345 0.369,0.7 0.854,1.286 1.308,1.853 0.929,1.097 1.818,2.188 1.766,3.503 -0.043,1.31 -0.803,2.615 -1.595,3.828 1.07,-0.964 2.147,-2.139 2.373,-3.77 C 2.059,10.727 1.852,9.875 1.481,9.184 1.11,8.484 0.626,7.897 0.171,7.332 -0.759,6.235 -1.647,5.144 -1.597,3.829 -1.553,2.518 -0.792,1.212 0,0"
         style="fill:#ffffff;fill-opacity:1;fill-rule:nonzero;stroke:none"
         id="path78" /></g><g
       id="g80"
       transform="translate(181.20816,300.36994)"><path
         d="m 0,0 c 0,0 -13.326,1.101 -19.918,9.621 -2.232,2.885 -1.115,8.27 -3.981,9.44 2.892,1.424 0.251,10.138 -1.41,13.043 0,0 10.791,-8.002 12.76,-4.355 2.396,-5.055 6.275,-3.517 8.596,-6.518 C 2.639,12.712 0,0 0,0"
         style="fill:#f36220;fill-opacity:1;fill-rule:nonzero;stroke:none"
         id="path82" /></g><g
       id="g84"
       transform="translate(181.20816,300.36994)"><path
         d="m 0,0 c 0,0 -13.326,1.101 -19.918,9.621 -2.232,2.885 -1.115,8.27 -3.981,9.44 2.892,1.424 0.251,10.138 -1.41,13.043 0,0 10.791,-8.002 12.76,-4.355 2.396,-5.055 6.275,-3.517 8.596,-6.518 C 2.639,12.712 0,0 0,0 Z"
         style="fill:none;stroke:#f36220;stroke-width:1;stroke-linecap:butt;stroke-linejoin:miter;stroke-miterlimit:10;stroke-dasharray:none;stroke-opacity:1"
         id="path86" /></g><g
       id="g88"
       transform="translate(176.37516,303.84264)"><path
         d="m 0,0 c 0,0 -3.62,9.097 -0.554,15.758 1.039,2.255 4.679,2.976 4.468,5.186 1.8,-1.524 6.257,2.581 7.492,4.464 0,0 -1.4,-9.293 1.455,-9.605 C 10.554,12.852 12.739,10.708 11.659,8.361 8.593,1.701 0,0 0,0"
         style="fill:#f36220;fill-opacity:1;fill-rule:nonzero;stroke:none"
         id="path90" /></g><g
       id="g92"
       transform="translate(176.37516,303.84264)"><path
         d="m 0,0 c 0,0 -3.62,9.097 -0.554,15.758 1.039,2.255 4.679,2.976 4.468,5.186 1.8,-1.524 6.257,2.581 7.492,4.464 0,0 -1.4,-9.293 1.455,-9.605 C 10.554,12.852 12.739,10.708 11.659,8.361 8.593,1.701 0,0 0,0 Z"
         style="fill:none;stroke:#f36220;stroke-width:1;stroke-linecap:butt;stroke-linejoin:miter;stroke-miterlimit:10;stroke-dasharray:none;stroke-opacity:1"
         id="path94" /></g><g
       id="g96"
       transform="translate(179.30386,306.80654)"><path
         d="m 0,0 c 0,0 -8.354,5.697 -15.458,4.103 -2.405,-0.54 -3.746,-4.048 -5.892,-3.339 1.195,-2.157 -3.629,-5.728 -5.701,-6.551 0,0 9.415,-0.678 9.23,-3.628 3.311,1.663 5.05,-1.023 7.552,-0.462 C -3.164,-8.282 0,0 0,0"
         style="fill:#f36220;fill-opacity:1;fill-rule:nonzero;stroke:none"
         id="path98" /></g><g
       id="g100"
       transform="translate(179.30386,306.80654)"><path
         d="m 0,0 c 0,0 -8.354,5.697 -15.458,4.103 -2.405,-0.54 -3.746,-4.048 -5.892,-3.339 1.195,-2.157 -3.629,-5.728 -5.701,-6.551 0,0 9.415,-0.678 9.23,-3.628 3.311,1.663 5.05,-1.023 7.552,-0.462 C -3.164,-8.282 0,0 0,0 Z"
         style="fill:none;stroke:#f36220;stroke-width:1;stroke-linecap:butt;stroke-linejoin:miter;stroke-miterlimit:10;stroke-dasharray:none;stroke-opacity:1"
         id="path102" /></g><g
       id="g104"
       transform="translate(184.88886,295.44174)"><path
         d="m 0,0 c 0,0 -11.821,7.171 -2.253,10.973 1.6,0.635 4.463,2.306 4.149,3.898 1.584,-1.159 5.006,1.621 5.908,2.926 0,0 -0.563,-6.61 1.818,-6.939 C 7.903,8.827 9.848,7.21 9.105,5.568 6.996,0.906 0,0 0,0"
         style="fill:#f36220;fill-opacity:1;fill-rule:nonzero;stroke:none"
         id="path106" /></g><g
       id="g108"
       transform="translate(184.88886,295.44174)"><path
         d="m 0,0 c 0,0 -11.821,7.171 -2.253,10.973 1.6,0.635 4.463,2.306 4.149,3.898 1.584,-1.159 5.006,1.621 5.908,2.926 0,0 -0.563,-6.61 1.818,-6.939 C 7.903,8.827 9.848,7.21 9.105,5.568 6.996,0.906 0,0 0,0 Z"
         style="fill:none;stroke:#f36220;stroke-width:1;stroke-linecap:butt;stroke-linejoin:miter;stroke-miterlimit:10;stroke-dasharray:none;stroke-opacity:1"
         id="path110" /></g><g
       id="g112"
       transform="translate(186.21606,294.90314)"><path
         d="m 0,0 c 0,0 -1.596,9.389 -10.709,5.042 -1.549,-0.738 -3.142,-2.675 -4.612,-1.868 0.628,-1.812 -3.239,-3.988 -4.823,-4.373 0,0 6.72,-1.664 6.267,-3.922 2.569,0.885 3.533,-1.403 5.399,-1.272 C -3.179,-6.02 0,0 0,0"
         style="fill:#f36220;fill-opacity:1;fill-rule:nonzero;stroke:none"
         id="path114" /></g><g
       id="g116"
       transform="translate(186.21606,294.90314)"><path
         d="m 0,0 c 0,0 -1.596,9.389 -10.709,5.042 -1.549,-0.738 -3.142,-2.675 -4.612,-1.868 0.628,-1.812 -3.239,-3.988 -4.823,-4.373 0,0 6.72,-1.664 6.267,-3.922 2.569,0.885 3.533,-1.403 5.399,-1.272 C -3.179,-6.02 0,0 0,0 Z"
         style="fill:none;stroke:#f36220;stroke-width:1;stroke-linecap:butt;stroke-linejoin:miter;stroke-miterlimit:10;stroke-dasharray:none;stroke-opacity:1"
         id="path118" /></g><g
       id="g120"
       transform="translate(188.14866,293.11364)"><path
         d="M 0,0 C 1.006,-0.997 1.801,-1.856 2.329,-2.442 2.457,-2.958 2.532,-3.442 2.37,-3.5 2.277,-3.533 2.107,-3.433 1.812,-3.093 -0.65,-0.251 -19.523,14.228 -19.991,16.86"
         style="fill:#f36220;fill-opacity:1;fill-rule:nonzero;stroke:none"
         id="path122" /></g><g
       id="g124"
       transform="translate(186.53636,293.76304)"><path
         d="m 0,0 c -2.235,2.385 -4.387,4.84 -6.523,7.306 -2.146,2.459 -4.231,4.968 -6.312,7.482 -2.062,2.527 -4.122,5.059 -6.102,7.657 -0.989,1.3 -1.972,2.605 -2.928,3.932 -0.897,1.351 -1.934,2.704 -2.324,4.315 0.604,-1.528 1.683,-2.761 2.713,-4.018 1.031,-1.26 2.079,-2.507 3.139,-3.746 2.116,-2.48 4.195,-4.993 6.274,-7.506 2.061,-2.528 4.126,-5.054 6.13,-7.629 C -3.919,5.225 -1.917,2.647 0,0"
         style="fill:#ffffff;fill-opacity:1;fill-rule:nonzero;stroke:none"
         id="path126" /></g><g
       id="g128"
       transform="translate(184.88886,295.44174)"><path
         d="m 0,0 c -1.38,0.278 -2.742,0.651 -4.055,0.539 -1.331,-0.067 -2.339,-0.822 -3.331,-1.787 -0.533,-0.463 -1.064,-0.986 -1.77,-1.331 -0.326,-0.203 -0.728,-0.269 -1.085,-0.401 -0.378,-0.054 -0.763,-0.097 -1.136,-0.102 -1.519,0.022 -2.833,0.683 -4.077,1.317 1.38,-0.277 2.743,-0.649 4.056,-0.537 1.33,0.066 2.337,0.822 3.331,1.785 0.533,0.462 1.063,0.987 1.77,1.33 0.326,0.203 0.727,0.269 1.085,0.401 0.377,0.054 0.762,0.096 1.135,0.101 C -2.558,1.293 -1.244,0.633 0,0"
         style="fill:#ffffff;fill-opacity:1;fill-rule:nonzero;stroke:none"
         id="path130" /></g><g
       id="g132"
       transform="translate(178.50896,303.72884)"><path
         d="m 0,0 c -1.891,0.529 -3.816,0.753 -5.681,0.486 -1.869,-0.262 -3.639,-0.977 -5.434,-1.727 -1.797,-0.731 -3.707,-1.46 -5.734,-1.577 -2.022,-0.154 -4.023,0.373 -5.76,1.26 1.89,-0.527 3.816,-0.751 5.68,-0.484 1.868,0.261 3.64,0.977 5.435,1.726 1.797,0.73 3.707,1.458 5.733,1.575 C -3.738,1.412 -1.737,0.887 0,0"
         style="fill:#ffffff;fill-opacity:1;fill-rule:nonzero;stroke:none"
         id="path134" /></g><g
       id="g136"
       transform="translate(177.93186,305.11904)"><path
         d="m 0,0 c -0.653,1.685 -0.42,3.655 0.259,5.333 0.657,1.709 1.67,3.214 2.661,4.68 1.011,1.456 2.052,2.869 2.892,4.374 0.816,1.497 1.444,3.163 1.145,4.949 C 7.071,18.914 7.233,18.48 7.285,18.031 7.28,17.584 7.371,17.111 7.283,16.663 7.168,15.753 6.894,14.863 6.512,14.042 5.769,12.377 4.732,10.904 3.743,9.446 2.738,7.997 1.73,6.567 0.972,5.022 0.226,3.486 -0.263,1.781 0,0"
         style="fill:#ffffff;fill-opacity:1;fill-rule:nonzero;stroke:none"
         id="path138" /></g><g
       id="g140"
       transform="translate(191.85076,308.90514)"><path
         d="M 0,0 C 0.159,-0.703 -0.044,-1.472 -0.402,-2.123 -0.783,-2.768 -1.3,-3.304 -1.838,-3.786 -2.916,-4.752 -4.104,-5.52 -5.146,-6.401 c -1.048,-0.858 -1.976,-1.852 -2.302,-3.095 -0.337,-1.245 -0.017,-2.646 0.486,-3.967 -0.425,0.57 -0.779,1.2 -1.035,1.892 -0.231,0.696 -0.339,1.467 -0.216,2.231 0.231,1.569 1.332,2.795 2.428,3.707 1.127,0.923 2.339,1.653 3.459,2.452 C -1.24,-2.383 -0.118,-1.469 0,0"
         style="fill:#ffffff;fill-opacity:1;fill-rule:nonzero;stroke:none"
         id="path142" /></g><g
       id="g144"
       transform="translate(264.17696,302.17124)"><path
         d="m 0,0 c 0,0 -8.733,14.773 -3.807,23.491 3.869,6.845 13.611,12.926 13.611,12.926 0,0 12.214,-14.407 6.289,-22.682 C 10.782,6.19 0,0 0,0"
         style="fill:#f36220;fill-opacity:1;fill-rule:nonzero;stroke:none"
         id="path146" /></g><g
       id="g148"
       transform="translate(268.94256,304.70984)"><path
         d="m 0,0 c 0,0 3.778,9.685 11.016,11.531 7.237,1.847 15.193,-4.844 15.193,-4.844 0,0 -3.777,-9.684 -11.015,-11.531 C 7.957,-6.69 0,0 0,0"
         style="fill:#f36220;fill-opacity:1;fill-rule:nonzero;stroke:none"
         id="path150" /></g><g
       id="g152"
       transform="translate(263.63496,306.72694)"><path
         d="m 0,0 c 0,0 8.604,1.871 13.492,-2.39 4.888,-4.26 4.209,-13.04 4.209,-13.04 0,0 -8.603,-1.87 -13.492,2.39 C -0.679,-8.779 0,0 0,0"
         style="fill:#f36220;fill-opacity:1;fill-rule:nonzero;stroke:none"
         id="path154" /></g><g
       id="g156"
       transform="translate(264.18376,305.58044)"><path
         d="m 0,0 c 0,0 0.474,10.385 -5.394,15.007 -5.867,4.623 -15.852,1.733 -15.852,1.733 0,0 -0.474,-10.385 5.393,-15.007 C -9.986,-2.89 0,0 0,0"
         style="fill:#f36220;fill-opacity:1;fill-rule:nonzero;stroke:none"
         id="path158" /></g><g
       id="g160"
       transform="translate(270.09886,305.63414)"><path
         d="m 0,0 c 0,0 -6.82,5.568 -13.109,3.986 -6.288,-1.582 -9.663,-9.715 -9.663,-9.715 0,0 6.821,-5.567 13.109,-3.986 C -3.374,-8.133 0,0 0,0"
         style="fill:#f36220;fill-opacity:1;fill-rule:nonzero;stroke:none"
         id="path162" /></g><g
       id="g164"
       transform="translate(275.27366,319.56234)"><path
         d="M 0,0 C 0.678,2.08 1.151,3.825 1.451,5.006 1.183,5.82 0.858,6.555 0.551,6.527 0.374,6.512 0.196,6.257 0.041,5.58 1.55,12.158 -19.942,-28.094 -16.201,-37.17"
         style="fill:#f36220;fill-opacity:1;fill-rule:nonzero;stroke:none"
         id="path166" /></g><g
       id="g168"
       transform="translate(262.27946,293.52724)"><path
         d="m 0,0 c 0.857,3.085 1.392,6.104 1.813,9.168 l 1.128,9.273 c 0.421,3.115 0.941,6.27 1.857,9.356 0.892,3.077 2.172,6.125 4.146,8.666 C 8.099,33.374 7.53,30.357 7.085,27.298 L 5.914,18.042 C 5.488,14.932 4.987,11.781 4.096,8.688 3.227,5.608 1.979,2.538 0,0"
         style="fill:#ffffff;fill-opacity:1;fill-rule:nonzero;stroke:none"
         id="path170" /></g><g
       id="g172"
       transform="translate(264.85076,303.68494)"><path
         d="m 0,0 c 1.381,1.114 2.85,1.936 4.294,2.729 1.47,0.777 2.834,1.488 4.315,2.236 1.512,0.764 3.176,1.342 4.82,1.722 1.658,0.378 3.344,0.603 5.115,0.541 C 17.169,6.105 15.707,5.273 14.259,4.478 12.793,3.694 11.385,3.001 9.93,2.272 8.446,1.524 6.767,0.897 5.119,0.528 3.457,0.15 1.77,-0.065 0,0"
         style="fill:#ffffff;fill-opacity:1;fill-rule:nonzero;stroke:none"
         id="path174" /></g><g
       id="g176"
       transform="translate(249.53436,317.07164)"><path
         d="m 0,0 c 1.667,-0.607 3.129,-1.439 4.556,-2.267 1.423,-0.858 2.737,-1.658 4.142,-2.54 1.436,-0.9 2.79,-2.026 3.964,-3.238 1.181,-1.224 2.244,-2.552 3.107,-4.1 -1.672,0.597 -3.14,1.42 -4.569,2.249 -1.428,0.85 -2.75,1.698 -4.125,2.567 C 5.668,-6.445 4.264,-5.331 3.097,-4.11 1.914,-2.883 0.858,-1.549 0,0"
         style="fill:#ffffff;fill-opacity:1;fill-rule:nonzero;stroke:none"
         id="path178" /></g><g
       id="g180"
       transform="translate(265.76976,305.39044)"><path
         d="m 0,0 c 1.541,-0.526 2.899,-1.281 4.169,-2.197 0.638,-0.454 1.242,-0.967 1.818,-1.547 0.575,-0.572 1.105,-1.277 1.518,-1.867 0.776,-1.136 1.667,-2.18 2.599,-3.368 0.908,-1.184 1.829,-2.408 2.561,-3.868 -1.547,0.513 -2.908,1.262 -4.186,2.157 C 7.227,-9.807 5.978,-8.696 5.051,-7.336 4.609,-6.685 4.258,-6.162 3.84,-5.6 L 2.529,-3.881 C 1.643,-2.689 0.726,-1.462 0,0"
         style="fill:#ffffff;fill-opacity:1;fill-rule:nonzero;stroke:none"
         id="path182" /></g><g
       id="g184"
       transform="translate(250.85566,300.36994)"><path
         d="m 0,0 c 1.241,1.055 2.577,1.828 3.957,2.499 1.371,0.66 2.85,1.199 4.308,1.576 1.421,0.377 2.859,0.718 4.359,0.966 1.498,0.234 3.028,0.399 4.656,0.278 C 16.045,4.254 14.714,3.473 13.341,2.793 11.969,2.125 10.529,1.567 9.036,1.177 7.575,0.802 6.16,0.494 4.654,0.254 3.155,0.033 1.625,-0.125 0,0"
         style="fill:#ffffff;fill-opacity:1;fill-rule:nonzero;stroke:none"
         id="path186" /></g><g
       id="g188"
       transform="translate(385.85666,323.02234)"><path
         d="m 0,0 c 0,0 3.679,-5.649 -6.229,-16.117 -9.908,-10.467 -43.637,-11.91 -43.637,-11.91 0,0 10.803,9.223 20.711,19.691 C -19.248,2.131 0,0 0,0"
         style="fill:#f36220;fill-opacity:1;fill-rule:nonzero;stroke:none"
         id="path190" /></g><g
       id="g192"
       transform="translate(374.55876,318.15664)"><path
         d="m 0,0 c 0,0 3.106,-6.456 0.997,-14.839 -2.109,-8.384 -18.084,-16.192 -18.084,-16.192 0,0 2.319,9.693 4.428,18.076 C -10.55,-4.572 0,0 0,0"
         style="fill:#f36220;fill-opacity:1;fill-rule:nonzero;stroke:none"
         id="path194" /></g><g
       id="g196"
       transform="translate(385.89866,323.00814)"><path
         d="m 0,0 c 0,0 3.105,-6.456 0.997,-14.839 -2.109,-8.383 -15.882,-17.853 -15.882,-17.853 0,0 0.116,11.354 2.226,19.737 C -10.55,-4.572 0,0 0,0"
         style="fill:#f36220;fill-opacity:1;fill-rule:nonzero;stroke:none"
         id="path198" /></g><g
       id="g200"
       transform="translate(369.06166,314.14484)"><path
         d="m 0,0 c 0,0 1.448,-7.017 -2.631,-14.638 -4.078,-7.622 -22.713,-11.176 -22.713,-11.176 0,0 5.843,8.692 9.922,16.314 C -11.344,-1.878 0,0 0,0"
         style="fill:#f36220;fill-opacity:1;fill-rule:nonzero;stroke:none"
         id="path202" /></g><g
       id="g204"
       transform="translate(389.85566,323.89924)"><path
         d="M 0,0 C 1.511,1.582 2.691,2.951 3.473,3.886 3.583,4.736 3.608,5.539 3.319,5.647 3.153,5.71 2.882,5.557 2.449,5.014 -1.169,0.472 -30.437,-22.156 -30.681,-26.511"
         style="fill:#f36220;fill-opacity:1;fill-rule:nonzero;stroke:none"
         id="path206" /></g><g
       id="g208"
       transform="translate(385.85666,323.02234)"><path
         d="m 0,0 c -2.989,-2.653 -6.309,-4.909 -9.672,-7.038 -3.365,-2.137 -6.826,-4.098 -10.291,-6.036 -3.483,-1.906 -6.974,-3.786 -10.476,-5.634 -3.497,-1.868 -6.987,-3.718 -10.455,-5.691 2.989,2.655 6.307,4.912 9.67,7.04 3.367,2.137 6.828,4.098 10.293,6.034 3.485,1.904 6.975,3.783 10.479,5.632 C -6.956,-3.826 -3.466,-1.976 0,0"
         style="fill:#ffffff;fill-opacity:1;fill-rule:nonzero;stroke:none"
         id="path210" /></g><g
       id="g212"
       transform="translate(361.94156,308.84994)"><path
         d="m 0,0 c -0.467,-1.55 -1.08,-2.991 -1.74,-4.415 -0.317,-0.719 -0.692,-1.416 -1.13,-2.143 -0.453,-0.729 -1.05,-1.373 -1.624,-1.934 -1.16,-1.11 -2.371,-2.078 -3.62,-3.029 -1.251,-0.944 -2.542,-1.845 -3.97,-2.607 0.858,1.37 1.859,2.595 2.916,3.759 1.053,1.163 2.18,2.272 3.286,3.316 0.548,0.525 1.031,1.021 1.467,1.58 0.453,0.557 0.858,1.218 1.334,1.845 C -2.167,-2.352 -1.17,-1.113 0,0"
         style="fill:#ffffff;fill-opacity:1;fill-rule:nonzero;stroke:none"
         id="path214" /></g><g
       id="g216"
       transform="translate(369.89866,313.23714)"><path
         d="m 0,0 c -0.509,-1.898 -1.168,-3.699 -1.534,-5.502 -0.172,-0.899 -0.353,-1.87 -0.638,-2.854 -0.285,-0.979 -0.687,-1.899 -1.114,-2.788 -0.86,-1.778 -1.909,-3.41 -3.011,-5.004 -1.113,-1.585 -2.316,-3.106 -3.687,-4.512 0.667,1.85 1.494,3.591 2.345,5.308 l 2.555,5.084 c 0.413,0.838 0.8,1.674 1.124,2.518 0.349,0.83 0.561,1.745 0.935,2.688 C -2.322,-3.167 -1.239,-1.516 0,0"
         style="fill:#ffffff;fill-opacity:1;fill-rule:nonzero;stroke:none"
         id="path218" /></g><g
       id="g220"
       transform="translate(381.67306,320.32844)"><path
         d="m 0,0 c -0.154,-0.563 -0.315,-1.115 -0.489,-1.655 -0.135,-0.554 -0.282,-1.097 -0.403,-1.641 -0.212,-1.097 -0.36,-2.172 -0.385,-3.275 -0.019,-1.105 -0.023,-2.234 -0.069,-3.421 -0.077,-1.178 -0.244,-2.378 -0.532,-3.536 -0.615,-2.312 -1.56,-4.489 -2.759,-6.48 -0.566,-1.016 -1.253,-1.953 -1.896,-2.912 -0.71,-0.916 -1.42,-1.827 -2.199,-2.686 0.402,1.095 0.882,2.134 1.348,3.177 0.434,1.056 0.924,2.081 1.353,3.121 0.207,0.524 0.421,1.044 0.649,1.555 0.211,0.518 0.39,1.045 0.585,1.564 0.385,1.039 0.74,2.083 0.98,3.144 0.605,2.099 0.632,4.267 0.993,6.631 0.166,1.178 0.551,2.336 1.004,3.423 0.266,0.529 0.533,1.053 0.826,1.556 C -0.674,-0.944 -0.34,-0.466 0,0"
         style="fill:#ffffff;fill-opacity:1;fill-rule:nonzero;stroke:none"
         id="path222" /></g><g
       id="g224"
       transform="translate(164.07869,227.72205)"><path
         d="m 0,0 c 2.66,-1.251 5.156,-2.758 7.612,-4.326 2.439,-1.593 4.837,-3.251 7.069,-5.165 -2.661,1.25 -5.158,2.756 -7.612,4.326 C 4.632,-3.57 2.233,-1.912 0,0"
         style="fill:#ffffff;fill-opacity:1;fill-rule:nonzero;stroke:none"
         id="path226" /></g><g
       id="g228"
       transform="translate(198.74169,204.70405)"><path
         d="m 0,0 c 0,0 -8.431,10.847 -17.635,17.317 -0.485,0.342 -5.655,1.215 -14.511,5.803 -5.501,2.849 -16.406,10.313 -16.406,10.313 l 14.706,-11.38 7.949,-10.647 C -19.051,5.519 0,0 0,0"
         style="fill:#f36220;fill-opacity:1;fill-rule:nonzero;stroke:none"
         id="path230" /></g><g
       id="g232"
       transform="translate(160.36379,228.86465)"><path
         d="m 0,0 c 0,0 -3.061,-4.083 7.552,-8.292 10.612,-4.209 30.878,-6.952 30.878,-6.952 0,0 -12.487,9.826 -23.098,14.036 C 4.72,3.001 0,0 0,0"
         style="fill:#f36220;fill-opacity:1;fill-rule:nonzero;stroke:none"
         id="path234" /></g><g
       id="g236"
       transform="translate(161.19289,229.89005)"><path
         d="m 0,0 c 0,0 -3.055,-5.946 6.487,-8.055 9.543,-2.109 27.659,0.47 27.659,0.47 0,0 -13.198,6.05 -22.741,8.159 C 1.863,2.683 0,0 0,0"
         style="fill:#f36220;fill-opacity:1;fill-rule:nonzero;stroke:none"
         id="path238" /></g><g
       id="g240"
       transform="translate(161.44779,229.62545)"><path
         d="m 0,0 c 0,0 -0.337,-4.503 7.45,-4.59 7.788,-0.087 20.75,4.274 20.75,4.274 0,0 -10.227,5.845 -18.015,5.932 C 2.397,5.704 0,0 0,0"
         style="fill:#f36220;fill-opacity:1;fill-rule:nonzero;stroke:none"
         id="path242" /></g><g
       id="g244"
       transform="translate(161.43799,229.93885)"><path
         d="m 0,0 c 0,0 3.925,3.235 10.888,-3.82 6.962,-7.055 14.326,-21.727 14.326,-21.727 0,0 -15.618,9.482 -22.581,16.536 C -4.329,-1.956 0,0 0,0"
         style="fill:#f36220;fill-opacity:1;fill-rule:nonzero;stroke:none"
         id="path246" /></g><g
       id="g248"
       transform="translate(160.33159,229.39105)"><path
         d="m 0,0 c 0,0 7.817,2.594 11.718,-3.914 3.901,-6.507 2.038,-19.503 2.038,-19.503 0,0 -7.16,11.229 -13.682,16.356 C -5.044,-3.038 0,0 0,0"
         style="fill:#f36220;fill-opacity:1;fill-rule:nonzero;stroke:none"
         id="path250" /></g><g
       id="g252"
       transform="translate(160.89209,229.56975)"><path
         d="m 0,0 c 0,0 6.307,0.677 7.189,-4.793 0.884,-5.47 -3.991,-15.015 -3.991,-15.015 0,0 -8.028,6.426 -8.911,11.896 C -6.776,-1.327 -1.391,-0.515 0,0"
         style="fill:#f36220;fill-opacity:1;fill-rule:nonzero;stroke:none"
         id="path254" /></g><g
       id="g256"
       transform="translate(193.06199,208.05855)"><path
         d="m 0,0 c -2.649,1.59 -5.235,3.27 -7.812,4.962 -2.584,1.684 -5.123,3.433 -7.661,5.181 -2.525,1.768 -5.048,3.538 -7.528,5.371 l -3.718,2.753 c -1.218,0.947 -2.456,1.867 -3.656,2.839 1.33,-0.786 2.623,-1.626 3.937,-2.437 l 3.876,-2.523 c 2.583,-1.685 5.122,-3.433 7.66,-5.182 2.523,-1.77 5.048,-3.539 7.527,-5.373 C -4.89,3.767 -2.414,1.929 0,0"
         style="fill:#ffffff;fill-opacity:1;fill-rule:nonzero;stroke:none"
         id="path258" /></g><g
       id="g260"
       transform="translate(191.50249,217.40085)"><path
         d="M 0,0 C -1.224,0.246 -2.405,0.588 -3.586,0.752 -4.788,0.932 -5.852,0.931 -6.884,0.35 -7.437,0.077 -8.146,-0.162 -8.823,-0.176 l -0.508,-0.003 -0.488,0.065 c -0.33,0.029 -0.641,0.109 -0.946,0.202 -1.234,0.327 -2.356,0.885 -3.428,1.516 1.224,-0.245 2.406,-0.587 3.587,-0.751 1.201,-0.18 2.264,-0.179 3.296,0.401 0.553,0.271 1.263,0.512 1.94,0.524 l 0.508,0.003 0.488,-0.065 C -4.044,1.688 -3.733,1.606 -3.429,1.514 -2.194,1.187 -1.073,0.63 0,0"
         style="fill:#ffffff;fill-opacity:1;fill-rule:nonzero;stroke:none"
         id="path262" /></g><g
       id="g264"
       transform="translate(183.22809,207.19815)"><path
         d="m 0,0 c -0.436,0.346 -0.841,0.725 -1.25,1.104 -0.374,0.414 -0.771,0.809 -1.1,1.276 -0.345,0.452 -0.645,0.953 -0.85,1.551 -0.251,0.578 -0.101,1.426 0.143,1.917 0.221,0.49 0.291,0.801 0.151,1.273 -0.032,0.222 -0.163,0.456 -0.239,0.689 -0.108,0.229 -0.244,0.459 -0.357,0.694 -0.248,0.465 -0.553,0.919 -0.825,1.389 -0.297,0.459 -0.598,0.918 -0.868,1.41 0.436,-0.345 0.842,-0.724 1.252,-1.104 0.374,-0.412 0.77,-0.808 1.099,-1.275 0.346,-0.452 0.645,-0.954 0.851,-1.552 0.25,-0.578 0.1,-1.426 -0.145,-1.917 C -2.36,4.965 -2.428,4.654 -2.29,4.182 -2.257,3.959 -2.126,3.726 -2.051,3.493 -1.942,3.264 -1.809,3.033 -1.693,2.798 -1.445,2.333 -1.142,1.879 -0.868,1.409 -0.57,0.95 -0.27,0.491 0,0"
         style="fill:#ffffff;fill-opacity:1;fill-rule:nonzero;stroke:none"
         id="path266" /></g><g
       id="g268"
       transform="translate(190.99169,223.14345)"><path
         d="m 0,0 c -1.506,0.212 -2.986,0.471 -4.447,0.477 -1.472,0.024 -2.831,-0.328 -4.172,-0.941 -0.688,-0.284 -1.38,-0.62 -2.136,-0.85 -0.747,-0.238 -1.529,-0.385 -2.308,-0.439 -1.563,-0.111 -3.089,0.177 -4.549,0.574 1.521,-0.014 3.019,-0.029 4.46,0.201 1.45,0.226 2.747,0.791 4.135,1.431 0.705,0.299 1.459,0.571 2.246,0.718 0.391,0.07 0.792,0.09 1.184,0.127 C -5.192,1.291 -4.798,1.284 -4.409,1.253 -2.849,1.108 -1.396,0.582 0,0"
         style="fill:#ffffff;fill-opacity:1;fill-rule:nonzero;stroke:none"
         id="path270" /></g><g
       id="g272"
       transform="translate(172.63629,211.69135)"><path
         d="m 0,0 c -0.673,0.772 -1.259,1.621 -1.639,2.619 -0.202,0.491 -0.321,1.044 -0.287,1.652 0.039,0.612 0.42,1.256 0.89,1.604 C -0.1,6.571 0.889,6.774 1.107,7.502 1.34,8.268 1.005,9.31 0.743,10.273 1.066,9.875 1.355,9.448 1.576,8.966 1.785,8.488 1.967,7.943 1.865,7.318 1.776,6.67 1.252,6.168 0.812,5.875 0.356,5.572 -0.095,5.364 -0.412,5.094 -0.754,4.845 -0.919,4.549 -0.988,4.16 -1.056,3.765 -0.995,3.305 -0.894,2.842 -0.691,1.911 -0.314,0.974 0,0"
         style="fill:#ffffff;fill-opacity:1;fill-rule:nonzero;stroke:none"
         id="path274" /></g><g
       id="g276"
       transform="translate(183.22809,229.59665)"><path
         d="M 0,0 C -1.68,0.429 -3.365,0.736 -5.011,0.586 -6.66,0.442 -8.188,-0.198 -9.74,-0.931 c -1.554,-0.717 -3.291,-1.4 -5.108,-1.387 -1.81,-0.024 -3.519,0.578 -5.05,1.364 1.68,-0.428 3.367,-0.734 5.011,-0.585 1.649,0.144 3.178,0.784 4.73,1.517 1.553,0.715 3.292,1.397 5.107,1.385 C -3.239,1.387 -1.531,0.785 0,0"
         style="fill:#ffffff;fill-opacity:1;fill-rule:nonzero;stroke:none"
         id="path278" /></g><g
       id="g280"
       transform="translate(163.32959,213.62055)"><path
         d="m 0,0 c -1.068,0.965 -2.145,2.14 -2.371,3.771 -0.113,0.802 0.092,1.654 0.463,2.345 0.369,0.7 0.854,1.286 1.309,1.853 0.928,1.098 1.817,2.188 1.766,3.503 -0.044,1.31 -0.804,2.616 -1.596,3.828 1.07,-0.964 2.147,-2.139 2.374,-3.77 C 2.059,10.728 1.852,9.875 1.481,9.184 1.11,8.485 0.627,7.898 0.171,7.332 -0.759,6.235 -1.647,5.144 -1.596,3.829 -1.553,2.518 -0.792,1.212 0,0"
         style="fill:#ffffff;fill-opacity:1;fill-rule:nonzero;stroke:none"
         id="path282" /></g><g
       id="g284"
       transform="translate(275.64109,211.14445)"><path
         d="m 0,0 c 0,0 -13.326,1.101 -19.918,9.621 -2.232,2.884 -1.115,8.269 -3.981,9.44 2.892,1.424 0.251,10.138 -1.41,13.043 0,0 10.791,-8.003 12.76,-4.355 2.396,-5.055 6.275,-3.517 8.596,-6.518 C 2.639,12.711 0,0 0,0"
         style="fill:#f36220;fill-opacity:1;fill-rule:nonzero;stroke:none"
         id="path286" /></g><g
       id="g288"
       transform="translate(275.64109,211.14445)"><path
         d="m 0,0 c 0,0 -13.326,1.101 -19.918,9.621 -2.232,2.884 -1.115,8.269 -3.981,9.44 2.892,1.424 0.251,10.138 -1.41,13.043 0,0 10.791,-8.003 12.76,-4.355 2.396,-5.055 6.275,-3.517 8.596,-6.518 C 2.639,12.711 0,0 0,0 Z"
         style="fill:none;stroke:#f36220;stroke-width:1;stroke-linecap:butt;stroke-linejoin:miter;stroke-miterlimit:10;stroke-dasharray:none;stroke-opacity:1"
         id="path290" /></g><g
       id="g292"
       transform="translate(270.80809,214.61665)"><path
         d="m 0,0 c 0,0 -3.62,9.098 -0.554,15.758 1.039,2.255 4.679,2.977 4.469,5.187 1.799,-1.525 6.256,2.58 7.491,4.464 0,0 -1.4,-9.294 1.455,-9.606 C 10.554,12.852 12.74,10.708 11.659,8.362 8.593,1.701 0,0 0,0"
         style="fill:#f36220;fill-opacity:1;fill-rule:nonzero;stroke:none"
         id="path294" /></g><g
       id="g296"
       transform="translate(270.80809,214.61665)"><path
         d="m 0,0 c 0,0 -3.62,9.098 -0.554,15.758 1.039,2.255 4.679,2.977 4.469,5.187 1.799,-1.525 6.256,2.58 7.491,4.464 0,0 -1.4,-9.294 1.455,-9.606 C 10.554,12.852 12.74,10.708 11.659,8.362 8.593,1.701 0,0 0,0 Z"
         style="fill:none;stroke:#f36220;stroke-width:1;stroke-linecap:butt;stroke-linejoin:miter;stroke-miterlimit:10;stroke-dasharray:none;stroke-opacity:1"
         id="path298" /></g><g
       id="g300"
       transform="translate(273.73689,217.58045)"><path
         d="m 0,0 c 0,0 -8.354,5.697 -15.458,4.103 -2.405,-0.54 -3.746,-4.048 -5.892,-3.339 1.195,-2.157 -3.629,-5.728 -5.7,-6.55 0,0 9.414,-0.679 9.229,-3.629 3.311,1.664 5.05,-1.023 7.552,-0.461 C -3.164,-8.283 0,0 0,0"
         style="fill:#f36220;fill-opacity:1;fill-rule:nonzero;stroke:none"
         id="path302" /></g><g
       id="g304"
       transform="translate(273.73689,217.58045)"><path
         d="m 0,0 c 0,0 -8.354,5.697 -15.458,4.103 -2.405,-0.54 -3.746,-4.048 -5.892,-3.339 1.195,-2.157 -3.629,-5.728 -5.7,-6.55 0,0 9.414,-0.679 9.229,-3.629 3.311,1.664 5.05,-1.023 7.552,-0.461 C -3.164,-8.283 0,0 0,0 Z"
         style="fill:none;stroke:#f36220;stroke-width:1;stroke-linecap:butt;stroke-linejoin:miter;stroke-miterlimit:10;stroke-dasharray:none;stroke-opacity:1"
         id="path306" /></g><g
       id="g308"
       transform="translate(279.32179,206.21575)"><path
         d="m 0,0 c 0,0 -11.821,7.171 -2.253,10.973 1.6,0.635 4.464,2.306 4.149,3.898 1.584,-1.159 5.006,1.621 5.908,2.926 0,0 -0.563,-6.61 1.819,-6.938 C 7.903,8.827 9.849,7.21 9.105,5.568 6.996,0.905 0,0 0,0"
         style="fill:#f36220;fill-opacity:1;fill-rule:nonzero;stroke:none"
         id="path310" /></g><g
       id="g312"
       transform="translate(279.32179,206.21575)"><path
         d="m 0,0 c 0,0 -11.821,7.171 -2.253,10.973 1.6,0.635 4.464,2.306 4.149,3.898 1.584,-1.159 5.006,1.621 5.908,2.926 0,0 -0.563,-6.61 1.819,-6.938 C 7.903,8.827 9.849,7.21 9.105,5.568 6.996,0.905 0,0 0,0 Z"
         style="fill:none;stroke:#f36220;stroke-width:1;stroke-linecap:butt;stroke-linejoin:miter;stroke-miterlimit:10;stroke-dasharray:none;stroke-opacity:1"
         id="path314" /></g><g
       id="g316"
       transform="translate(280.64889,205.67665)"><path
         d="m 0,0 c 0,0 -1.596,9.39 -10.709,5.043 -1.549,-0.738 -3.142,-2.676 -4.612,-1.868 0.628,-1.812 -3.238,-3.989 -4.823,-4.373 0,0 6.72,-1.664 6.267,-3.923 2.569,0.885 3.533,-1.402 5.399,-1.271 C -3.179,-6.02 0,0 0,0"
         style="fill:#f36220;fill-opacity:1;fill-rule:nonzero;stroke:none"
         id="path318" /></g><g
       id="g320"
       transform="translate(280.64889,205.67665)"><path
         d="m 0,0 c 0,0 -1.596,9.39 -10.709,5.043 -1.549,-0.738 -3.142,-2.676 -4.612,-1.868 0.628,-1.812 -3.238,-3.989 -4.823,-4.373 0,0 6.72,-1.664 6.267,-3.923 2.569,0.885 3.533,-1.402 5.399,-1.271 C -3.179,-6.02 0,0 0,0 Z"
         style="fill:none;stroke:#f36220;stroke-width:1;stroke-linecap:butt;stroke-linejoin:miter;stroke-miterlimit:10;stroke-dasharray:none;stroke-opacity:1"
         id="path322" /></g><g
       id="g324"
       transform="translate(282.58249,203.88765)"><path
         d="m 0,0 c 1.005,-0.997 1.8,-1.856 2.329,-2.442 0.127,-0.516 0.202,-1 0.04,-1.058 -0.093,-0.032 -0.263,0.067 -0.557,0.407 -2.463,2.842 -21.335,17.321 -21.804,19.953"
         style="fill:#f36220;fill-opacity:1;fill-rule:nonzero;stroke:none"
         id="path326" /></g><g
       id="g328"
       transform="translate(280.96929,204.53705)"><path
         d="m 0,0 c -2.235,2.385 -4.386,4.84 -6.523,7.306 -2.146,2.459 -4.231,4.968 -6.312,7.482 -2.062,2.528 -4.122,5.059 -6.102,7.657 -0.989,1.3 -1.972,2.605 -2.928,3.933 -0.897,1.35 -1.934,2.703 -2.323,4.314 0.603,-1.528 1.682,-2.76 2.712,-4.017 1.031,-1.261 2.079,-2.508 3.139,-3.747 2.116,-2.48 4.195,-4.993 6.275,-7.506 2.06,-2.528 4.125,-5.054 6.129,-7.629 C -3.919,5.226 -1.917,2.647 0,0"
         style="fill:#ffffff;fill-opacity:1;fill-rule:nonzero;stroke:none"
         id="path330" /></g><g
       id="g332"
       transform="translate(279.32179,206.21575)"><path
         d="m 0,0 c -1.379,0.278 -2.742,0.651 -4.055,0.539 -1.331,-0.066 -2.339,-0.822 -3.331,-1.786 -0.532,-0.464 -1.063,-0.987 -1.77,-1.331 -0.326,-0.203 -0.727,-0.27 -1.085,-0.401 -0.378,-0.054 -0.763,-0.097 -1.136,-0.103 -1.519,0.022 -2.833,0.683 -4.076,1.317 1.379,-0.277 2.742,-0.649 4.055,-0.537 1.33,0.067 2.337,0.822 3.331,1.785 0.533,0.462 1.063,0.987 1.77,1.329 0.326,0.204 0.727,0.27 1.085,0.403 0.378,0.054 0.762,0.095 1.136,0.1 C -2.558,1.293 -1.244,0.634 0,0"
         style="fill:#ffffff;fill-opacity:1;fill-rule:nonzero;stroke:none"
         id="path334" /></g><g
       id="g336"
       transform="translate(272.94189,214.50285)"><path
         d="m 0,0 c -1.891,0.529 -3.815,0.753 -5.681,0.486 -1.869,-0.261 -3.639,-0.977 -5.434,-1.727 -1.797,-0.731 -3.707,-1.46 -5.734,-1.577 -2.022,-0.154 -4.023,0.373 -5.76,1.26 1.89,-0.527 3.816,-0.751 5.68,-0.484 1.868,0.261 3.64,0.977 5.435,1.726 1.797,0.73 3.707,1.459 5.733,1.575 C -3.738,1.412 -1.737,0.887 0,0"
         style="fill:#ffffff;fill-opacity:1;fill-rule:nonzero;stroke:none"
         id="path338" /></g><g
       id="g340"
       transform="translate(272.36479,215.89295)"><path
         d="m 0,0 c -0.653,1.685 -0.42,3.655 0.259,5.333 0.657,1.709 1.67,3.214 2.662,4.68 1.01,1.456 2.051,2.869 2.891,4.374 0.817,1.497 1.444,3.163 1.145,4.949 C 7.071,18.915 7.233,18.48 7.285,18.031 7.28,17.584 7.371,17.112 7.283,16.664 7.168,15.753 6.894,14.864 6.512,14.042 5.769,12.377 4.732,10.904 3.743,9.446 2.738,7.997 1.73,6.567 0.972,5.022 0.227,3.486 -0.262,1.781 0,0"
         style="fill:#ffffff;fill-opacity:1;fill-rule:nonzero;stroke:none"
         id="path342" /></g><g
       id="g344"
       transform="translate(286.28369,219.67915)"><path
         d="m 0,0 c 0.16,-0.703 -0.044,-1.472 -0.402,-2.123 -0.38,-0.645 -0.898,-1.181 -1.436,-1.662 -1.077,-0.967 -2.266,-1.735 -3.308,-2.616 -1.048,-0.858 -1.976,-1.851 -2.302,-3.095 -0.337,-1.245 -0.017,-2.646 0.486,-3.967 -0.425,0.571 -0.779,1.2 -1.035,1.892 -0.231,0.696 -0.339,1.466 -0.216,2.232 0.231,1.568 1.333,2.794 2.428,3.707 1.127,0.922 2.339,1.652 3.459,2.451 C -1.24,-2.383 -0.118,-1.469 0,0"
         style="fill:#ffffff;fill-opacity:1;fill-rule:nonzero;stroke:none"
         id="path346" /></g><g
       id="g348"
       transform="translate(356.27589,210.79775)"><path
         d="m 0,0 c 0,0 -8.733,14.774 -3.807,23.491 3.869,6.845 13.611,12.926 13.611,12.926 0,0 12.214,-14.407 6.289,-22.682 C 10.782,6.19 0,0 0,0"
         style="fill:#f36220;fill-opacity:1;fill-rule:nonzero;stroke:none"
         id="path350" /></g><g
       id="g352"
       transform="translate(361.04249,213.33635)"><path
         d="m 0,0 c 0,0 3.777,9.685 11.015,11.531 7.237,1.847 15.193,-4.844 15.193,-4.844 0,0 -3.777,-9.684 -11.015,-11.53 C 7.956,-6.691 0,0 0,0"
         style="fill:#f36220;fill-opacity:1;fill-rule:nonzero;stroke:none"
         id="path354" /></g><g
       id="g356"
       transform="translate(355.73389,215.35345)"><path
         d="m 0,0 c 0,0 8.604,1.871 13.492,-2.39 4.888,-4.26 4.209,-13.04 4.209,-13.04 0,0 -8.603,-1.87 -13.492,2.391 C -0.679,-8.778 0,0 0,0"
         style="fill:#f36220;fill-opacity:1;fill-rule:nonzero;stroke:none"
         id="path358" /></g><g
       id="g360"
       transform="translate(356.28269,214.20695)"><path
         d="m 0,0 c 0,0 0.474,10.385 -5.394,15.007 -5.867,4.623 -15.852,1.733 -15.852,1.733 0,0 -0.474,-10.385 5.393,-15.007 C -9.986,-2.89 0,0 0,0"
         style="fill:#f36220;fill-opacity:1;fill-rule:nonzero;stroke:none"
         id="path362" /></g><g
       id="g364"
       transform="translate(362.19879,214.26115)"><path
         d="m 0,0 c 0,0 -6.821,5.568 -13.11,3.986 -6.288,-1.582 -9.663,-9.715 -9.663,-9.715 0,0 6.821,-5.568 13.11,-3.986 C -3.375,-8.133 0,0 0,0"
         style="fill:#f36220;fill-opacity:1;fill-rule:nonzero;stroke:none"
         id="path366" /></g><g
       id="g368"
       transform="translate(367.37259,228.18885)"><path
         d="M 0,0 C 0.679,2.08 1.151,3.825 1.451,5.006 1.183,5.82 0.858,6.555 0.551,6.528 0.374,6.512 0.196,6.257 0.041,5.581 1.55,12.158 -19.942,-28.094 -16.201,-37.17"
         style="fill:#f36220;fill-opacity:1;fill-rule:nonzero;stroke:none"
         id="path370" /></g><g
       id="g372"
       transform="translate(354.37839,202.15425)"><path
         d="m 0,0 c 0.857,3.085 1.392,6.104 1.813,9.168 l 1.128,9.273 c 0.421,3.115 0.942,6.27 1.857,9.356 0.892,3.077 2.172,6.124 4.146,8.666 C 8.099,33.374 7.53,30.357 7.085,27.297 L 5.914,18.041 C 5.488,14.932 4.987,11.78 4.096,8.688 3.227,5.608 1.979,2.538 0,0"
         style="fill:#ffffff;fill-opacity:1;fill-rule:nonzero;stroke:none"
         id="path374" /></g><g
       id="g376"
       transform="translate(356.94969,212.31195)"><path
         d="m 0,0 c 1.382,1.113 2.85,1.936 4.294,2.729 1.47,0.776 2.834,1.487 4.315,2.235 1.512,0.764 3.176,1.343 4.82,1.722 1.658,0.379 3.344,0.604 5.115,0.542 C 17.169,6.104 15.707,5.272 14.259,4.478 12.794,3.694 11.385,3 9.93,2.272 8.446,1.524 6.767,0.896 5.119,0.528 3.457,0.149 1.77,-0.066 0,0"
         style="fill:#ffffff;fill-opacity:1;fill-rule:nonzero;stroke:none"
         id="path378" /></g><g
       id="g380"
       transform="translate(341.63429,225.69815)"><path
         d="m 0,0 c 1.666,-0.607 3.129,-1.439 4.555,-2.267 1.424,-0.857 2.737,-1.658 4.142,-2.54 1.436,-0.9 2.79,-2.026 3.964,-3.238 1.181,-1.224 2.244,-2.552 3.107,-4.1 -1.672,0.598 -3.14,1.42 -4.569,2.249 -1.428,0.85 -2.75,1.698 -4.125,2.567 C 5.668,-6.445 4.263,-5.331 3.096,-4.11 1.913,-2.883 0.857,-1.549 0,0"
         style="fill:#ffffff;fill-opacity:1;fill-rule:nonzero;stroke:none"
         id="path382" /></g><g
       id="g384"
       transform="translate(357.86869,214.01755)"><path
         d="m 0,0 c 1.541,-0.526 2.899,-1.281 4.17,-2.198 0.637,-0.453 1.241,-0.967 1.818,-1.546 0.574,-0.572 1.104,-1.277 1.517,-1.867 0.776,-1.136 1.667,-2.18 2.599,-3.368 0.908,-1.184 1.829,-2.409 2.561,-3.869 -1.547,0.513 -2.908,1.262 -4.186,2.158 C 7.227,-9.808 5.978,-8.696 5.051,-7.336 4.609,-6.685 4.258,-6.162 3.84,-5.6 L 2.529,-3.882 C 1.643,-2.689 0.726,-1.462 0,0"
         style="fill:#ffffff;fill-opacity:1;fill-rule:nonzero;stroke:none"
         id="path386" /></g><g
       id="g388"
       transform="translate(342.95459,208.99695)"><path
         d="m 0,0 c 1.241,1.055 2.578,1.828 3.957,2.499 1.371,0.66 2.85,1.199 4.308,1.576 1.421,0.376 2.86,0.718 4.359,0.965 1.499,0.234 3.028,0.399 4.656,0.279 C 16.045,4.253 14.714,3.473 13.341,2.792 11.969,2.125 10.529,1.567 9.036,1.177 7.575,0.802 6.16,0.494 4.654,0.254 3.155,0.032 1.625,-0.126 0,0"
         style="fill:#ffffff;fill-opacity:1;fill-rule:nonzero;stroke:none"
         id="path390" /></g><g
       id="g392"
       transform="translate(102.32769,235.94375)"><path
         d="m 0,0 c 0,0 3.678,-5.649 -6.229,-16.117 -9.908,-10.466 -43.638,-11.91 -43.638,-11.91 0,0 10.804,9.223 20.712,19.691 C -19.248,2.131 0,0 0,0"
         style="fill:#f36220;fill-opacity:1;fill-rule:nonzero;stroke:none"
         id="path394" /></g><g
       id="g396"
       transform="translate(91.029791,231.07855)"><path
         d="m 0,0 c 0,0 3.105,-6.457 0.997,-14.84 -2.109,-8.383 -18.084,-16.192 -18.084,-16.192 0,0 2.318,9.694 4.428,18.077 C -10.55,-4.572 0,0 0,0"
         style="fill:#f36220;fill-opacity:1;fill-rule:nonzero;stroke:none"
         id="path398" /></g><g
       id="g400"
       transform="translate(102.36869,235.93005)"><path
         d="m 0,0 c 0,0 3.106,-6.457 0.997,-14.839 -2.109,-8.384 -15.882,-17.854 -15.882,-17.854 0,0 0.117,11.355 2.226,19.738 C -10.55,-4.572 0,0 0,0"
         style="fill:#f36220;fill-opacity:1;fill-rule:nonzero;stroke:none"
         id="path402" /></g><g
       id="g404"
       transform="translate(85.531791,227.06635)"><path
         d="m 0,0 c 0,0 1.448,-7.017 -2.63,-14.638 -4.078,-7.622 -22.714,-11.176 -22.714,-11.176 0,0 5.844,8.692 9.922,16.314 C -11.344,-1.878 0,0 0,0"
         style="fill:#f36220;fill-opacity:1;fill-rule:nonzero;stroke:none"
         id="path406" /></g><g
       id="g408"
       transform="translate(106.32569,236.82075)"><path
         d="M 0,0 C 1.511,1.582 2.692,2.951 3.474,3.886 3.583,4.736 3.608,5.539 3.319,5.647 3.154,5.71 2.883,5.557 2.45,5.014 -1.169,0.472 -30.436,-22.155 -30.681,-26.51"
         style="fill:#f36220;fill-opacity:1;fill-rule:nonzero;stroke:none"
         id="path410" /></g><g
       id="g412"
       transform="translate(102.32769,235.94375)"><path
         d="m 0,0 c -2.99,-2.653 -6.309,-4.909 -9.672,-7.038 -3.365,-2.137 -6.827,-4.098 -10.292,-6.036 -3.483,-1.906 -6.973,-3.785 -10.476,-5.634 -3.496,-1.868 -6.987,-3.718 -10.455,-5.691 2.989,2.655 6.308,4.912 9.671,7.04 3.366,2.137 6.828,4.098 10.293,6.034 3.485,1.904 6.975,3.783 10.478,5.632 C -6.957,-3.826 -3.467,-1.976 0,0"
         style="fill:#ffffff;fill-opacity:1;fill-rule:nonzero;stroke:none"
         id="path414" /></g><g
       id="g416"
       transform="translate(78.412591,221.77185)"><path
         d="m 0,0 c -0.467,-1.55 -1.081,-2.991 -1.741,-4.416 -0.317,-0.719 -0.691,-1.416 -1.129,-2.143 -0.454,-0.728 -1.051,-1.373 -1.624,-1.934 -1.161,-1.109 -2.371,-2.077 -3.621,-3.028 -1.251,-0.944 -2.542,-1.846 -3.97,-2.607 0.859,1.37 1.859,2.594 2.917,3.758 1.053,1.164 2.179,2.273 3.285,3.316 0.549,0.526 1.032,1.022 1.468,1.581 0.453,0.557 0.858,1.217 1.333,1.845 C -2.167,-2.352 -1.17,-1.113 0,0"
         style="fill:#ffffff;fill-opacity:1;fill-rule:nonzero;stroke:none"
         id="path418" /></g><g
       id="g420"
       transform="translate(86.368691,226.15865)"><path
         d="m 0,0 c -0.508,-1.898 -1.168,-3.699 -1.534,-5.502 -0.172,-0.899 -0.353,-1.87 -0.637,-2.854 -0.286,-0.979 -0.688,-1.899 -1.115,-2.788 -0.86,-1.778 -1.908,-3.409 -3.01,-5.004 -1.113,-1.585 -2.316,-3.105 -3.687,-4.512 0.667,1.851 1.494,3.591 2.344,5.308 l 2.556,5.084 c 0.413,0.838 0.8,1.674 1.123,2.518 0.35,0.831 0.561,1.746 0.935,2.688 C -2.321,-3.167 -1.238,-1.516 0,0"
         style="fill:#ffffff;fill-opacity:1;fill-rule:nonzero;stroke:none"
         id="path422" /></g><g
       id="g424"
       transform="translate(98.143091,233.24995)"><path
         d="m 0,0 c -0.154,-0.563 -0.314,-1.115 -0.489,-1.655 -0.134,-0.554 -0.282,-1.097 -0.403,-1.641 -0.212,-1.097 -0.359,-2.172 -0.385,-3.275 -0.018,-1.105 -0.023,-2.234 -0.068,-3.42 -0.077,-1.179 -0.244,-2.378 -0.533,-3.537 -0.615,-2.312 -1.559,-4.489 -2.758,-6.48 -0.566,-1.015 -1.254,-1.954 -1.897,-2.912 -0.71,-0.916 -1.42,-1.827 -2.199,-2.686 0.403,1.095 0.883,2.134 1.348,3.177 0.435,1.056 0.924,2.081 1.354,3.122 0.207,0.524 0.42,1.043 0.649,1.554 0.211,0.518 0.389,1.045 0.585,1.565 0.385,1.038 0.74,2.082 0.979,3.143 0.605,2.099 0.632,4.267 0.993,6.631 0.167,1.179 0.552,2.336 1.005,3.423 0.265,0.529 0.532,1.053 0.825,1.557 C -0.674,-0.944 -0.34,-0.466 0,0"
         style="fill:#ffffff;fill-opacity:1;fill-rule:nonzero;stroke:none"
         id="path426" /></g><g
       id="g428"
       transform="translate(254.54964,129.99269)"><path
         d="m 0,0 c 2.66,-1.252 5.156,-2.758 7.611,-4.326 2.44,-1.593 4.837,-3.251 7.07,-5.165 -2.661,1.25 -5.158,2.756 -7.612,4.326 C 4.631,-3.569 2.233,-1.912 0,0"
         style="fill:#ffffff;fill-opacity:1;fill-rule:nonzero;stroke:none"
         id="path430" /></g><g
       id="g432"
       transform="translate(289.21264,106.97419)"><path
         d="m 0,0 c 0,0 -8.432,10.848 -17.635,17.318 -0.486,0.341 -5.655,1.215 -14.512,5.802 -5.5,2.85 -16.405,10.314 -16.405,10.314 l 14.706,-11.38 7.949,-10.648 C -19.052,5.52 0,0 0,0"
         style="fill:#f36220;fill-opacity:1;fill-rule:nonzero;stroke:none"
         id="path434" /></g><g
       id="g436"
       transform="translate(250.83374,131.13529)"><path
         d="m 0,0 c 0,0 -3.06,-4.083 7.553,-8.292 10.612,-4.209 30.878,-6.952 30.878,-6.952 0,0 -12.487,9.826 -23.099,14.036 C 4.721,3.001 0,0 0,0"
         style="fill:#f36220;fill-opacity:1;fill-rule:nonzero;stroke:none"
         id="path438" /></g><g
       id="g440"
       transform="translate(251.66294,132.16069)"><path
         d="m 0,0 c 0,0 -3.055,-5.946 6.488,-8.055 9.543,-2.109 27.659,0.47 27.659,0.47 0,0 -13.198,6.05 -22.741,8.159 C 1.863,2.684 0,0 0,0"
         style="fill:#f36220;fill-opacity:1;fill-rule:nonzero;stroke:none"
         id="path442" /></g><g
       id="g444"
       transform="translate(251.91874,131.89599)"><path
         d="m 0,0 c 0,0 -0.337,-4.503 7.45,-4.59 7.787,-0.088 20.75,4.274 20.75,4.274 0,0 -10.228,5.845 -18.015,5.932 C 2.397,5.704 0,0 0,0"
         style="fill:#f36220;fill-opacity:1;fill-rule:nonzero;stroke:none"
         id="path446" /></g><g
       id="g448"
       transform="translate(251.90894,132.20949)"><path
         d="m 0,0 c 0,0 3.925,3.234 10.888,-3.82 6.962,-7.055 14.326,-21.727 14.326,-21.727 0,0 -15.619,9.482 -22.581,16.536 C -4.33,-1.956 0,0 0,0"
         style="fill:#f36220;fill-opacity:1;fill-rule:nonzero;stroke:none"
         id="path450" /></g><g
       id="g452"
       transform="translate(250.80254,131.66169)"><path
         d="m 0,0 c 0,0 7.817,2.595 11.718,-3.913 3.9,-6.508 2.038,-19.504 2.038,-19.504 0,0 -7.16,11.229 -13.682,16.356 C -5.044,-3.037 0,0 0,0"
         style="fill:#f36220;fill-opacity:1;fill-rule:nonzero;stroke:none"
         id="path454" /></g><g
       id="g456"
       transform="translate(251.36304,131.84039)"><path
         d="m 0,0 c 0,0 6.307,0.677 7.189,-4.793 0.883,-5.47 -3.991,-15.015 -3.991,-15.015 0,0 -8.028,6.426 -8.911,11.896 C -6.776,-1.326 -1.391,-0.515 0,0"
         style="fill:#f36220;fill-opacity:1;fill-rule:nonzero;stroke:none"
         id="path458" /></g><g
       id="g460"
       transform="translate(283.53304,110.32959)"><path
         d="m 0,0 c -2.649,1.59 -5.235,3.269 -7.812,4.962 -2.584,1.684 -5.123,3.433 -7.661,5.181 -2.525,1.767 -5.048,3.538 -7.528,5.371 l -3.718,2.753 c -1.218,0.947 -2.456,1.866 -3.657,2.838 1.331,-0.786 2.624,-1.625 3.937,-2.436 l 3.877,-2.523 c 2.583,-1.685 5.122,-3.433 7.66,-5.183 2.523,-1.769 5.048,-3.538 7.526,-5.372 C -4.89,3.767 -2.414,1.929 0,0"
         style="fill:#ffffff;fill-opacity:1;fill-rule:nonzero;stroke:none"
         id="path462" /></g><g
       id="g464"
       transform="translate(281.97344,119.67139)"><path
         d="M 0,0 C -1.224,0.246 -2.405,0.589 -3.587,0.753 -4.788,0.933 -5.852,0.931 -6.884,0.35 -7.437,0.077 -8.146,-0.161 -8.823,-0.176 l -0.508,-0.003 -0.488,0.065 c -0.33,0.029 -0.641,0.109 -0.946,0.203 -1.235,0.326 -2.356,0.884 -3.428,1.515 1.223,-0.245 2.405,-0.587 3.587,-0.751 1.201,-0.18 2.263,-0.179 3.296,0.401 0.553,0.271 1.263,0.513 1.94,0.524 l 0.508,0.003 0.488,-0.064 C -4.044,1.688 -3.733,1.606 -3.429,1.514 -2.194,1.187 -1.073,0.63 0,0"
         style="fill:#ffffff;fill-opacity:1;fill-rule:nonzero;stroke:none"
         id="path466" /></g><g
       id="g468"
       transform="translate(273.69904,109.46829)"><path
         d="m 0,0 c -0.436,0.347 -0.842,0.726 -1.25,1.105 -0.374,0.413 -0.771,0.809 -1.1,1.275 -0.345,0.452 -0.645,0.954 -0.85,1.552 -0.251,0.578 -0.101,1.425 0.143,1.917 0.221,0.49 0.291,0.801 0.151,1.272 -0.033,0.223 -0.164,0.457 -0.239,0.69 -0.108,0.229 -0.244,0.458 -0.357,0.694 -0.248,0.465 -0.553,0.919 -0.825,1.389 -0.297,0.459 -0.598,0.918 -0.868,1.41 0.436,-0.346 0.841,-0.725 1.252,-1.104 0.374,-0.413 0.77,-0.809 1.099,-1.275 0.346,-0.452 0.645,-0.954 0.851,-1.552 0.249,-0.578 0.1,-1.427 -0.145,-1.918 C -2.36,4.966 -2.429,4.654 -2.29,4.183 -2.257,3.96 -2.126,3.726 -2.051,3.493 -1.943,3.264 -1.809,3.034 -1.694,2.798 -1.445,2.333 -1.142,1.88 -0.868,1.41 -0.571,0.951 -0.271,0.492 0,0"
         style="fill:#ffffff;fill-opacity:1;fill-rule:nonzero;stroke:none"
         id="path470" /></g><g
       id="g472"
       transform="translate(281.46264,125.41459)"><path
         d="m 0,0 c -1.506,0.212 -2.986,0.471 -4.448,0.477 -1.471,0.024 -2.83,-0.329 -4.171,-0.942 -0.688,-0.284 -1.38,-0.62 -2.136,-0.849 -0.747,-0.239 -1.529,-0.385 -2.307,-0.44 -1.565,-0.11 -3.09,0.178 -4.55,0.575 1.521,-0.014 3.018,-0.029 4.46,0.2 1.449,0.227 2.747,0.792 4.135,1.431 0.705,0.3 1.459,0.571 2.245,0.719 0.392,0.069 0.792,0.09 1.185,0.127 C -5.193,1.29 -4.798,1.283 -4.409,1.253 -2.849,1.108 -1.396,0.581 0,0"
         style="fill:#ffffff;fill-opacity:1;fill-rule:nonzero;stroke:none"
         id="path474" /></g><g
       id="g476"
       transform="translate(263.10724,113.96149)"><path
         d="m 0,0 c -0.674,0.773 -1.26,1.622 -1.639,2.619 -0.202,0.492 -0.321,1.045 -0.288,1.653 0.04,0.612 0.421,1.255 0.891,1.603 C -0.1,6.571 0.889,6.774 1.106,7.502 1.339,8.269 1.005,9.311 0.743,10.274 1.066,9.875 1.355,9.448 1.576,8.967 1.785,8.488 1.967,7.943 1.865,7.319 1.775,6.671 1.252,6.169 0.812,5.876 0.356,5.573 -0.095,5.365 -0.412,5.095 -0.754,4.846 -0.919,4.55 -0.989,4.16 -1.057,3.766 -0.995,3.306 -0.895,2.843 -0.691,1.911 -0.314,0.975 0,0"
         style="fill:#ffffff;fill-opacity:1;fill-rule:nonzero;stroke:none"
         id="path478" /></g><g
       id="g480"
       transform="translate(273.69904,131.86769)"><path
         d="M 0,0 C -1.68,0.429 -3.366,0.736 -5.012,0.586 -6.66,0.442 -8.189,-0.198 -9.74,-0.932 c -1.554,-0.716 -3.292,-1.399 -5.108,-1.386 -1.81,-0.025 -3.519,0.578 -5.05,1.364 1.68,-0.429 3.366,-0.734 5.011,-0.585 1.649,0.143 3.178,0.784 4.73,1.516 1.553,0.715 3.292,1.398 5.107,1.385 C -3.239,1.387 -1.531,0.785 0,0"
         style="fill:#ffffff;fill-opacity:1;fill-rule:nonzero;stroke:none"
         id="path482" /></g><g
       id="g484"
       transform="translate(253.80054,115.89119)"><path
         d="m 0,0 c -1.068,0.965 -2.145,2.141 -2.371,3.771 -0.114,0.802 0.092,1.654 0.463,2.345 0.369,0.7 0.854,1.286 1.308,1.853 0.929,1.097 1.818,2.188 1.766,3.503 -0.043,1.31 -0.803,2.616 -1.595,3.829 1.07,-0.964 2.147,-2.14 2.373,-3.771 C 2.059,10.728 1.852,9.875 1.481,9.185 1.11,8.485 0.626,7.897 0.171,7.332 -0.759,6.235 -1.647,5.145 -1.597,3.829 -1.553,2.518 -0.792,1.212 0,0"
         style="fill:#ffffff;fill-opacity:1;fill-rule:nonzero;stroke:none"
         id="path486" /></g><g
       id="g488"
       transform="translate(365.31624,111.26709)"><path
         d="m 0,0 c 0,0 -13.326,1.102 -19.918,9.621 -2.231,2.885 -1.115,8.27 -3.981,9.441 2.892,1.423 0.251,10.137 -1.41,13.042 0,0 10.791,-8.002 12.76,-4.355 2.396,-5.055 6.275,-3.517 8.597,-6.518 C 2.639,12.712 0,0 0,0"
         style="fill:#f36220;fill-opacity:1;fill-rule:nonzero;stroke:none"
         id="path490" /></g><g
       id="g492"
       transform="translate(365.31624,111.26709)"><path
         d="m 0,0 c 0,0 -13.326,1.102 -19.918,9.621 -2.231,2.885 -1.115,8.27 -3.981,9.441 2.892,1.423 0.251,10.137 -1.41,13.042 0,0 10.791,-8.002 12.76,-4.355 2.396,-5.055 6.275,-3.517 8.597,-6.518 C 2.639,12.712 0,0 0,0 Z"
         style="fill:none;stroke:#f36220;stroke-width:1;stroke-linecap:butt;stroke-linejoin:miter;stroke-miterlimit:10;stroke-dasharray:none;stroke-opacity:1"
         id="path494" /></g><g
       id="g496"
       transform="translate(360.48314,114.73979)"><path
         d="m 0,0 c 0,0 -3.62,9.098 -0.554,15.758 1.039,2.256 4.679,2.976 4.469,5.187 1.799,-1.525 6.256,2.58 7.491,4.463 0,0 -1.4,-9.293 1.455,-9.604 C 10.555,12.853 12.74,10.708 11.659,8.362 8.593,1.701 0,0 0,0"
         style="fill:#f36220;fill-opacity:1;fill-rule:nonzero;stroke:none"
         id="path498" /></g><g
       id="g500"
       transform="translate(360.48314,114.73979)"><path
         d="m 0,0 c 0,0 -3.62,9.098 -0.554,15.758 1.039,2.256 4.679,2.976 4.469,5.187 1.799,-1.525 6.256,2.58 7.491,4.463 0,0 -1.4,-9.293 1.455,-9.604 C 10.555,12.853 12.74,10.708 11.659,8.362 8.593,1.701 0,0 0,0 Z"
         style="fill:none;stroke:#f36220;stroke-width:1;stroke-linecap:butt;stroke-linejoin:miter;stroke-miterlimit:10;stroke-dasharray:none;stroke-opacity:1"
         id="path502" /></g><g
       id="g504"
       transform="translate(363.41194,117.70369)"><path
         d="m 0,0 c 0,0 -8.354,5.697 -15.458,4.104 -2.405,-0.541 -3.746,-4.049 -5.892,-3.339 1.195,-2.158 -3.628,-5.729 -5.7,-6.551 0,0 9.414,-0.679 9.229,-3.629 3.311,1.663 5.05,-1.023 7.552,-0.462 C -3.164,-8.282 0,0 0,0"
         style="fill:#f36220;fill-opacity:1;fill-rule:nonzero;stroke:none"
         id="path506" /></g><g
       id="g508"
       transform="translate(363.41194,117.70369)"><path
         d="m 0,0 c 0,0 -8.354,5.697 -15.458,4.104 -2.405,-0.541 -3.746,-4.049 -5.892,-3.339 1.195,-2.158 -3.628,-5.729 -5.7,-6.551 0,0 9.414,-0.679 9.229,-3.629 3.311,1.663 5.05,-1.023 7.552,-0.462 C -3.164,-8.282 0,0 0,0 Z"
         style="fill:none;stroke:#f36220;stroke-width:1;stroke-linecap:butt;stroke-linejoin:miter;stroke-miterlimit:10;stroke-dasharray:none;stroke-opacity:1"
         id="path510" /></g><g
       id="g512"
       transform="translate(368.99684,106.33939)"><path
         d="m 0,0 c 0,0 -11.821,7.171 -2.253,10.973 1.6,0.635 4.464,2.305 4.149,3.897 1.584,-1.158 5.007,1.622 5.908,2.927 0,0 -0.563,-6.61 1.819,-6.939 C 7.903,8.827 9.849,7.21 9.105,5.567 6.996,0.905 0,0 0,0"
         style="fill:#f36220;fill-opacity:1;fill-rule:nonzero;stroke:none"
         id="path514" /></g><g
       id="g516"
       transform="translate(368.99684,106.33939)"><path
         d="m 0,0 c 0,0 -11.821,7.171 -2.253,10.973 1.6,0.635 4.464,2.305 4.149,3.897 1.584,-1.158 5.007,1.622 5.908,2.927 0,0 -0.563,-6.61 1.819,-6.939 C 7.903,8.827 9.849,7.21 9.105,5.567 6.996,0.905 0,0 0,0 Z"
         style="fill:none;stroke:#f36220;stroke-width:1;stroke-linecap:butt;stroke-linejoin:miter;stroke-miterlimit:10;stroke-dasharray:none;stroke-opacity:1"
         id="path518" /></g><g
       id="g520"
       transform="translate(370.32404,105.80029)"><path
         d="m 0,0 c 0,0 -1.596,9.39 -10.709,5.043 -1.549,-0.739 -3.142,-2.676 -4.612,-1.868 0.628,-1.813 -3.238,-3.989 -4.822,-4.374 0,0 6.719,-1.664 6.266,-3.922 2.569,0.885 3.533,-1.402 5.399,-1.272 C -3.179,-6.02 0,0 0,0"
         style="fill:#f36220;fill-opacity:1;fill-rule:nonzero;stroke:none"
         id="path522" /></g><g
       id="g524"
       transform="translate(370.32404,105.80029)"><path
         d="m 0,0 c 0,0 -1.596,9.39 -10.709,5.043 -1.549,-0.739 -3.142,-2.676 -4.612,-1.868 0.628,-1.813 -3.238,-3.989 -4.822,-4.374 0,0 6.719,-1.664 6.266,-3.922 2.569,0.885 3.533,-1.402 5.399,-1.272 C -3.179,-6.02 0,0 0,0 Z"
         style="fill:none;stroke:#f36220;stroke-width:1;stroke-linecap:butt;stroke-linejoin:miter;stroke-miterlimit:10;stroke-dasharray:none;stroke-opacity:1"
         id="path526" /></g><g
       id="g528"
       transform="translate(372.25764,104.01129)"><path
         d="m 0,0 c 1.005,-0.997 1.801,-1.856 2.329,-2.442 0.128,-0.516 0.202,-1 0.041,-1.058 -0.093,-0.033 -0.264,0.067 -0.558,0.407 -2.463,2.841 -21.335,17.321 -21.804,19.952"
         style="fill:#f36220;fill-opacity:1;fill-rule:nonzero;stroke:none"
         id="path530" /></g><g
       id="g532"
       transform="translate(370.64434,104.66069)"><path
         d="m 0,0 c -2.235,2.385 -4.386,4.84 -6.523,7.306 -2.146,2.459 -4.231,4.967 -6.312,7.481 -2.062,2.528 -4.122,5.06 -6.101,7.658 -0.99,1.299 -1.973,2.605 -2.929,3.932 -0.897,1.351 -1.934,2.704 -2.323,4.314 0.603,-1.527 1.682,-2.76 2.713,-4.017 1.03,-1.26 2.078,-2.508 3.138,-3.746 2.116,-2.481 4.195,-4.993 6.274,-7.506 2.061,-2.528 4.126,-5.054 6.13,-7.629 C -3.919,5.225 -1.917,2.647 0,0"
         style="fill:#ffffff;fill-opacity:1;fill-rule:nonzero;stroke:none"
         id="path534" /></g><g
       id="g536"
       transform="translate(368.99684,106.33939)"><path
         d="m 0,0 c -1.379,0.278 -2.742,0.651 -4.055,0.538 -1.331,-0.066 -2.339,-0.821 -3.331,-1.786 -0.532,-0.464 -1.063,-0.986 -1.769,-1.331 -0.327,-0.203 -0.728,-0.269 -1.086,-0.401 -0.378,-0.054 -0.762,-0.097 -1.136,-0.102 -1.519,0.022 -2.833,0.683 -4.076,1.317 1.38,-0.277 2.742,-0.649 4.055,-0.537 1.33,0.066 2.337,0.822 3.331,1.784 0.533,0.463 1.063,0.988 1.77,1.33 0.326,0.204 0.728,0.269 1.085,0.402 0.378,0.054 0.762,0.096 1.136,0.101 C -2.558,1.293 -1.244,0.633 0,0"
         style="fill:#ffffff;fill-opacity:1;fill-rule:nonzero;stroke:none"
         id="path538" /></g><g
       id="g540"
       transform="translate(362.61694,114.62649)"><path
         d="m 0,0 c -1.891,0.528 -3.815,0.753 -5.681,0.485 -1.868,-0.26 -3.639,-0.976 -5.434,-1.726 -1.797,-0.732 -3.707,-1.46 -5.734,-1.577 -2.022,-0.154 -4.023,0.373 -5.76,1.26 1.89,-0.527 3.816,-0.752 5.68,-0.484 1.868,0.261 3.64,0.977 5.435,1.726 1.797,0.729 3.707,1.459 5.734,1.575 C -3.738,1.412 -1.737,0.887 0,0"
         style="fill:#ffffff;fill-opacity:1;fill-rule:nonzero;stroke:none"
         id="path542" /></g><g
       id="g544"
       transform="translate(362.04084,116.01619)"><path
         d="m 0,0 c -0.654,1.685 -0.421,3.655 0.258,5.333 0.657,1.709 1.67,3.214 2.662,4.68 1.01,1.457 2.051,2.87 2.892,4.375 0.816,1.496 1.443,3.163 1.144,4.948 C 7.07,18.914 7.232,18.48 7.284,18.031 7.279,17.585 7.37,17.112 7.282,16.663 7.167,15.753 6.893,14.863 6.511,14.042 5.768,12.377 4.731,10.904 3.742,9.446 2.737,7.997 1.729,6.567 0.971,5.022 0.226,3.486 -0.263,1.781 0,0"
         style="fill:#ffffff;fill-opacity:1;fill-rule:nonzero;stroke:none"
         id="path546" /></g><g
       id="g548"
       transform="translate(375.95874,119.80229)"><path
         d="M 0,0 C 0.16,-0.702 -0.043,-1.472 -0.402,-2.123 -0.782,-2.768 -1.3,-3.304 -1.838,-3.785 -2.915,-4.752 -4.104,-5.52 -5.146,-6.4 c -1.048,-0.859 -1.976,-1.853 -2.302,-3.096 -0.337,-1.245 -0.017,-2.646 0.486,-3.967 -0.425,0.57 -0.779,1.2 -1.035,1.892 -0.231,0.696 -0.339,1.467 -0.216,2.231 0.231,1.569 1.333,2.795 2.428,3.707 1.127,0.923 2.339,1.654 3.459,2.452 C -1.24,-2.383 -0.117,-1.469 0,0"
         style="fill:#ffffff;fill-opacity:1;fill-rule:nonzero;stroke:none"
         id="path550" /></g><g
       id="g552"
       transform="translate(75.042735,115.21629)"><path
         d="m 0,0 c 0,0 -8.732,14.773 -3.807,23.49 3.869,6.846 13.611,12.926 13.611,12.926 0,0 12.214,-14.406 6.29,-22.681 C 10.782,6.189 0,0 0,0"
         style="fill:#f36220;fill-opacity:1;fill-rule:nonzero;stroke:none"
         id="path554" /></g><g
       id="g556"
       transform="translate(79.809335,117.75439)"><path
         d="m 0,0 c 0,0 3.778,9.685 11.016,11.531 7.237,1.847 15.193,-4.844 15.193,-4.844 0,0 -3.778,-9.684 -11.016,-11.531 C 7.956,-6.69 0,0 0,0"
         style="fill:#f36220;fill-opacity:1;fill-rule:nonzero;stroke:none"
         id="path558" /></g><g
       id="g560"
       transform="translate(74.500735,119.77199)"><path
         d="m 0,0 c 0,0 8.604,1.871 13.492,-2.39 4.889,-4.26 4.21,-13.04 4.21,-13.04 0,0 -8.604,-1.871 -13.492,2.39 C -0.679,-8.779 0,0 0,0"
         style="fill:#f36220;fill-opacity:1;fill-rule:nonzero;stroke:none"
         id="path562" /></g><g
       id="g564"
       transform="translate(75.049635,118.62549)"><path
         d="m 0,0 c 0,0 0.474,10.385 -5.394,15.007 -5.866,4.623 -15.851,1.733 -15.851,1.733 0,0 -0.474,-10.385 5.392,-15.008 C -9.985,-2.89 0,0 0,0"
         style="fill:#f36220;fill-opacity:1;fill-rule:nonzero;stroke:none"
         id="path566" /></g><g
       id="g568"
       transform="translate(80.965635,118.67919)"><path
         d="m 0,0 c 0,0 -6.821,5.568 -13.109,3.986 -6.289,-1.582 -9.663,-9.715 -9.663,-9.715 0,0 6.821,-5.568 13.109,-3.986 C -3.374,-8.133 0,0 0,0"
         style="fill:#f36220;fill-opacity:1;fill-rule:nonzero;stroke:none"
         id="path570" /></g><g
       id="g572"
       transform="translate(86.139435,132.60699)"><path
         d="M 0,0 C 0.679,2.08 1.151,3.825 1.452,5.006 1.184,5.82 0.859,6.555 0.552,6.528 0.375,6.513 0.196,6.258 0.041,5.58 c 1.51,6.578 -19.983,-33.674 -16.242,-42.75"
         style="fill:#f36220;fill-opacity:1;fill-rule:nonzero;stroke:none"
         id="path574" /></g><g
       id="g576"
       transform="translate(73.146235,106.57179)"><path
         d="m 0,0 c 0.857,3.086 1.391,6.104 1.813,9.169 l 1.128,9.272 c 0.421,3.116 0.941,6.271 1.856,9.357 0.892,3.076 2.173,6.124 4.146,8.666 C 8.099,33.374 7.529,30.358 7.084,27.298 L 5.913,18.042 C 5.488,14.933 4.987,11.781 4.096,8.688 3.227,5.608 1.979,2.538 0,0"
         style="fill:#ffffff;fill-opacity:1;fill-rule:nonzero;stroke:none"
         id="path578" /></g><g
       id="g580"
       transform="translate(75.717535,116.72999)"><path
         d="m 0,0 c 1.381,1.113 2.849,1.936 4.293,2.729 1.471,0.777 2.834,1.488 4.315,2.236 1.513,0.764 3.176,1.342 4.821,1.722 1.658,0.378 3.344,0.603 5.115,0.541 C 17.169,6.104 15.706,5.272 14.258,4.478 12.793,3.694 11.385,3.001 9.93,2.272 8.446,1.524 6.767,0.896 5.119,0.528 3.457,0.149 1.77,-0.065 0,0"
         style="fill:#ffffff;fill-opacity:1;fill-rule:nonzero;stroke:none"
         id="path582" /></g><g
       id="g584"
       transform="translate(60.401135,130.11669)"><path
         d="m 0,0 c 1.667,-0.607 3.129,-1.439 4.555,-2.267 1.424,-0.858 2.737,-1.658 4.143,-2.54 1.435,-0.9 2.79,-2.026 3.964,-3.238 1.181,-1.224 2.244,-2.552 3.106,-4.101 -1.672,0.598 -3.14,1.42 -4.569,2.25 C 9.771,-9.046 8.45,-8.198 7.075,-7.329 5.668,-6.445 4.264,-5.331 3.097,-4.11 1.914,-2.883 0.857,-1.549 0,0"
         style="fill:#ffffff;fill-opacity:1;fill-rule:nonzero;stroke:none"
         id="path586" /></g><g
       id="g588"
       transform="translate(76.635535,118.43509)"><path
         d="m 0,0 c 1.542,-0.525 2.899,-1.28 4.17,-2.197 0.637,-0.453 1.241,-0.967 1.818,-1.546 0.575,-0.573 1.105,-1.278 1.517,-1.868 0.777,-1.135 1.667,-2.179 2.599,-3.368 0.908,-1.183 1.829,-2.408 2.562,-3.868 -1.548,0.513 -2.908,1.262 -4.186,2.157 -1.252,0.883 -2.501,1.994 -3.428,3.354 -0.442,0.651 -0.793,1.175 -1.211,1.737 L 2.529,-3.881 C 1.644,-2.688 0.727,-1.462 0,0"
         style="fill:#ffffff;fill-opacity:1;fill-rule:nonzero;stroke:none"
         id="path590" /></g><g
       id="g592"
       transform="translate(61.721435,113.41459)"><path
         d="m 0,0 c 1.242,1.056 2.578,1.828 3.958,2.5 1.37,0.659 2.849,1.198 4.307,1.575 1.422,0.377 2.86,0.719 4.359,0.966 1.499,0.234 3.029,0.399 4.656,0.278 C 16.046,4.254 14.714,3.474 13.341,2.793 11.969,2.126 10.53,1.568 9.036,1.177 7.575,0.803 6.161,0.494 4.655,0.255 3.156,0.033 1.626,-0.125 0,0"
         style="fill:#ffffff;fill-opacity:1;fill-rule:nonzero;stroke:none"
         id="path594" /></g><g
       id="g596"
       transform="translate(193.59354,138.21439)"><path
         d="m 0,0 c 0,0 3.679,-5.649 -6.229,-16.116 -9.908,-10.468 -43.637,-11.911 -43.637,-11.911 0,0 10.803,9.223 20.711,19.691 C -19.248,2.131 0,0 0,0"
         style="fill:#f36220;fill-opacity:1;fill-rule:nonzero;stroke:none"
         id="path598" /></g><g
       id="g600"
       transform="translate(182.29574,133.34919)"><path
         d="m 0,0 c 0,0 3.106,-6.456 0.997,-14.84 -2.109,-8.383 -18.084,-16.191 -18.084,-16.191 0,0 2.319,9.693 4.428,18.076 C -10.55,-4.572 0,0 0,0"
         style="fill:#f36220;fill-opacity:1;fill-rule:nonzero;stroke:none"
         id="path602" /></g><g
       id="g604"
       transform="translate(193.63554,138.20069)"><path
         d="m 0,0 c 0,0 3.105,-6.456 0.996,-14.839 -2.108,-8.384 -15.881,-17.853 -15.881,-17.853 0,0 0.116,11.354 2.226,19.737 C -10.55,-4.572 0,0 0,0"
         style="fill:#f36220;fill-opacity:1;fill-rule:nonzero;stroke:none"
         id="path606" /></g><g
       id="g608"
       transform="translate(176.79864,129.33739)"><path
         d="m 0,0 c 0,0 1.448,-7.017 -2.631,-14.639 -4.078,-7.622 -22.713,-11.175 -22.713,-11.175 0,0 5.843,8.692 9.922,16.314 C -11.344,-1.878 0,0 0,0"
         style="fill:#f36220;fill-opacity:1;fill-rule:nonzero;stroke:none"
         id="path610" /></g><g
       id="g612"
       transform="translate(197.59254,139.09129)"><path
         d="M 0,0 C 1.511,1.582 2.691,2.951 3.473,3.886 3.583,4.736 3.608,5.539 3.319,5.647 3.153,5.71 2.882,5.558 2.449,5.014 -1.169,0.473 -30.437,-22.155 -30.681,-26.511"
         style="fill:#f36220;fill-opacity:1;fill-rule:nonzero;stroke:none"
         id="path614" /></g><g
       id="g616"
       transform="translate(193.59354,138.21439)"><path
         d="m 0,0 c -2.989,-2.652 -6.309,-4.908 -9.672,-7.038 -3.365,-2.137 -6.826,-4.098 -10.291,-6.036 -3.483,-1.906 -6.974,-3.785 -10.476,-5.634 -3.497,-1.868 -6.987,-3.718 -10.455,-5.691 2.989,2.655 6.307,4.912 9.67,7.041 3.366,2.136 6.828,4.097 10.293,6.033 3.485,1.904 6.975,3.783 10.479,5.632 C -6.956,-3.826 -3.467,-1.976 0,0"
         style="fill:#ffffff;fill-opacity:1;fill-rule:nonzero;stroke:none"
         id="path618" /></g><g
       id="g620"
       transform="translate(169.67854,124.04249)"><path
         d="m 0,0 c -0.467,-1.55 -1.08,-2.991 -1.74,-4.415 -0.318,-0.72 -0.692,-1.416 -1.13,-2.144 -0.453,-0.728 -1.05,-1.373 -1.624,-1.933 -1.16,-1.11 -2.371,-2.078 -3.62,-3.029 -1.251,-0.945 -2.543,-1.845 -3.971,-2.607 0.859,1.369 1.86,2.595 2.917,3.759 1.053,1.163 2.18,2.272 3.286,3.315 0.548,0.526 1.031,1.022 1.467,1.581 0.453,0.557 0.858,1.217 1.334,1.845 C -2.167,-2.352 -1.17,-1.113 0,0"
         style="fill:#ffffff;fill-opacity:1;fill-rule:nonzero;stroke:none"
         id="path622" /></g><g
       id="g624"
       transform="translate(177.63454,128.42919)"><path
         d="m 0,0 c -0.508,-1.898 -1.168,-3.699 -1.533,-5.502 -0.172,-0.898 -0.353,-1.87 -0.638,-2.853 -0.285,-0.98 -0.688,-1.9 -1.114,-2.789 -0.861,-1.778 -1.909,-3.41 -3.011,-5.004 -1.113,-1.584 -2.316,-3.106 -3.687,-4.512 0.667,1.85 1.494,3.591 2.345,5.308 l 2.555,5.084 c 0.413,0.838 0.8,1.674 1.124,2.518 0.349,0.83 0.561,1.746 0.935,2.688 C -2.321,-3.167 -1.238,-1.516 0,0"
         style="fill:#ffffff;fill-opacity:1;fill-rule:nonzero;stroke:none"
         id="path626" /></g><g
       id="g628"
       transform="translate(189.40994,135.52099)"><path
         d="m 0,0 c -0.154,-0.563 -0.315,-1.115 -0.489,-1.655 -0.135,-0.555 -0.283,-1.097 -0.403,-1.642 -0.212,-1.097 -0.36,-2.172 -0.386,-3.274 -0.018,-1.106 -0.023,-2.235 -0.068,-3.421 -0.077,-1.178 -0.244,-2.378 -0.532,-3.536 -0.615,-2.312 -1.56,-4.49 -2.759,-6.48 -0.566,-1.015 -1.253,-1.954 -1.896,-2.912 -0.71,-0.916 -1.421,-1.827 -2.199,-2.686 0.402,1.095 0.882,2.134 1.348,3.177 0.434,1.056 0.924,2.08 1.353,3.121 0.207,0.525 0.421,1.043 0.649,1.555 0.211,0.518 0.39,1.044 0.585,1.564 0.385,1.039 0.74,2.083 0.98,3.144 0.605,2.099 0.632,4.267 0.993,6.631 0.166,1.179 0.551,2.336 1.004,3.423 0.266,0.529 0.533,1.053 0.826,1.556 C -0.674,-0.944 -0.34,-0.467 0,0"
         style="fill:#ffffff;fill-opacity:1;fill-rule:nonzero;stroke:none"
         id="path630" /></g><g
       id="g632"
       transform="translate(349.98661,36.719763)"><path
         d="m 0,0 c 2.66,-1.252 5.155,-2.758 7.611,-4.326 2.439,-1.594 4.837,-3.251 7.07,-5.165 -2.662,1.25 -5.158,2.756 -7.613,4.326 C 4.631,-3.57 2.233,-1.912 0,0"
         style="fill:#ffffff;fill-opacity:1;fill-rule:nonzero;stroke:none"
         id="path634" /></g><g
       id="g636"
       transform="translate(384.64971,13.701263)"><path
         d="m 0,0 c 0,0 -8.432,10.847 -17.636,17.317 -0.485,0.342 -5.655,1.215 -14.511,5.803 -5.5,2.85 -16.405,10.313 -16.405,10.313 l 14.705,-11.379 7.949,-10.648 C -19.052,5.519 0,0 0,0"
         style="fill:#f36220;fill-opacity:1;fill-rule:nonzero;stroke:none"
         id="path638" /></g><g
       id="g640"
       transform="translate(346.27081,37.862363)"><path
         d="m 0,0 c 0,0 -3.06,-4.083 7.553,-8.292 10.611,-4.21 30.877,-6.952 30.877,-6.952 0,0 -12.486,9.826 -23.098,14.035 C 4.72,3.001 0,0 0,0"
         style="fill:#f36220;fill-opacity:1;fill-rule:nonzero;stroke:none"
         id="path642" /></g><g
       id="g644"
       transform="translate(347.09991,38.887763)"><path
         d="m 0,0 c 0,0 -3.055,-5.946 6.488,-8.056 9.543,-2.108 27.658,0.471 27.658,0.471 0,0 -13.197,6.05 -22.74,8.159 C 1.863,2.683 0,0 0,0"
         style="fill:#f36220;fill-opacity:1;fill-rule:nonzero;stroke:none"
         id="path646" /></g><g
       id="g648"
       transform="translate(347.35581,38.623063)"><path
         d="m 0,0 c 0,0 -0.337,-4.503 7.45,-4.59 7.787,-0.088 20.75,4.274 20.75,4.274 0,0 -10.228,5.845 -18.015,5.932 C 2.396,5.703 0,0 0,0"
         style="fill:#f36220;fill-opacity:1;fill-rule:nonzero;stroke:none"
         id="path650" /></g><g
       id="g652"
       transform="translate(347.34601,38.936563)"><path
         d="m 0,0 c 0,0 3.924,3.234 10.887,-3.82 6.963,-7.055 14.326,-21.728 14.326,-21.728 0,0 -15.618,9.483 -22.581,16.537 C -4.33,-1.956 0,0 0,0"
         style="fill:#f36220;fill-opacity:1;fill-rule:nonzero;stroke:none"
         id="path654" /></g><g
       id="g656"
       transform="translate(346.23961,38.388763)"><path
         d="m 0,0 c 0,0 7.816,2.594 11.718,-3.914 3.9,-6.507 2.038,-19.503 2.038,-19.503 0,0 -7.161,11.229 -13.683,16.355 C -5.045,-3.038 0,0 0,0"
         style="fill:#f36220;fill-opacity:1;fill-rule:nonzero;stroke:none"
         id="path658" /></g><g
       id="g660"
       transform="translate(346.80011,38.567463)"><path
         d="m 0,0 c 0,0 6.306,0.677 7.189,-4.793 0.883,-5.47 -3.992,-15.016 -3.992,-15.016 0,0 -8.027,6.426 -8.911,11.897 C -6.776,-1.327 -1.392,-0.515 0,0"
         style="fill:#f36220;fill-opacity:1;fill-rule:nonzero;stroke:none"
         id="path662" /></g><g
       id="g664"
       transform="translate(378.96901,17.056663)"><path
         d="m 0,0 c -2.648,1.589 -5.235,3.269 -7.812,4.962 -2.584,1.684 -5.123,3.432 -7.661,5.181 -2.524,1.767 -5.048,3.537 -7.528,5.37 l -3.717,2.753 c -1.219,0.948 -2.456,1.867 -3.657,2.839 1.33,-0.786 2.624,-1.626 3.937,-2.436 l 3.876,-2.524 c 2.583,-1.684 5.122,-3.432 7.66,-5.182 2.524,-1.769 5.048,-3.538 7.527,-5.372 C -4.89,3.767 -2.413,1.928 0,0"
         style="fill:#ffffff;fill-opacity:1;fill-rule:nonzero;stroke:none"
         id="path666" /></g><g
       id="g668"
       transform="translate(377.40951,26.398463)"><path
         d="M 0,0 C -1.224,0.245 -2.405,0.589 -3.586,0.752 -4.788,0.932 -5.852,0.931 -6.884,0.35 -7.436,0.077 -8.146,-0.162 -8.822,-0.177 l -0.508,-0.002 -0.488,0.065 c -0.33,0.029 -0.642,0.109 -0.947,0.202 -1.234,0.327 -2.356,0.885 -3.428,1.516 1.224,-0.245 2.406,-0.587 3.587,-0.751 1.202,-0.18 2.264,-0.179 3.297,0.401 0.553,0.271 1.262,0.512 1.939,0.524 l 0.508,0.003 0.488,-0.065 C -4.044,1.687 -3.733,1.606 -3.429,1.514 -2.194,1.187 -1.072,0.63 0,0"
         style="fill:#ffffff;fill-opacity:1;fill-rule:nonzero;stroke:none"
         id="path670" /></g><g
       id="g672"
       transform="translate(369.13601,16.195363)"><path
         d="m 0,0 c -0.436,0.346 -0.842,0.726 -1.251,1.104 -0.374,0.414 -0.77,0.809 -1.099,1.276 -0.345,0.452 -0.646,0.953 -0.851,1.552 -0.251,0.577 -0.101,1.425 0.143,1.917 0.222,0.489 0.291,0.8 0.152,1.272 -0.033,0.223 -0.164,0.456 -0.24,0.689 -0.107,0.229 -0.243,0.459 -0.357,0.695 -0.248,0.465 -0.552,0.918 -0.825,1.389 -0.297,0.459 -0.598,0.918 -0.867,1.41 0.436,-0.346 0.841,-0.725 1.251,-1.105 C -3.57,9.787 -3.174,9.391 -2.845,8.925 -2.498,8.473 -2.199,7.971 -1.994,7.372 -1.744,6.794 -1.893,5.946 -2.139,5.455 -2.361,4.966 -2.429,4.654 -2.29,4.183 -2.258,3.96 -2.127,3.726 -2.051,3.493 -1.943,3.264 -1.809,3.034 -1.694,2.798 -1.446,2.333 -1.142,1.88 -0.869,1.409 -0.571,0.951 -0.271,0.492 0,0"
         style="fill:#ffffff;fill-opacity:1;fill-rule:nonzero;stroke:none"
         id="path674" /></g><g
       id="g676"
       transform="translate(376.89971,32.140663)"><path
         d="m 0,0 c -1.506,0.213 -2.986,0.472 -4.448,0.478 -1.471,0.024 -2.831,-0.329 -4.171,-0.942 -0.689,-0.284 -1.381,-0.62 -2.137,-0.849 -0.747,-0.239 -1.528,-0.386 -2.307,-0.44 -1.564,-0.11 -3.089,0.178 -4.549,0.575 1.521,-0.014 3.018,-0.029 4.459,0.2 1.45,0.226 2.747,0.791 4.135,1.431 0.706,0.299 1.459,0.571 2.246,0.719 0.391,0.069 0.792,0.089 1.185,0.126 C -5.193,1.291 -4.799,1.284 -4.409,1.254 -2.85,1.108 -1.397,0.582 0,0"
         style="fill:#ffffff;fill-opacity:1;fill-rule:nonzero;stroke:none"
         id="path678" /></g><g
       id="g680"
       transform="translate(358.54331,20.688563)"><path
         d="m 0,0 c -0.673,0.772 -1.259,1.621 -1.638,2.619 -0.203,0.491 -0.322,1.044 -0.288,1.652 0.04,0.612 0.42,1.256 0.89,1.604 C -0.1,6.571 0.889,6.774 1.107,7.502 1.34,8.269 1.005,9.31 0.744,10.274 1.066,9.875 1.356,9.448 1.576,8.967 1.785,8.488 1.967,7.943 1.866,7.318 1.776,6.671 1.252,6.168 0.812,5.876 0.356,5.573 -0.095,5.365 -0.411,5.095 -0.753,4.845 -0.918,4.549 -0.988,4.16 -1.056,3.766 -0.995,3.306 -0.894,2.842 -0.69,1.911 -0.314,0.975 0,0"
         style="fill:#ffffff;fill-opacity:1;fill-rule:nonzero;stroke:none"
         id="path682" /></g><g
       id="g684"
       transform="translate(369.13601,38.593763)"><path
         d="m 0,0 c -1.68,0.43 -3.366,0.736 -5.012,0.587 -1.648,-0.145 -3.177,-0.784 -4.729,-1.518 -1.554,-0.716 -3.291,-1.399 -5.108,-1.386 -1.81,-0.025 -3.518,0.578 -5.049,1.364 1.68,-0.429 3.366,-0.734 5.011,-0.585 1.649,0.143 3.177,0.783 4.73,1.516 1.553,0.715 3.291,1.398 5.107,1.385 C -3.24,1.387 -1.531,0.785 0,0"
         style="fill:#ffffff;fill-opacity:1;fill-rule:nonzero;stroke:none"
         id="path686" /></g><g
       id="g688"
       transform="translate(349.23761,22.618263)"><path
         d="m 0,0 c -1.068,0.965 -2.145,2.141 -2.372,3.771 -0.113,0.802 0.093,1.654 0.463,2.345 0.37,0.7 0.855,1.286 1.309,1.853 0.929,1.097 1.818,2.188 1.766,3.503 -0.044,1.31 -0.804,2.616 -1.596,3.829 C 0.641,14.337 1.717,13.161 1.944,11.53 2.058,10.728 1.851,9.875 1.48,9.184 1.109,8.484 0.626,7.897 0.17,7.332 -0.759,6.234 -1.648,5.144 -1.597,3.829 -1.554,2.518 -0.793,1.212 0,0"
         style="fill:#ffffff;fill-opacity:1;fill-rule:nonzero;stroke:none"
         id="path690" /></g><g
       id="g692"
       transform="translate(82.485706,22.289163)"><path
         d="m 0,0 c 0,0 -13.326,1.102 -19.918,9.621 -2.232,2.885 -1.115,8.27 -3.982,9.441 2.893,1.423 0.251,10.137 -1.409,13.042 0,0 10.79,-8.002 12.76,-4.355 2.396,-5.055 6.274,-3.517 8.596,-6.518 C 2.639,12.712 0,0 0,0"
         style="fill:#f36220;fill-opacity:1;fill-rule:nonzero;stroke:none"
         id="path694" /></g><g
       id="g696"
       transform="translate(82.485706,22.289163)"><path
         d="m 0,0 c 0,0 -13.326,1.102 -19.918,9.621 -2.232,2.885 -1.115,8.27 -3.982,9.441 2.893,1.423 0.251,10.137 -1.409,13.042 0,0 10.79,-8.002 12.76,-4.355 2.396,-5.055 6.274,-3.517 8.596,-6.518 C 2.639,12.712 0,0 0,0 Z"
         style="fill:none;stroke:#f36220;stroke-width:1;stroke-linecap:butt;stroke-linejoin:miter;stroke-miterlimit:10;stroke-dasharray:none;stroke-opacity:1"
         id="path698" /></g><g
       id="g700"
       transform="translate(77.652706,25.761763)"><path
         d="m 0,0 c 0,0 -3.621,9.098 -0.554,15.758 1.038,2.256 4.678,2.976 4.468,5.186 1.799,-1.524 6.256,2.581 7.491,4.464 0,0 -1.399,-9.293 1.456,-9.604 C 10.554,12.852 12.739,10.708 11.659,8.361 8.592,1.701 0,0 0,0"
         style="fill:#f36220;fill-opacity:1;fill-rule:nonzero;stroke:none"
         id="path702" /></g><g
       id="g704"
       transform="translate(77.652706,25.761763)"><path
         d="m 0,0 c 0,0 -3.621,9.098 -0.554,15.758 1.038,2.256 4.678,2.976 4.468,5.186 1.799,-1.524 6.256,2.581 7.491,4.464 0,0 -1.399,-9.293 1.456,-9.604 C 10.554,12.852 12.739,10.708 11.659,8.361 8.592,1.701 0,0 0,0 Z"
         style="fill:none;stroke:#f36220;stroke-width:1;stroke-linecap:butt;stroke-linejoin:miter;stroke-miterlimit:10;stroke-dasharray:none;stroke-opacity:1"
         id="path706" /></g><g
       id="g708"
       transform="translate(80.581406,28.725663)"><path
         d="m 0,0 c 0,0 -8.354,5.697 -15.458,4.103 -2.405,-0.54 -3.747,-4.048 -5.892,-3.339 1.194,-2.158 -3.629,-5.728 -5.701,-6.55 0,0 9.415,-0.679 9.229,-3.629 3.312,1.663 5.051,-1.023 7.553,-0.462 C -3.165,-8.282 0,0 0,0"
         style="fill:#f36220;fill-opacity:1;fill-rule:nonzero;stroke:none"
         id="path710" /></g><g
       id="g712"
       transform="translate(80.581406,28.725663)"><path
         d="m 0,0 c 0,0 -8.354,5.697 -15.458,4.103 -2.405,-0.54 -3.747,-4.048 -5.892,-3.339 1.194,-2.158 -3.629,-5.728 -5.701,-6.55 0,0 9.415,-0.679 9.229,-3.629 3.312,1.663 5.051,-1.023 7.553,-0.462 C -3.165,-8.282 0,0 0,0 Z"
         style="fill:none;stroke:#f36220;stroke-width:1;stroke-linecap:butt;stroke-linejoin:miter;stroke-miterlimit:10;stroke-dasharray:none;stroke-opacity:1"
         id="path714" /></g><g
       id="g716"
       transform="translate(86.166306,17.360363)"><path
         d="m 0,0 c 0,0 -11.821,7.172 -2.253,10.974 1.6,0.634 4.463,2.305 4.148,3.897 1.584,-1.158 5.007,1.621 5.909,2.926 0,0 -0.563,-6.61 1.818,-6.938 C 7.903,8.827 9.848,7.211 9.104,5.568 6.996,0.906 0,0 0,0"
         style="fill:#f36220;fill-opacity:1;fill-rule:nonzero;stroke:none"
         id="path718" /></g><g
       id="g720"
       transform="translate(86.166306,17.360363)"><path
         d="m 0,0 c 0,0 -11.821,7.172 -2.253,10.974 1.6,0.634 4.463,2.305 4.148,3.897 1.584,-1.158 5.007,1.621 5.909,2.926 0,0 -0.563,-6.61 1.818,-6.938 C 7.903,8.827 9.848,7.211 9.104,5.568 6.996,0.906 0,0 0,0 Z"
         style="fill:none;stroke:#f36220;stroke-width:1;stroke-linecap:butt;stroke-linejoin:miter;stroke-miterlimit:10;stroke-dasharray:none;stroke-opacity:1"
         id="path722" /></g><g
       id="g724"
       transform="translate(87.493506,16.822363)"><path
         d="m 0,0 c 0,0 -1.597,9.389 -10.71,5.042 -1.548,-0.738 -3.141,-2.676 -4.611,-1.868 0.628,-1.812 -3.239,-3.988 -4.823,-4.373 0,0 6.72,-1.664 6.267,-3.922 2.569,0.885 3.533,-1.402 5.399,-1.272 C -3.18,-6.02 0,0 0,0"
         style="fill:#f36220;fill-opacity:1;fill-rule:nonzero;stroke:none"
         id="path726" /></g><g
       id="g728"
       transform="translate(87.493506,16.822363)"><path
         d="m 0,0 c 0,0 -1.597,9.389 -10.71,5.042 -1.548,-0.738 -3.141,-2.676 -4.611,-1.868 0.628,-1.812 -3.239,-3.988 -4.823,-4.373 0,0 6.72,-1.664 6.267,-3.922 2.569,0.885 3.533,-1.402 5.399,-1.272 C -3.18,-6.02 0,0 0,0 Z"
         style="fill:none;stroke:#f36220;stroke-width:1;stroke-linecap:butt;stroke-linejoin:miter;stroke-miterlimit:10;stroke-dasharray:none;stroke-opacity:1"
         id="path730" /></g><g
       id="g732"
       transform="translate(89.426106,15.032263)"><path
         d="M 0,0 C 1.005,-0.996 1.801,-1.855 2.329,-2.441 2.457,-2.958 2.532,-3.442 2.37,-3.499 2.277,-3.532 2.106,-3.433 1.812,-3.093 -0.651,-0.251 -19.523,14.229 -19.991,16.86"
         style="fill:#f36220;fill-opacity:1;fill-rule:nonzero;stroke:none"
         id="path734" /></g><g
       id="g736"
       transform="translate(87.812806,15.681663)"><path
         d="m 0,0 c -2.234,2.386 -4.386,4.84 -6.522,7.307 -2.146,2.459 -4.232,4.967 -6.312,7.481 -2.062,2.528 -4.122,5.06 -6.102,7.658 -0.989,1.299 -1.972,2.604 -2.928,3.932 -0.897,1.351 -1.934,2.703 -2.324,4.314 0.604,-1.528 1.683,-2.76 2.713,-4.017 1.03,-1.26 2.078,-2.508 3.138,-3.746 2.117,-2.481 4.196,-4.993 6.275,-7.507 2.06,-2.528 4.125,-5.054 6.13,-7.628 C -3.918,5.226 -1.917,2.647 0,0"
         style="fill:#ffffff;fill-opacity:1;fill-rule:nonzero;stroke:none"
         id="path738" /></g><g
       id="g740"
       transform="translate(86.166306,17.360363)"><path
         d="m 0,0 c -1.38,0.279 -2.742,0.652 -4.056,0.539 -1.33,-0.066 -2.338,-0.822 -3.33,-1.786 -0.533,-0.464 -1.064,-0.986 -1.77,-1.331 -0.326,-0.203 -0.728,-0.269 -1.085,-0.401 -0.378,-0.054 -0.763,-0.097 -1.136,-0.102 -1.519,0.022 -2.833,0.683 -4.077,1.317 1.38,-0.278 2.743,-0.65 4.055,-0.538 1.331,0.067 2.337,0.823 3.331,1.785 0.534,0.463 1.063,0.988 1.77,1.33 0.326,0.204 0.728,0.269 1.086,0.402 0.377,0.054 0.762,0.096 1.135,0.101 C -2.559,1.293 -1.244,0.634 0,0"
         style="fill:#ffffff;fill-opacity:1;fill-rule:nonzero;stroke:none"
         id="path742" /></g><g
       id="g744"
       transform="translate(79.786406,25.647563)"><path
         d="m 0,0 c -1.891,0.529 -3.816,0.754 -5.682,0.486 -1.868,-0.261 -3.639,-0.976 -5.433,-1.727 -1.797,-0.731 -3.707,-1.46 -5.735,-1.577 -2.021,-0.154 -4.023,0.373 -5.759,1.26 1.89,-0.527 3.815,-0.751 5.68,-0.484 1.868,0.262 3.64,0.977 5.435,1.726 1.797,0.73 3.707,1.459 5.733,1.576 C -3.739,1.412 -1.737,0.887 0,0"
         style="fill:#ffffff;fill-opacity:1;fill-rule:nonzero;stroke:none"
         id="path746" /></g><g
       id="g748"
       transform="translate(79.209306,27.038163)"><path
         d="m 0,0 c -0.653,1.685 -0.421,3.655 0.259,5.332 0.657,1.71 1.67,3.215 2.661,4.681 1.011,1.456 2.052,2.869 2.892,4.374 0.816,1.497 1.443,3.163 1.145,4.949 C 7.071,18.914 7.232,18.479 7.285,18.031 7.28,17.584 7.371,17.111 7.283,16.663 7.168,15.753 6.894,14.863 6.512,14.041 5.769,12.377 4.732,10.904 3.743,9.445 2.738,7.997 1.729,6.567 0.972,5.022 0.226,3.486 -0.263,1.781 0,0"
         style="fill:#ffffff;fill-opacity:1;fill-rule:nonzero;stroke:none"
         id="path750" /></g><g
       id="g752"
       transform="translate(93.128206,30.824263)"><path
         d="M 0,0 C 0.159,-0.703 -0.044,-1.473 -0.402,-2.123 -0.783,-2.768 -1.3,-3.305 -1.838,-3.785 -2.916,-4.753 -4.104,-5.521 -5.146,-6.4 c -1.049,-0.859 -1.976,-1.853 -2.302,-3.096 -0.337,-1.245 -0.017,-2.646 0.486,-3.968 -0.425,0.571 -0.779,1.201 -1.035,1.893 -0.231,0.696 -0.339,1.467 -0.216,2.231 0.231,1.569 1.332,2.794 2.428,3.707 1.127,0.923 2.339,1.653 3.458,2.452 C -1.24,-2.383 -0.118,-1.469 0,0"
         style="fill:#ffffff;fill-opacity:1;fill-rule:nonzero;stroke:none"
         id="path754" /></g><g
       id="g756"
       transform="translate(165.04331,24.089863)"><path
         d="m 0,0 c 0,0 -8.733,14.774 -3.808,23.491 3.869,6.846 13.612,12.926 13.612,12.926 0,0 12.213,-14.406 6.289,-22.682 C 10.781,6.19 0,0 0,0"
         style="fill:#f36220;fill-opacity:1;fill-rule:nonzero;stroke:none"
         id="path758" /></g><g
       id="g760"
       transform="translate(169.80891,26.628963)"><path
         d="m 0,0 c 0,0 3.778,9.685 11.016,11.531 7.237,1.847 15.193,-4.844 15.193,-4.844 0,0 -3.778,-9.684 -11.016,-11.531 C 7.956,-6.69 0,0 0,0"
         style="fill:#f36220;fill-opacity:1;fill-rule:nonzero;stroke:none"
         id="path762" /></g><g
       id="g764"
       transform="translate(164.50131,28.646563)"><path
         d="m 0,0 c 0,0 8.604,1.87 13.492,-2.391 4.888,-4.26 4.209,-13.039 4.209,-13.039 0,0 -8.604,-1.871 -13.492,2.39 C -0.679,-8.779 0,0 0,0"
         style="fill:#f36220;fill-opacity:1;fill-rule:nonzero;stroke:none"
         id="path766" /></g><g
       id="g768"
       transform="translate(165.04911,27.499063)"><path
         d="m 0,0 c 0,0 0.474,10.385 -5.393,15.008 -5.867,4.622 -15.852,1.732 -15.852,1.732 0,0 -0.474,-10.384 5.392,-15.007 C -9.985,-2.89 0,0 0,0"
         style="fill:#f36220;fill-opacity:1;fill-rule:nonzero;stroke:none"
         id="path770" /></g><g
       id="g772"
       transform="translate(170.96521,27.553763)"><path
         d="m 0,0 c 0,0 -6.821,5.567 -13.109,3.985 -6.289,-1.582 -9.663,-9.714 -9.663,-9.714 0,0 6.821,-5.568 13.109,-3.986 C -3.374,-8.133 0,0 0,0"
         style="fill:#f36220;fill-opacity:1;fill-rule:nonzero;stroke:none"
         id="path774" /></g><g
       id="g776"
       transform="translate(176.14001,41.481463)"><path
         d="M 0,0 C 0.678,2.079 1.15,3.825 1.451,5.006 1.183,5.82 0.858,6.555 0.551,6.527 0.374,6.512 0.195,6.257 0.04,5.58 1.55,12.157 -19.943,-28.095 -16.202,-37.17"
         style="fill:#f36220;fill-opacity:1;fill-rule:nonzero;stroke:none"
         id="path778" /></g><g
       id="g780"
       transform="translate(163.14581,15.446363)"><path
         d="m 0,0 c 0.857,3.086 1.392,6.104 1.813,9.168 l 1.128,9.273 c 0.421,3.116 0.941,6.27 1.857,9.356 0.891,3.077 2.172,6.125 4.145,8.667 C 8.099,33.374 7.53,30.357 7.085,27.298 L 5.913,18.041 C 5.488,14.933 4.987,11.78 4.096,8.688 3.227,5.608 1.979,2.538 0,0"
         style="fill:#ffffff;fill-opacity:1;fill-rule:nonzero;stroke:none"
         id="path782" /></g><g
       id="g784"
       transform="translate(165.71711,25.604563)"><path
         d="m 0,0 c 1.381,1.113 2.849,1.936 4.294,2.729 1.47,0.777 2.834,1.487 4.314,2.236 1.513,0.764 3.176,1.342 4.821,1.721 1.658,0.378 3.344,0.603 5.115,0.542 C 17.169,6.104 15.707,5.272 14.259,4.478 12.793,3.694 11.385,3 9.93,2.271 8.446,1.523 6.767,0.896 5.119,0.528 3.457,0.149 1.77,-0.066 0,0"
         style="fill:#ffffff;fill-opacity:1;fill-rule:nonzero;stroke:none"
         id="path786" /></g><g
       id="g788"
       transform="translate(150.40071,38.990263)"><path
         d="m 0,0 c 1.667,-0.607 3.129,-1.439 4.555,-2.267 1.424,-0.857 2.737,-1.658 4.143,-2.54 1.435,-0.9 2.79,-2.025 3.964,-3.237 1.181,-1.225 2.244,-2.552 3.107,-4.101 -1.673,0.598 -3.141,1.42 -4.57,2.249 C 9.771,-9.046 8.45,-8.198 7.075,-7.328 5.668,-6.444 4.264,-5.33 3.097,-4.11 1.914,-2.882 0.858,-1.549 0,0"
         style="fill:#ffffff;fill-opacity:1;fill-rule:nonzero;stroke:none"
         id="path790" /></g><g
       id="g792"
       transform="translate(166.63611,27.309663)"><path
         d="m 0,0 c 1.541,-0.526 2.898,-1.281 4.169,-2.197 0.637,-0.453 1.241,-0.967 1.818,-1.546 0.575,-0.573 1.105,-1.278 1.518,-1.868 0.776,-1.136 1.666,-2.18 2.598,-3.368 0.909,-1.184 1.829,-2.408 2.562,-3.869 -1.548,0.514 -2.908,1.262 -4.186,2.158 C 7.227,-9.808 5.978,-8.696 5.051,-7.336 4.609,-6.685 4.258,-6.162 3.84,-5.6 L 2.528,-3.881 C 1.643,-2.688 0.726,-1.462 0,0"
         style="fill:#ffffff;fill-opacity:1;fill-rule:nonzero;stroke:none"
         id="path794" /></g><g
       id="g796"
       transform="translate(151.72201,22.289163)"><path
         d="m 0,0 c 1.241,1.055 2.577,1.828 3.957,2.499 1.37,0.66 2.85,1.199 4.308,1.576 1.421,0.376 2.859,0.718 4.359,0.965 1.498,0.234 3.028,0.399 4.655,0.279 C 16.045,4.254 14.713,3.473 13.34,2.793 11.969,2.125 10.529,1.567 9.035,1.177 7.574,0.802 6.16,0.494 4.654,0.254 3.155,0.033 1.625,-0.126 0,0"
         style="fill:#ffffff;fill-opacity:1;fill-rule:nonzero;stroke:none"
         id="path798" /></g><g
       id="g800"
       transform="translate(286.31181,47.088963)"><path
         d="m 0,0 c 0,0 3.678,-5.649 -6.229,-16.116 -9.908,-10.468 -43.638,-11.911 -43.638,-11.911 0,0 10.805,9.223 20.712,19.691 C -19.248,2.131 0,0 0,0"
         style="fill:#f36220;fill-opacity:1;fill-rule:nonzero;stroke:none"
         id="path802" /></g><g
       id="g804"
       transform="translate(275.01401,42.223663)"><path
         d="m 0,0 c 0,0 3.106,-6.457 0.997,-14.84 -2.109,-8.383 -18.084,-16.192 -18.084,-16.192 0,0 2.318,9.693 4.428,18.077 C -10.55,-4.572 0,0 0,0"
         style="fill:#f36220;fill-opacity:1;fill-rule:nonzero;stroke:none"
         id="path806" /></g><g
       id="g808"
       transform="translate(286.35381,47.075263)"><path
         d="m 0,0 c 0,0 3.105,-6.456 0.996,-14.84 -2.108,-8.383 -15.882,-17.853 -15.882,-17.853 0,0 0.117,11.354 2.227,19.738 C -10.551,-4.572 0,0 0,0"
         style="fill:#f36220;fill-opacity:1;fill-rule:nonzero;stroke:none"
         id="path810" /></g><g
       id="g812"
       transform="translate(269.51591,38.210963)"><path
         d="m 0,0 c 0,0 1.448,-7.016 -2.63,-14.638 -4.078,-7.622 -22.713,-11.175 -22.713,-11.175 0,0 5.843,8.692 9.921,16.314 C -11.343,-1.878 0,0 0,0"
         style="fill:#f36220;fill-opacity:1;fill-rule:nonzero;stroke:none"
         id="path814" /></g><g
       id="g816"
       transform="translate(290.31081,47.965863)"><path
         d="M 0,0 C 1.511,1.581 2.691,2.951 3.473,3.886 3.583,4.736 3.608,5.538 3.319,5.647 3.153,5.71 2.882,5.557 2.449,5.014 -1.169,0.472 -30.437,-22.155 -30.682,-26.511"
         style="fill:#f36220;fill-opacity:1;fill-rule:nonzero;stroke:none"
         id="path818" /></g><g
       id="g820"
       transform="translate(286.31181,47.088963)"><path
         d="m 0,0 c -2.989,-2.653 -6.309,-4.909 -9.672,-7.038 -3.365,-2.137 -6.827,-4.098 -10.292,-6.036 -3.482,-1.906 -6.973,-3.785 -10.475,-5.635 -3.497,-1.867 -6.987,-3.717 -10.455,-5.69 2.988,2.655 6.307,4.912 9.67,7.04 3.366,2.136 6.828,4.097 10.293,6.034 3.485,1.904 6.975,3.783 10.478,5.632 C -6.957,-3.826 -3.467,-1.976 0,0"
         style="fill:#ffffff;fill-opacity:1;fill-rule:nonzero;stroke:none"
         id="path822" /></g><g
       id="g824"
       transform="translate(262.39681,32.917063)"><path
         d="m 0,0 c -0.467,-1.551 -1.08,-2.991 -1.74,-4.415 -0.318,-0.72 -0.692,-1.417 -1.13,-2.144 -0.454,-0.728 -1.051,-1.373 -1.624,-1.934 -1.16,-1.109 -2.371,-2.077 -3.62,-3.028 -1.251,-0.945 -2.543,-1.846 -3.971,-2.608 0.859,1.37 1.86,2.595 2.917,3.76 1.053,1.163 2.179,2.271 3.286,3.315 0.548,0.526 1.031,1.022 1.467,1.58 0.453,0.558 0.858,1.218 1.334,1.845 C -2.167,-2.353 -1.17,-1.113 0,0"
         style="fill:#ffffff;fill-opacity:1;fill-rule:nonzero;stroke:none"
         id="path826" /></g><g
       id="g828"
       transform="translate(270.35291,37.303763)"><path
         d="m 0,0 c -0.508,-1.898 -1.168,-3.699 -1.534,-5.502 -0.171,-0.898 -0.352,-1.87 -0.637,-2.854 -0.285,-0.979 -0.688,-1.899 -1.114,-2.788 -0.861,-1.778 -1.909,-3.41 -3.011,-5.004 -1.113,-1.585 -2.316,-3.106 -3.687,-4.512 0.667,1.85 1.494,3.591 2.345,5.307 l 2.555,5.085 c 0.413,0.838 0.8,1.674 1.123,2.517 0.35,0.831 0.562,1.746 0.935,2.689 C -2.321,-3.167 -1.238,-1.516 0,0"
         style="fill:#ffffff;fill-opacity:1;fill-rule:nonzero;stroke:none"
         id="path830" /></g><g
       id="g832"
       transform="translate(282.12821,44.394563)"><path
         d="m 0,0 c -0.154,-0.563 -0.315,-1.115 -0.489,-1.654 -0.135,-0.555 -0.283,-1.097 -0.404,-1.642 -0.211,-1.097 -0.359,-2.172 -0.385,-3.274 -0.018,-1.106 -0.023,-2.235 -0.068,-3.421 -0.077,-1.179 -0.244,-2.378 -0.532,-3.537 -0.615,-2.312 -1.56,-4.489 -2.759,-6.48 -0.566,-1.015 -1.254,-1.953 -1.896,-2.911 -0.71,-0.917 -1.421,-1.828 -2.199,-2.687 0.402,1.096 0.882,2.134 1.348,3.177 0.434,1.057 0.924,2.081 1.353,3.122 0.207,0.524 0.421,1.043 0.649,1.554 0.211,0.518 0.389,1.045 0.585,1.565 0.385,1.038 0.74,2.083 0.98,3.143 0.605,2.1 0.632,4.267 0.992,6.632 0.167,1.178 0.552,2.336 1.005,3.422 0.266,0.53 0.533,1.054 0.825,1.557 C -0.674,-0.943 -0.341,-0.466 0,0"
         style="fill:#ffffff;fill-opacity:1;fill-rule:nonzero;stroke:none"
         id="path834" /></g></g></svg>
