<?xml version="1.0" encoding="UTF-8" standalone="no"?>
<svg
   xmlns:dc="http://purl.org/dc/elements/1.1/"
   xmlns:cc="http://creativecommons.org/ns#"
   xmlns:rdf="http://www.w3.org/1999/02/22-rdf-syntax-ns#"
   xmlns:svg="http://www.w3.org/2000/svg"
   xmlns="http://www.w3.org/2000/svg"
   xmlns:sodipodi="http://sodipodi.sourceforge.net/DTD/sodipodi-0.dtd"
   xmlns:inkscape="http://www.inkscape.org/namespaces/inkscape"
   version="1.1"
   id="svg2"
   xml:space="preserve"
   width="440"
   height="220"
   viewBox="0 0 439.99999 220"
   sodipodi:docname="pieces.svg"
   inkscape:version="1.0.1 (3bc2e813f5, 2020-09-07)"
   inkscape:export-filename="/home/mavit/src/boardgamearena/mijnlieffmavit/img/pieces.png"
   inkscape:export-xdpi="61.09"
   inkscape:export-ydpi="61.09"><metadata
     id="metadata8"><rdf:RDF><cc:Work
         rdf:about=""><dc:format>image/svg+xml</dc:format><dc:type
           rdf:resource="http://purl.org/dc/dcmitype/StillImage" /><dc:title /></cc:Work></rdf:RDF></metadata><defs
     id="defs6" /><sodipodi:namedview
     pagecolor="#ffffff"
     bordercolor="#666666"
     borderopacity="1"
     objecttolerance="10"
     gridtolerance="10"
     guidetolerance="10"
     inkscape:pageopacity="0"
     inkscape:pageshadow="2"
     inkscape:window-width="1920"
     inkscape:window-height="1136"
     id="namedview4"
     showgrid="true"
     fit-margin-top="0"
     fit-margin-left="0"
     fit-margin-right="0"
     fit-margin-bottom="0"
     borderlayer="true"
     inkscape:zoom="1.6763139"
     inkscape:cx="86.559839"
     inkscape:cy="83.623889"
     inkscape:window-x="0"
     inkscape:window-y="27"
     inkscape:window-maximized="1"
     inkscape:current-layer="g10"
     inkscape:document-rotation="0"><inkscape:grid
       type="xygrid"
       id="grid3171"
       spacingx="110"
       spacingy="110" /></sodipodi:namedview><g
     inkscape:groupmode="layer"
     id="layer1"
     inkscape:label="background"
     transform="translate(-34.571346,-187.81435)"
     sodipodi:insensitive="true"><rect
       style="opacity:1;fill:#f36220;fill-opacity:1;stroke:none;stroke-width:4;stroke-opacity:0.643902"
       id="rect1864"
       width="780.17456"
       height="226.30444"
       x="-93.935463"
       y="284.65359" /><rect
       style="opacity:1;fill:#6f4324;fill-opacity:1;stroke:none;stroke-width:4;stroke-opacity:0.643902"
       id="rect2693"
       width="961.27917"
       height="230.03763"
       x="-145.95657"
       y="67.776726" /></g><g
     id="g10"
     inkscape:groupmode="layer"
     inkscape:label="print"
     transform="matrix(1.3333333,0,0,-1.3333333,-34.571346,379.11498)"><g
       id="g22"
       transform="translate(68.28988,276.53555)"><path
         d="m 0,0 c 0,0 -9.532,-6.883 -9.656,-15.541 -0.125,-8.657 9.205,-15.811 9.205,-15.811 0,0 9.532,6.883 9.656,15.54 C 9.33,-7.154 0,0 0,0"
         style="fill:#f36220;fill-opacity:1;fill-rule:nonzero;stroke:none"
         id="path24" /></g><g
       id="g26"
       transform="translate(74.95978,267.12055)"><path
         d="M 0,0 C -1.404,-0.406 -2.826,-0.821 -4.044,-1.793 -4.9,-2.477 -5.644,-3.43 -6.229,-4.596"
         style="fill:#ffffff;fill-opacity:1;fill-rule:nonzero;stroke:none"
         id="path28" /></g><g
       id="g30"
       transform="translate(74.95978,267.12055)"
       style="fill:#6f4324;fill-opacity:1"><path
         d="M 0,0 C -0.474,-0.782 -1.012,-1.277 -1.49,-1.711 -1.978,-2.133 -2.412,-2.466 -2.837,-2.765 -3.26,-3.06 -3.7,-3.335 -4.233,-3.646 c -0.541,-0.303 -1.138,-0.634 -1.996,-0.95 -0.257,0.881 -0.14,1.692 0.16,2.432 0.305,0.732 0.84,1.396 1.52,1.862 0.674,0.469 1.451,0.73 2.215,0.785 C -1.562,0.53 -0.812,0.411 0,0"
         style="fill:#6f4324;fill-opacity:1;fill-rule:nonzero;stroke:none"
         id="path32" /></g><g
       id="g34"
       transform="translate(75.05938,259.55015)"><path
         d="m 0,0 c -1.405,-0.406 -2.826,-0.821 -4.045,-1.793 -0.856,-0.684 -1.6,-1.637 -2.184,-2.803"
         style="fill:#ffffff;fill-opacity:1;fill-rule:nonzero;stroke:none"
         id="path36" /></g><g
       id="g38"
       transform="translate(75.05938,259.55015)"
       style="fill:#6f4324;fill-opacity:1"><path
         d="M 0,0 C -0.474,-0.783 -1.012,-1.277 -1.49,-1.711 -1.979,-2.133 -2.413,-2.467 -2.838,-2.765 -3.26,-3.06 -3.7,-3.336 -4.234,-3.646 c -0.541,-0.303 -1.138,-0.634 -1.995,-0.95 -0.257,0.88 -0.141,1.691 0.16,2.431 0.304,0.733 0.839,1.397 1.519,1.862 0.675,0.47 1.452,0.73 2.215,0.785 C -1.562,0.53 -0.813,0.411 0,0"
         style="fill:#6f4324;fill-opacity:1;fill-rule:nonzero;stroke:none"
         id="path40" /></g><g
       id="g42"
       transform="translate(61.36798,266.94275)"><path
         d="M 0,0 C 1.405,-0.406 2.826,-0.82 4.045,-1.793 4.9,-2.477 5.645,-3.43 6.229,-4.596"
         style="fill:#ffffff;fill-opacity:1;fill-rule:nonzero;stroke:none"
         id="path44" /></g><g
       id="g46"
       transform="translate(61.36798,266.94275)"
       style="fill:#6f4324;fill-opacity:1"><path
         d="m 0,0 c 0.813,0.411 1.562,0.53 2.335,0.483 0.763,-0.055 1.54,-0.316 2.215,-0.785 0.68,-0.466 1.214,-1.13 1.519,-1.862 0.3,-0.74 0.417,-1.551 0.16,-2.432 C 5.371,-4.28 4.774,-3.949 4.234,-3.646 3.7,-3.335 3.26,-3.06 2.837,-2.765 2.413,-2.466 1.978,-2.133 1.49,-1.711 1.012,-1.277 0.474,-0.782 0,0"
         style="fill:#6f4324;fill-opacity:1;fill-rule:nonzero;stroke:none"
         id="path48" /></g><g
       id="g50"
       transform="translate(61.26938,259.37245)"><path
         d="M 0,0 C 1.404,-0.406 2.825,-0.821 4.044,-1.793 4.9,-2.477 5.644,-3.43 6.229,-4.596"
         style="fill:#ffffff;fill-opacity:1;fill-rule:nonzero;stroke:none"
         id="path52" /></g><g
       id="g54"
       transform="translate(61.26938,259.37245)"
       style="fill:#6f4324;fill-opacity:1"><path
         d="m 0,0 c 0.812,0.411 1.562,0.53 2.334,0.483 0.764,-0.056 1.54,-0.316 2.215,-0.785 0.68,-0.466 1.215,-1.13 1.52,-1.863 0.3,-0.739 0.417,-1.551 0.16,-2.431 C 5.371,-4.28 4.774,-3.949 4.233,-3.646 3.7,-3.335 3.26,-3.06 2.837,-2.765 2.412,-2.466 1.978,-2.133 1.49,-1.711 1.011,-1.277 0.474,-0.783 0,0"
         style="fill:#6f4324;fill-opacity:1;fill-rule:nonzero;stroke:none"
         id="path56" /></g><g
       id="g58"
       transform="translate(68.26648,273.74065)"><path
         d="M 0,0 C -0.199,-12.622 -0.398,-25.243 -0.599,-37.865"
         style="fill:#ffffff;fill-opacity:1;fill-rule:nonzero;stroke:none"
         id="path60" /></g><g
       id="g62"
       transform="translate(68.26648,273.74065)"
       style="fill:#6f4324;fill-opacity:1"><path
         d="m 0,0 c 0.571,-3.166 0.846,-6.326 1.017,-9.485 0.188,-3.159 0.227,-6.316 0.183,-9.471 -0.052,-3.155 -0.191,-6.309 -0.478,-9.461 -0.27,-3.152 -0.646,-6.302 -1.321,-9.448 -0.574,3.166 -0.85,6.326 -1.02,9.485 -0.188,3.159 -0.228,6.316 -0.18,9.471 0.056,3.156 0.195,6.309 0.484,9.461 C -1.045,-6.296 -0.67,-3.146 0,0"
         style="fill:#6f4324;fill-opacity:1;fill-rule:nonzero;stroke:none"
         id="path64" /></g><g
       id="g66"
       transform="translate(101.93148,243.39395)"><path
         d="m 0,0 c 0,0 -6.952,9.481 -15.61,9.542 -8.658,0.062 -15.744,-9.32 -15.744,-9.32 0,0 6.953,-9.482 15.611,-9.543 C -7.085,-9.382 0,0 0,0"
         style="fill:#f36220;fill-opacity:1;fill-rule:nonzero;stroke:none"
         id="path68" /></g><g
       id="g70"
       transform="translate(92.56628,236.65515)"><path
         d="m 0,0 c -0.417,1.401 -0.842,2.819 -1.823,4.031 -0.69,0.851 -1.649,1.588 -2.819,2.165"
         style="fill:#ffffff;fill-opacity:1;fill-rule:nonzero;stroke:none"
         id="path72" /></g><g
       id="g74"
       transform="translate(92.56628,236.65515)"
       style="fill:#6f4324;fill-opacity:1"><path
         d="m 0,0 c -0.786,0.468 -1.285,1.002 -1.723,1.478 -0.424,0.484 -0.761,0.916 -1.062,1.339 -0.299,0.42 -0.577,0.859 -0.892,1.39 -0.307,0.539 -0.642,1.133 -0.965,1.989 0.879,0.263 1.691,0.152 2.433,-0.143 0.734,-0.3 1.402,-0.829 1.873,-1.507 C 0.138,3.875 0.404,3.1 0.466,2.338 0.519,1.566 0.404,0.815 0,0"
         style="fill:#6f4324;fill-opacity:1;fill-rule:nonzero;stroke:none"
         id="path76" /></g><g
       id="g78"
       transform="translate(84.99588,236.50085)"><path
         d="m 0,0 c -0.416,1.401 -0.841,2.819 -1.822,4.031 -0.69,0.851 -1.649,1.588 -2.819,2.165"
         style="fill:#ffffff;fill-opacity:1;fill-rule:nonzero;stroke:none"
         id="path80" /></g><g
       id="g82"
       transform="translate(84.99588,236.50085)"
       style="fill:#6f4324;fill-opacity:1"><path
         d="m 0,0 c -0.785,0.468 -1.284,1.002 -1.722,1.478 -0.425,0.484 -0.761,0.916 -1.063,1.339 -0.298,0.42 -0.577,0.859 -0.892,1.39 -0.306,0.539 -0.642,1.133 -0.964,1.989 0.878,0.263 1.691,0.152 2.433,-0.143 0.734,-0.3 1.402,-0.829 1.873,-1.507 C 0.139,3.875 0.405,3.1 0.466,2.338 0.519,1.566 0.405,0.815 0,0"
         style="fill:#6f4324;fill-opacity:1;fill-rule:nonzero;stroke:none"
         id="path84" /></g><g
       id="g86"
       transform="translate(92.28888,250.24505)"><path
         d="M 0,0 C -0.396,-1.408 -0.8,-2.832 -1.764,-4.058 -2.44,-4.918 -3.389,-5.669 -4.551,-6.263"
         style="fill:#ffffff;fill-opacity:1;fill-rule:nonzero;stroke:none"
         id="path88" /></g><g
       id="g90"
       transform="translate(92.28888,250.24505)"
       style="fill:#6f4324;fill-opacity:1"><path
         d="m 0,0 c 0.417,-0.81 0.542,-1.559 0.5,-2.331 -0.05,-0.763 -0.305,-1.543 -0.769,-2.22 -0.46,-0.684 -1.121,-1.223 -1.851,-1.534 -0.737,-0.306 -1.548,-0.428 -2.431,-0.178 0.311,0.861 0.637,1.46 0.936,2.003 0.307,0.535 0.58,0.978 0.872,1.403 0.295,0.427 0.625,0.864 1.043,1.354 0.43,0.482 0.922,1.024 1.7,1.503"
         style="fill:#6f4324;fill-opacity:1;fill-rule:nonzero;stroke:none"
         id="path92" /></g><g
       id="g94"
       transform="translate(84.71858,250.28895)"><path
         d="M 0,0 C -0.396,-1.408 -0.801,-2.832 -1.765,-4.058 -2.441,-4.918 -3.39,-5.669 -4.551,-6.263"
         style="fill:#ffffff;fill-opacity:1;fill-rule:nonzero;stroke:none"
         id="path96" /></g><g
       id="g98"
       transform="translate(84.71858,250.28895)"
       style="fill:#6f4324;fill-opacity:1"><path
         d="m 0,0 c 0.416,-0.81 0.541,-1.559 0.499,-2.331 -0.05,-0.763 -0.305,-1.543 -0.769,-2.22 -0.46,-0.684 -1.121,-1.223 -1.85,-1.534 -0.738,-0.305 -1.549,-0.428 -2.431,-0.178 0.31,0.861 0.636,1.46 0.936,2.003 0.306,0.535 0.579,0.978 0.871,1.403 0.295,0.427 0.625,0.864 1.044,1.355 0.429,0.481 0.921,1.023 1.7,1.502"
         style="fill:#6f4324;fill-opacity:1;fill-rule:nonzero;stroke:none"
         id="path100" /></g><g
       id="g102"
       transform="translate(99.13658,243.39645)"><path
         d="M 0,0 C -12.622,0.107 -25.245,0.215 -37.867,0.323"
         style="fill:#ffffff;fill-opacity:1;fill-rule:nonzero;stroke:none"
         id="path104" /></g><g
       id="g106"
       transform="translate(99.13658,243.39595)"
       style="fill:#6f4324;fill-opacity:1"><path
         d="m 0,0 c -3.16,-0.594 -6.319,-0.891 -9.477,-1.085 -3.157,-0.212 -6.314,-0.274 -9.469,-0.253 -3.156,0.029 -6.311,0.146 -9.464,0.41 -3.154,0.247 -6.307,0.6 -9.457,1.251 3.161,0.598 6.319,0.897 9.476,1.09 3.159,0.211 6.315,0.274 9.47,0.248 3.155,-0.033 6.311,-0.148 9.464,-0.414 C -6.303,1 -3.15,0.648 0,0"
         style="fill:#6f4324;fill-opacity:1;fill-rule:nonzero;stroke:none"
         id="path108" /></g><g
       id="g110"
       transform="translate(67.27718,210.47405)"><path
         d="M 0,0 C 0,0 9.531,6.883 9.656,15.541 9.78,24.198 0.45,31.352 0.45,31.352 c 0,0 -9.532,-6.883 -9.656,-15.54 C -9.33,7.154 0,0 0,0"
         style="fill:#f36220;fill-opacity:1;fill-rule:nonzero;stroke:none"
         id="path112" /></g><g
       id="g114"
       transform="translate(60.60628,219.88905)"><path
         d="M 0,0 C 1.405,0.406 2.826,0.82 4.045,1.793 4.9,2.477 5.645,3.43 6.229,4.596"
         style="fill:#ffffff;fill-opacity:1;fill-rule:nonzero;stroke:none"
         id="path116" /></g><g
       id="g118"
       transform="translate(60.60628,219.88905)"
       style="fill:#6f4324;fill-opacity:1"><path
         d="M 0,0 C 0.474,0.782 1.012,1.277 1.49,1.711 1.978,2.133 2.413,2.466 2.838,2.765 3.26,3.06 3.7,3.335 4.234,3.646 4.775,3.949 5.372,4.28 6.229,4.596 6.486,3.715 6.369,2.904 6.069,2.164 5.764,1.432 5.23,0.768 4.55,0.302 3.875,-0.167 3.098,-0.428 2.335,-0.483 1.562,-0.53 0.813,-0.411 0,0"
         style="fill:#6f4324;fill-opacity:1;fill-rule:nonzero;stroke:none"
         id="path120" /></g><g
       id="g122"
       transform="translate(60.50768,227.45935)"><path
         d="M 0,0 C 1.404,0.406 2.825,0.821 4.044,1.793 4.9,2.477 5.644,3.43 6.229,4.596"
         style="fill:#ffffff;fill-opacity:1;fill-rule:nonzero;stroke:none"
         id="path124" /></g><g
       id="g126"
       transform="translate(60.50768,227.45935)"
       style="fill:#6f4324;fill-opacity:1"><path
         d="M 0,0 C 0.474,0.783 1.012,1.277 1.49,1.711 1.978,2.133 2.412,2.466 2.837,2.765 3.26,3.06 3.7,3.335 4.233,3.646 4.774,3.949 5.371,4.28 6.229,4.596 6.486,3.716 6.369,2.904 6.069,2.165 5.764,1.432 5.229,0.768 4.549,0.302 3.874,-0.167 3.098,-0.427 2.334,-0.483 1.562,-0.53 0.812,-0.411 0,0"
         style="fill:#6f4324;fill-opacity:1;fill-rule:nonzero;stroke:none"
         id="path128" /></g><g
       id="g130"
       transform="translate(74.19808,220.06635)"><path
         d="M 0,0 C -1.404,0.406 -2.825,0.821 -4.044,1.793 -4.9,2.477 -5.644,3.43 -6.229,4.597"
         style="fill:#ffffff;fill-opacity:1;fill-rule:nonzero;stroke:none"
         id="path132" /></g><g
       id="g134"
       transform="translate(74.19808,220.06635)"
       style="fill:#6f4324;fill-opacity:1"><path
         d="m 0,0 c -0.812,-0.411 -1.562,-0.53 -2.334,-0.482 -0.764,0.055 -1.541,0.315 -2.215,0.785 -0.68,0.465 -1.215,1.129 -1.52,1.862 -0.3,0.74 -0.417,1.551 -0.16,2.431 0.858,-0.315 1.455,-0.647 1.996,-0.95 C -3.7,3.336 -3.26,3.06 -2.837,2.765 -2.412,2.467 -1.978,2.133 -1.49,1.711 -1.012,1.277 -0.474,0.783 0,0"
         style="fill:#6f4324;fill-opacity:1;fill-rule:nonzero;stroke:none"
         id="path136" /></g><g
       id="g138"
       transform="translate(74.29768,227.63715)"><path
         d="m 0,0 c -1.405,0.406 -2.826,0.821 -4.045,1.793 -0.856,0.684 -1.6,1.637 -2.184,2.803"
         style="fill:#ffffff;fill-opacity:1;fill-rule:nonzero;stroke:none"
         id="path140" /></g><g
       id="g142"
       transform="translate(74.29768,227.63715)"
       style="fill:#6f4324;fill-opacity:1"><path
         d="m 0,0 c -0.813,-0.411 -1.562,-0.53 -2.335,-0.483 -0.763,0.056 -1.54,0.316 -2.215,0.785 -0.68,0.466 -1.215,1.13 -1.519,1.863 C -6.37,2.904 -6.486,3.716 -6.229,4.596 -5.372,4.28 -4.775,3.949 -4.234,3.646 -3.7,3.335 -3.26,3.06 -2.838,2.765 -2.413,2.466 -1.978,2.133 -1.49,1.711 -1.012,1.277 -0.474,0.783 0,0"
         style="fill:#6f4324;fill-opacity:1;fill-rule:nonzero;stroke:none"
         id="path144" /></g><g
       id="g146"
       transform="translate(67.29968,213.26895)"><path
         d="M 0,0 C 0.199,12.622 0.399,25.243 0.599,37.864"
         style="fill:#ffffff;fill-opacity:1;fill-rule:nonzero;stroke:none"
         id="path148" /></g><g
       id="g150"
       transform="translate(67.29968,213.26895)"
       style="fill:#6f4324;fill-opacity:1"><path
         d="m 0,0 c -0.57,3.165 -0.846,6.326 -1.016,9.484 -0.189,3.16 -0.228,6.316 -0.184,9.472 0.052,3.155 0.191,6.309 0.478,9.461 0.271,3.152 0.647,6.302 1.321,9.447 C 1.173,34.699 1.45,31.539 1.619,28.38 1.808,25.221 1.847,22.064 1.799,18.909 1.743,15.753 1.604,12.599 1.315,9.448 1.045,6.296 0.671,3.146 0,0"
         style="fill:#6f4324;fill-opacity:1;fill-rule:nonzero;stroke:none"
         id="path152" /></g><g
       id="g154"
       transform="translate(33.63458,243.61565)"><path
         d="m 0,0 c 0,0 6.952,-9.481 15.61,-9.542 8.659,-0.062 15.744,9.32 15.744,9.32 0,0 -6.952,9.482 -15.61,9.543 C 7.086,9.382 0,0 0,0"
         style="fill:#f36220;fill-opacity:1;fill-rule:nonzero;stroke:none"
         id="path156" /></g><g
       id="g158"
       transform="translate(43.00078,250.35435)"><path
         d="m 0,0 c 0.416,-1.401 0.841,-2.819 1.822,-4.031 0.69,-0.851 1.649,-1.588 2.82,-2.165"
         style="fill:#ffffff;fill-opacity:1;fill-rule:nonzero;stroke:none"
         id="path160" /></g><g
       id="g162"
       transform="translate(43.00078,250.35435)"
       style="fill:#6f4324;fill-opacity:1"><path
         d="M 0,0 C 0.786,-0.468 1.284,-1.002 1.722,-1.478 2.147,-1.962 2.483,-2.394 2.785,-2.817 3.083,-3.237 3.362,-3.676 3.677,-4.207 3.983,-4.746 4.319,-5.34 4.642,-6.196 3.763,-6.459 2.95,-6.348 2.208,-6.053 1.474,-5.753 0.806,-5.224 0.335,-4.547 -0.139,-3.875 -0.405,-3.1 -0.466,-2.338 -0.519,-1.566 -0.405,-0.815 0,0"
         style="fill:#6f4324;fill-opacity:1;fill-rule:nonzero;stroke:none"
         id="path164" /></g><g
       id="g166"
       transform="translate(50.57018,250.50865)"><path
         d="m 0,0 c 0.416,-1.401 0.841,-2.82 1.823,-4.031 0.69,-0.851 1.648,-1.588 2.819,-2.165"
         style="fill:#ffffff;fill-opacity:1;fill-rule:nonzero;stroke:none"
         id="path168" /></g><g
       id="g170"
       transform="translate(50.57018,250.50865)"
       style="fill:#6f4324;fill-opacity:1"><path
         d="m 0,0 c 0.786,-0.468 1.285,-1.002 1.722,-1.478 0.425,-0.484 0.762,-0.916 1.063,-1.339 0.298,-0.42 0.577,-0.859 0.892,-1.39 0.307,-0.539 0.642,-1.133 0.965,-1.989 -0.879,-0.263 -1.691,-0.152 -2.433,0.143 -0.735,0.3 -1.403,0.829 -1.873,1.506 -0.475,0.672 -0.74,1.447 -0.802,2.209 C -0.519,-1.566 -0.405,-0.815 0,0"
         style="fill:#6f4324;fill-opacity:1;fill-rule:nonzero;stroke:none"
         id="path172" /></g><g
       id="g174"
       transform="translate(43.27718,236.76455)"><path
         d="M 0,0 C 0.396,1.408 0.8,2.832 1.764,4.058 2.44,4.918 3.389,5.669 4.551,6.263"
         style="fill:#ffffff;fill-opacity:1;fill-rule:nonzero;stroke:none"
         id="path176" /></g><g
       id="g178"
       transform="translate(43.27718,236.76455)"
       style="fill:#6f4324;fill-opacity:1"><path
         d="m 0,0 c -0.417,0.81 -0.541,1.559 -0.5,2.331 0.05,0.763 0.305,1.543 0.77,2.22 C 0.729,5.235 1.39,5.774 2.12,6.085 2.857,6.39 3.668,6.513 4.551,6.263 4.241,5.402 3.914,4.803 3.615,4.26 3.309,3.725 3.036,3.282 2.744,2.857 2.449,2.43 2.118,1.993 1.7,1.502 1.27,1.021 0.779,0.479 0,0"
         style="fill:#6f4324;fill-opacity:1;fill-rule:nonzero;stroke:none"
         id="path180" /></g><g
       id="g182"
       transform="translate(50.84848,236.72065)"><path
         d="M 0,0 C 0.396,1.408 0.8,2.832 1.764,4.057 2.44,4.918 3.389,5.668 4.551,6.263"
         style="fill:#ffffff;fill-opacity:1;fill-rule:nonzero;stroke:none"
         id="path184" /></g><g
       id="g186"
       transform="translate(50.84848,236.72065)"
       style="fill:#6f4324;fill-opacity:1"><path
         d="m 0,0 c -0.417,0.81 -0.541,1.559 -0.5,2.331 0.05,0.763 0.305,1.543 0.769,2.22 C 0.729,5.235 1.39,5.774 2.12,6.085 2.857,6.39 3.668,6.513 4.551,6.263 4.241,5.402 3.914,4.803 3.615,4.26 3.309,3.724 3.036,3.282 2.744,2.857 2.448,2.43 2.118,1.993 1.7,1.502 1.27,1.021 0.779,0.479 0,0"
         style="fill:#6f4324;fill-opacity:1;fill-rule:nonzero;stroke:none"
         id="path188" /></g><g
       id="g190"
       transform="translate(36.42948,243.61325)"><path
         d="M 0,0 C 12.623,-0.107 25.245,-0.215 37.868,-0.323"
         style="fill:#ffffff;fill-opacity:1;fill-rule:nonzero;stroke:none"
         id="path192" /></g><g
       id="g194"
       transform="translate(36.42948,243.61325)"><path
         d="m 0,0 c 3.161,0.594 6.319,0.892 9.477,1.085 3.158,0.212 6.314,0.274 9.469,0.253 3.157,-0.028 6.311,-0.145 9.465,-0.41 3.153,-0.246 6.307,-0.599 9.457,-1.251 -3.161,-0.597 -6.319,-0.897 -9.477,-1.09 -3.158,-0.211 -6.314,-0.273 -9.47,-0.248 -3.155,0.033 -6.311,0.149 -9.464,0.414 C 6.304,-0.999 3.15,-0.647 0,0"
         style="fill:#6f4324;fill-opacity:1;fill-rule:nonzero;stroke:none"
         id="path196" /></g><g
       id="g198"
       transform="translate(123.05278,270.65306)"><path
         d="m 0,0 c 0,0 -2.26,-14.159 5.019,-21.734 7.279,-7.576 21.338,-5.698 21.338,-5.698 0,0 2.26,14.159 -5.018,21.734 C 14.061,1.877 0,0 0,0"
         style="fill:#f36220;fill-opacity:1;fill-rule:nonzero;stroke:none"
         id="path200" /></g><g
       id="g202"
       transform="translate(136.77248,268.28586)"><path
         d="m 0,0 c -0.852,-1.562 -1.71,-3.146 -1.92,-5.036 -0.147,-1.328 0.032,-2.791 0.527,-4.302"
         style="fill:#ffffff;fill-opacity:1;fill-rule:nonzero;stroke:none"
         id="path204" /></g><g
       id="g206"
       transform="translate(136.77248,268.28586)"><path
         d="m 0,0 c 0.152,-1.016 0.056,-1.875 -0.032,-2.655 -0.103,-0.777 -0.22,-1.461 -0.334,-2.118 l -0.377,-2.054 c -0.153,-0.743 -0.31,-1.543 -0.65,-2.511 -0.848,0.583 -1.37,1.383 -1.696,2.263 -0.316,0.879 -0.406,1.871 -0.23,2.825 0.169,0.952 0.578,1.826 1.134,2.54 C -1.616,-0.995 -0.934,-0.417 0,0"
         style="fill:#6f4324;fill-opacity:1;fill-rule:nonzero;stroke:none"
         id="path208" /></g><g
       id="g210"
       transform="translate(143.31448,261.84096)"><path
         d="m 0,0 c -0.852,-1.562 -1.71,-3.146 -1.92,-5.036 -0.147,-1.328 0.032,-2.791 0.527,-4.302"
         style="fill:#ffffff;fill-opacity:1;fill-rule:nonzero;stroke:none"
         id="path212" /></g><g
       id="g214"
       transform="translate(143.31448,261.84096)"><path
         d="m 0,0 c 0.152,-1.016 0.056,-1.875 -0.032,-2.655 -0.103,-0.777 -0.22,-1.461 -0.334,-2.119 l -0.376,-2.053 c -0.154,-0.743 -0.31,-1.543 -0.651,-2.511 -0.848,0.583 -1.37,1.383 -1.696,2.263 -0.316,0.879 -0.406,1.871 -0.229,2.825 0.168,0.952 0.577,1.826 1.133,2.54 0.57,0.715 1.251,1.293 2.185,1.71"
         style="fill:#6f4324;fill-opacity:1;fill-rule:nonzero;stroke:none"
         id="path216" /></g><g
       id="g218"
       transform="translate(125.33108,256.40836)"><path
         d="M 0,0 C 1.544,0.861 3.11,1.729 4.979,1.942 6.292,2.091 7.739,1.91 9.234,1.409"
         style="fill:#ffffff;fill-opacity:1;fill-rule:nonzero;stroke:none"
         id="path220" /></g><g
       id="g222"
       transform="translate(125.33108,256.40836)"
       style="fill:#6f4324;fill-opacity:1"><path
         d="M 0,0 C 0.401,0.934 0.966,1.618 1.67,2.19 2.373,2.751 3.239,3.165 4.186,3.337 5.135,3.518 6.125,3.429 6.997,3.11 7.872,2.784 8.664,2.259 9.234,1.409 8.271,1.072 7.479,0.918 6.744,0.765 L 4.724,0.387 C 4.077,0.272 3.403,0.153 2.634,0.046 1.862,-0.045 1.011,-0.146 0,0"
         style="fill:#6f4324;fill-opacity:1;fill-rule:nonzero;stroke:none"
         id="path224" /></g><g
       id="g226"
       transform="translate(131.70408,249.79266)"><path
         d="M 0,0 C 1.544,0.861 3.11,1.729 4.979,1.942 6.292,2.091 7.739,1.91 9.234,1.409"
         style="fill:#ffffff;fill-opacity:1;fill-rule:nonzero;stroke:none"
         id="path228" /></g><g
       id="g230"
       transform="translate(131.70408,249.79266)"
       style="fill:#6f4324;fill-opacity:1"><path
         d="M 0,0 C 0.401,0.934 0.966,1.618 1.67,2.19 2.373,2.751 3.239,3.165 4.186,3.337 5.135,3.518 6.125,3.428 6.997,3.11 7.872,2.783 8.664,2.259 9.234,1.409 8.271,1.072 7.479,0.917 6.744,0.765 L 4.724,0.387 C 4.077,0.272 3.403,0.153 2.634,0.046 1.862,-0.045 1.011,-0.146 0,0"
         style="fill:#6f4324;fill-opacity:1;fill-rule:nonzero;stroke:none"
         id="path232" /></g><g
       id="g234"
       transform="translate(125.41698,268.22286)"><path
         d="M 0,0 C 10.596,-11.06 21.191,-22.119 31.787,-33.179"
         style="fill:#ffffff;fill-opacity:1;fill-rule:nonzero;stroke:none"
         id="path236" /></g><g
       id="g238"
       transform="translate(125.41698,268.22286)"
       style="fill:#6f4324;fill-opacity:1"><path
         d="m 0,0 c 3.097,-2.335 5.98,-4.876 8.789,-7.488 1.424,-1.287 2.771,-2.648 4.153,-3.974 l 4.034,-4.09 c 2.655,-2.759 5.217,-5.607 7.71,-8.522 2.49,-2.917 4.903,-5.907 7.101,-9.105 -3.1,2.333 -5.984,4.872 -8.792,7.485 -2.806,2.615 -5.542,5.297 -8.184,8.068 l -3.914,4.204 C 9.632,-11.983 8.329,-10.58 7.104,-9.102 4.615,-6.184 2.2,-3.194 0,0"
         style="fill:#6f4324;fill-opacity:1;fill-rule:nonzero;stroke:none"
         id="path240" /></g><g
       id="g242"
       transform="translate(180.01758,271.08516)"><path
         d="m 0,0 c 0,0 -14.018,2.182 -21.455,-5.234 -7.438,-7.415 -5.479,-21.62 -5.479,-21.62 0,0 14.018,-2.182 21.455,5.233 C 1.959,-14.205 0,0 0,0"
         style="fill:#f36220;fill-opacity:1;fill-rule:nonzero;stroke:none"
         id="path244" /></g><g
       id="g246"
       transform="translate(177.77738,257.19306)"><path
         d="M 0,0 C -1.551,0.85 -3.123,1.707 -4.994,1.905 -6.308,2.044 -7.754,1.853 -9.244,1.341"
         style="fill:#ffffff;fill-opacity:1;fill-rule:nonzero;stroke:none"
         id="path248" /></g><g
       id="g250"
       transform="translate(177.77738,257.19306)"
       style="fill:#6f4324;fill-opacity:1"><path
         d="M 0,0 C -1.01,-0.154 -1.862,-0.059 -2.635,0.027 -3.404,0.128 -4.08,0.242 -4.727,0.353 L -6.75,0.715 c -0.735,0.148 -1.528,0.297 -2.494,0.626 0.563,0.854 1.351,1.385 2.223,1.718 0.871,0.324 1.86,0.421 2.81,0.248 C -3.263,3.141 -2.394,2.733 -1.687,2.178 -0.979,1.611 -0.409,0.931 0,0"
         style="fill:#6f4324;fill-opacity:1;fill-rule:nonzero;stroke:none"
         id="path252" /></g><g
       id="g254"
       transform="translate(171.45218,250.53046)"><path
         d="M 0,0 C -1.551,0.85 -3.123,1.707 -4.994,1.905 -6.308,2.044 -7.754,1.853 -9.244,1.341"
         style="fill:#ffffff;fill-opacity:1;fill-rule:nonzero;stroke:none"
         id="path256" /></g><g
       id="g258"
       transform="translate(171.45118,250.53046)"
       style="fill:#6f4324;fill-opacity:1"><path
         d="M 0,0 C -1.009,-0.154 -1.861,-0.059 -2.634,0.027 -3.403,0.128 -4.079,0.242 -4.726,0.353 L -6.75,0.715 c -0.734,0.148 -1.527,0.296 -2.493,0.626 0.563,0.854 1.351,1.385 2.223,1.718 0.871,0.324 1.86,0.42 2.81,0.248 C -3.262,3.141 -2.393,2.733 -1.686,2.178 -0.978,1.611 -0.408,0.931 0,0"
         style="fill:#6f4324;fill-opacity:1;fill-rule:nonzero;stroke:none"
         id="path260" /></g><g
       id="g262"
       transform="translate(165.94918,268.67746)"><path
         d="M 0,0 C 0.862,-1.556 1.732,-3.133 1.956,-5.021 2.113,-6.348 1.944,-7.813 1.46,-9.328"
         style="fill:#ffffff;fill-opacity:1;fill-rule:nonzero;stroke:none"
         id="path264" /></g><g
       id="g266"
       transform="translate(165.94918,268.67746)"
       style="fill:#6f4324;fill-opacity:1"><path
         d="M 0,0 C 0.937,-0.41 1.623,-0.983 2.197,-1.694 2.759,-2.405 3.174,-3.276 3.35,-4.226 3.532,-5.178 3.449,-6.171 3.14,-7.052 2.82,-7.935 2.305,-8.739 1.46,-9.328 1.112,-8.362 0.95,-7.564 0.792,-6.821 L 0.4,-4.771 C 0.282,-4.114 0.159,-3.431 0.051,-2.655 -0.042,-1.875 -0.146,-1.017 0,0"
         style="fill:#6f4324;fill-opacity:1;fill-rule:nonzero;stroke:none"
         id="path268" /></g><g
       id="g270"
       transform="translate(159.45318,262.18426)"><path
         d="M 0,0 C 0.863,-1.556 1.733,-3.133 1.957,-5.021 2.113,-6.348 1.945,-7.813 1.461,-9.328"
         style="fill:#ffffff;fill-opacity:1;fill-rule:nonzero;stroke:none"
         id="path272" /></g><g
       id="g274"
       transform="translate(159.45318,262.18426)"
       style="fill:#6f4324;fill-opacity:1"><path
         d="M 0,0 C 0.937,-0.41 1.623,-0.983 2.197,-1.694 2.76,-2.404 3.175,-3.275 3.35,-4.226 3.533,-5.178 3.45,-6.171 3.14,-7.052 2.82,-7.935 2.305,-8.739 1.461,-9.328 1.113,-8.362 0.951,-7.563 0.792,-6.821 L 0.4,-4.771 C 0.282,-4.114 0.16,-3.431 0.052,-2.654 -0.042,-1.875 -0.145,-1.017 0,0"
         style="fill:#6f4324;fill-opacity:1;fill-rule:nonzero;stroke:none"
         id="path276" /></g><g
       id="g278"
       transform="translate(177.63188,268.67646)"><path
         d="M 0,0 C -10.858,-10.795 -21.718,-21.591 -32.576,-32.386"
         style="fill:#ffffff;fill-opacity:1;fill-rule:nonzero;stroke:none"
         id="path280" /></g><g
       id="g282"
       transform="translate(177.63188,268.67646)"
       style="fill:#6f4324;fill-opacity:1"><path
         d="m 0,0 c -2.277,-3.139 -4.763,-6.068 -7.322,-8.924 -1.26,-1.447 -2.596,-2.818 -3.896,-4.225 l -4.013,-4.107 c -2.708,-2.705 -5.508,-5.319 -8.375,-7.864 -2.871,-2.543 -5.815,-5.01 -8.97,-7.266 2.274,3.141 4.759,6.072 7.318,8.927 2.562,2.852 5.192,5.636 7.913,8.329 l 4.13,3.989 c 1.415,1.292 2.794,2.62 4.249,3.871 2.87,2.542 5.814,5.011 8.966,7.27"
         style="fill:#6f4324;fill-opacity:1;fill-rule:nonzero;stroke:none"
         id="path284" /></g><g
       id="g286"
       transform="translate(178.53808,212.79556)"><path
         d="m 0,0 c 0,0 2.259,14.159 -5.02,21.734 -7.278,7.576 -21.338,5.698 -21.338,5.698 0,0 -2.26,-14.159 5.018,-21.734 C -14.061,-1.877 0,0 0,0"
         style="fill:#f36220;fill-opacity:1;fill-rule:nonzero;stroke:none"
         id="path288" /></g><g
       id="g290"
       transform="translate(164.81738,215.16276)"><path
         d="M 0,0 C 0.852,1.562 1.71,3.146 1.92,5.036 2.067,6.363 1.889,7.827 1.394,9.338"
         style="fill:#ffffff;fill-opacity:1;fill-rule:nonzero;stroke:none"
         id="path292" /></g><g
       id="g294"
       transform="translate(164.81738,215.16276)"
       style="fill:#6f4324;fill-opacity:1"><path
         d="M 0,0 C -0.152,1.016 -0.056,1.875 0.032,2.655 0.135,3.432 0.253,4.116 0.366,4.773 L 0.743,6.827 C 0.896,7.57 1.053,8.37 1.394,9.338 2.241,8.755 2.763,7.955 3.089,7.075 3.405,6.196 3.495,5.204 3.319,4.25 3.15,3.298 2.741,2.424 2.185,1.71 1.616,0.995 0.934,0.417 0,0"
         style="fill:#6f4324;fill-opacity:1;fill-rule:nonzero;stroke:none"
         id="path296" /></g><g
       id="g298"
       transform="translate(158.27538,221.60766)"><path
         d="M 0,0 C 0.852,1.562 1.71,3.146 1.92,5.036 2.067,6.364 1.888,7.827 1.393,9.338"
         style="fill:#ffffff;fill-opacity:1;fill-rule:nonzero;stroke:none"
         id="path300" /></g><g
       id="g302"
       transform="translate(158.27538,221.60766)"
       style="fill:#6f4324;fill-opacity:1"><path
         d="m 0,0 c -0.152,1.016 -0.056,1.875 0.032,2.655 0.103,0.777 0.22,1.461 0.334,2.118 L 0.743,6.827 C 0.896,7.57 1.053,8.37 1.393,9.338 2.241,8.755 2.763,7.955 3.089,7.075 3.405,6.196 3.495,5.204 3.319,4.25 3.15,3.298 2.741,2.424 2.185,1.71 1.616,0.995 0.934,0.417 0,0"
         style="fill:#6f4324;fill-opacity:1;fill-rule:nonzero;stroke:none"
         id="path304" /></g><g
       id="g306"
       transform="translate(176.25878,227.04026)"><path
         d="m 0,0 c -1.544,-0.861 -3.11,-1.73 -4.979,-1.942 -1.313,-0.149 -2.76,0.032 -4.254,0.533"
         style="fill:#ffffff;fill-opacity:1;fill-rule:nonzero;stroke:none"
         id="path308" /></g><g
       id="g310"
       transform="translate(176.25878,227.04026)"
       style="fill:#6f4324;fill-opacity:1"><path
         d="m 0,0 c -0.401,-0.935 -0.966,-1.618 -1.67,-2.191 -0.703,-0.56 -1.569,-0.974 -2.516,-1.147 -0.949,-0.18 -1.938,-0.091 -2.811,0.228 -0.875,0.326 -1.667,0.851 -2.236,1.701 0.962,0.337 1.754,0.491 2.489,0.644 l 2.02,0.378 c 0.647,0.115 1.322,0.234 2.09,0.341 C -1.862,0.045 -1.011,0.146 0,0"
         style="fill:#6f4324;fill-opacity:1;fill-rule:nonzero;stroke:none"
         id="path312" /></g><g
       id="g314"
       transform="translate(169.88578,233.65596)"><path
         d="m 0,0 c -1.544,-0.861 -3.11,-1.729 -4.979,-1.942 -1.313,-0.149 -2.76,0.032 -4.254,0.533"
         style="fill:#ffffff;fill-opacity:1;fill-rule:nonzero;stroke:none"
         id="path316" /></g><g
       id="g318"
       transform="translate(169.88578,233.65596)"
       style="fill:#6f4324;fill-opacity:1"><path
         d="m 0,0 c -0.401,-0.934 -0.966,-1.618 -1.67,-2.19 -0.703,-0.561 -1.569,-0.975 -2.516,-1.147 -0.949,-0.181 -1.938,-0.091 -2.811,0.227 -0.875,0.327 -1.667,0.851 -2.236,1.701 0.962,0.337 1.754,0.492 2.489,0.644 l 2.02,0.378 c 0.647,0.115 1.322,0.234 2.09,0.341 C -1.862,0.045 -1.011,0.146 0,0"
         style="fill:#6f4324;fill-opacity:1;fill-rule:nonzero;stroke:none"
         id="path320" /></g><g
       id="g322"
       transform="translate(176.17288,215.22576)"><path
         d="M 0,0 C -10.596,11.06 -21.191,22.119 -31.787,33.178"
         style="fill:#ffffff;fill-opacity:1;fill-rule:nonzero;stroke:none"
         id="path324" /></g><g
       id="g326"
       transform="translate(176.17288,215.22576)"><path
         d="m 0,0 c -3.097,2.335 -5.98,4.876 -8.788,7.488 -1.425,1.287 -2.772,2.648 -4.154,3.974 l -4.034,4.09 c -2.655,2.759 -5.217,5.607 -7.71,8.522 -2.49,2.917 -4.903,5.907 -7.1,9.104 3.099,-2.332 5.983,-4.871 8.791,-7.484 2.807,-2.615 5.542,-5.297 8.184,-8.068 l 3.914,-4.204 C -9.632,11.983 -8.329,10.58 -7.104,9.102 -4.615,6.184 -2.2,3.194 0,0"
         style="fill:#6f4324;fill-opacity:1;fill-rule:nonzero;stroke:none"
         id="path328" /></g><g
       id="g330"
       transform="translate(121.57228,212.36346)"><path
         d="m 0,0 c 0,0 14.018,-2.182 21.455,5.234 7.438,7.415 5.479,21.62 5.479,21.62 0,0 -14.018,2.182 -21.455,-5.233 C -1.959,14.205 0,0 0,0"
         style="fill:#f36220;fill-opacity:1;fill-rule:nonzero;stroke:none"
         id="path332" /></g><g
       id="g334"
       transform="translate(123.81348,226.25506)"><path
         d="m 0,0 c 1.551,-0.85 3.122,-1.707 4.993,-1.905 1.315,-0.139 2.76,0.052 4.251,0.564"
         style="fill:#ffffff;fill-opacity:1;fill-rule:nonzero;stroke:none"
         id="path336" /></g><g
       id="g338"
       transform="translate(123.81348,226.25506)"
       style="fill:#6f4324;fill-opacity:1"><path
         d="m 0,0 c 1.009,0.154 1.861,0.059 2.634,-0.027 0.769,-0.1 1.445,-0.215 2.092,-0.325 L 6.75,-0.715 C 7.484,-0.862 8.278,-1.011 9.244,-1.341 8.68,-2.194 7.892,-2.725 7.02,-3.059 6.149,-3.383 5.16,-3.479 4.21,-3.306 3.262,-3.141 2.394,-2.733 1.686,-2.178 0.978,-1.611 0.408,-0.931 0,0"
         style="fill:#6f4324;fill-opacity:1;fill-rule:nonzero;stroke:none"
         id="path340" /></g><g
       id="g342"
       transform="translate(130.13868,232.91816)"><path
         d="m 0,0 c 1.551,-0.85 3.122,-1.707 4.993,-1.905 1.315,-0.139 2.76,0.052 4.251,0.564"
         style="fill:#ffffff;fill-opacity:1;fill-rule:nonzero;stroke:none"
         id="path344" /></g><g
       id="g346"
       transform="translate(130.13868,232.91816)"
       style="fill:#6f4324;fill-opacity:1"><path
         d="M 0,0 C 1.009,0.154 1.861,0.059 2.634,-0.027 3.403,-0.128 4.079,-0.242 4.726,-0.353 L 6.75,-0.715 C 7.484,-0.863 8.278,-1.012 9.244,-1.341 8.68,-2.195 7.892,-2.726 7.02,-3.059 6.149,-3.383 5.16,-3.48 4.21,-3.307 3.262,-3.141 2.394,-2.733 1.686,-2.178 0.978,-1.611 0.408,-0.931 0,0"
         style="fill:#6f4324;fill-opacity:1;fill-rule:nonzero;stroke:none"
         id="path348" /></g><g
       id="g350"
       transform="translate(135.64068,214.77116)"><path
         d="m 0,0 c -0.862,1.556 -1.732,3.133 -1.956,5.021 -0.157,1.327 0.012,2.792 0.496,4.307"
         style="fill:#ffffff;fill-opacity:1;fill-rule:nonzero;stroke:none"
         id="path352" /></g><g
       id="g354"
       transform="translate(135.64068,214.77116)"
       style="fill:#6f4324;fill-opacity:1"><path
         d="m 0,0 c -0.937,0.41 -1.623,0.983 -2.196,1.694 -0.563,0.71 -0.978,1.581 -1.154,2.532 -0.182,0.952 -0.099,1.945 0.21,2.826 0.32,0.883 0.836,1.687 1.68,2.276 0.348,-0.966 0.51,-1.765 0.668,-2.507 L -0.4,4.771 C -0.282,4.114 -0.159,3.431 -0.051,2.654 0.043,1.875 0.146,1.017 0,0"
         style="fill:#6f4324;fill-opacity:1;fill-rule:nonzero;stroke:none"
         id="path356" /></g><g
       id="g358"
       transform="translate(142.13668,221.26436)"><path
         d="m 0,0 c -0.863,1.556 -1.733,3.133 -1.956,5.021 -0.157,1.327 0.012,2.792 0.495,4.307"
         style="fill:#ffffff;fill-opacity:1;fill-rule:nonzero;stroke:none"
         id="path360" /></g><g
       id="g362"
       transform="translate(142.13668,221.26436)"
       style="fill:#6f4324;fill-opacity:1"><path
         d="m 0,0 c -0.937,0.41 -1.623,0.983 -2.197,1.694 -0.562,0.71 -0.978,1.581 -1.153,2.532 -0.183,0.952 -0.1,1.945 0.21,2.826 0.32,0.883 0.835,1.687 1.679,2.276 0.348,-0.966 0.51,-1.765 0.669,-2.507 L -0.4,4.771 C -0.282,4.114 -0.16,3.431 -0.052,2.654 0.042,1.875 0.145,1.017 0,0"
         style="fill:#6f4324;fill-opacity:1;fill-rule:nonzero;stroke:none"
         id="path364" /></g><g
       id="g366"
       transform="translate(123.95798,214.77216)"><path
         d="M 0,0 C 10.859,10.795 21.718,21.591 32.576,32.386"
         style="fill:#ffffff;fill-opacity:1;fill-rule:nonzero;stroke:none"
         id="path368" /></g><g
       id="g370"
       transform="translate(123.95798,214.77216)"
       style="fill:#6f4324;fill-opacity:1"><path
         d="m 0,0 c 2.277,3.139 4.763,6.068 7.322,8.924 1.26,1.447 2.596,2.818 3.896,4.225 l 4.013,4.107 c 2.708,2.705 5.508,5.319 8.376,7.864 2.87,2.543 5.814,5.01 8.969,7.266 -2.274,-3.141 -4.759,-6.072 -7.318,-8.927 -2.562,-2.853 -5.192,-5.636 -7.912,-8.329 L 13.215,11.141 C 11.8,9.849 10.421,8.521 8.967,7.27 6.097,4.728 3.152,2.259 0,0"
         style="fill:#6f4324;fill-opacity:1;fill-rule:nonzero;stroke:none"
         id="path372" /></g><g
       id="g374"
       transform="translate(322.73171,252.22993)"><path
         d="m 0,0 c 0,0 -9.471,0.594 -13.985,-4.74 -4.515,-5.334 -2.365,-14.576 -2.365,-14.576 0,0 9.471,-0.594 13.986,4.74 C 2.15,-9.242 0,0 0,0"
         style="fill:#f36220;fill-opacity:1;fill-rule:nonzero;stroke:none"
         id="path376" /></g><g
       id="g378"
       transform="translate(322.06521,242.94133)"><path
         d="M 0,0 C -1.084,0.467 -2.183,0.937 -3.441,0.955 -4.325,0.967 -5.277,0.754 -6.24,0.327"
         style="fill:#ffffff;fill-opacity:1;fill-rule:nonzero;stroke:none"
         id="path380" /></g><g
       id="g382"
       transform="translate(322.06521,242.94133)"
       style="fill:#6f4324;fill-opacity:1"><path
         d="m 0,0 c -0.744,-0.355 -1.355,-0.446 -1.877,-0.519 -0.523,-0.057 -0.944,-0.068 -1.332,-0.039 -0.385,0.03 -0.77,0.106 -1.253,0.232 -0.484,0.136 -1.032,0.3 -1.778,0.653 0.243,0.791 0.725,1.302 1.301,1.657 0.574,0.346 1.278,0.509 1.971,0.447 0.69,-0.056 1.329,-0.318 1.831,-0.719 C -0.633,1.299 -0.249,0.782 0,0"
         style="fill:#6f4324;fill-opacity:1;fill-rule:nonzero;stroke:none"
         id="path384" /></g><g
       id="g386"
       transform="translate(318.24691,238.17033)"><path
         d="M 0,0 C -1.084,0.467 -2.183,0.937 -3.441,0.955 -4.325,0.968 -5.277,0.754 -6.24,0.327"
         style="fill:#ffffff;fill-opacity:1;fill-rule:nonzero;stroke:none"
         id="path388" /></g><g
       id="g390"
       transform="translate(318.24691,238.17033)"
       style="fill:#6f4324;fill-opacity:1"><path
         d="m 0,0 c -0.744,-0.354 -1.355,-0.446 -1.877,-0.518 -0.523,-0.058 -0.944,-0.069 -1.332,-0.04 -0.385,0.03 -0.77,0.107 -1.253,0.232 -0.484,0.136 -1.032,0.3 -1.778,0.653 0.243,0.791 0.725,1.302 1.301,1.657 0.574,0.346 1.278,0.509 1.971,0.448 0.69,-0.057 1.329,-0.319 1.831,-0.719 C -0.633,1.3 -0.249,0.782 0,0"
         style="fill:#6f4324;fill-opacity:1;fill-rule:nonzero;stroke:none"
         id="path392" /></g><g
       id="g394"
       transform="translate(313.50031,249.79633)"><path
         d="M 0,0 C 0.667,-0.973 1.341,-1.96 1.602,-3.191 1.786,-4.056 1.761,-5.031 1.528,-6.058"
         style="fill:#ffffff;fill-opacity:1;fill-rule:nonzero;stroke:none"
         id="path396" /></g><g
       id="g398"
       transform="translate(313.50031,249.79633)"
       style="fill:#6f4324;fill-opacity:1"><path
         d="M 0,0 C 0.815,-0.092 1.397,-0.369 1.9,-0.784 2.39,-1.199 2.771,-1.775 2.959,-2.441 3.154,-3.109 3.13,-3.831 2.902,-4.462 2.665,-5.095 2.257,-5.667 1.528,-6.058 1.037,-5.395 0.77,-4.889 0.543,-4.441 0.327,-3.991 0.177,-3.628 0.073,-3.256 -0.03,-2.88 -0.101,-2.465 -0.146,-1.942 -0.176,-1.416 -0.204,-0.799 0,0"
         style="fill:#6f4324;fill-opacity:1;fill-rule:nonzero;stroke:none"
         id="path400" /></g><g
       id="g402"
       transform="translate(309.55791,245.12743)"><path
         d="M 0,0 C 0.668,-0.973 1.341,-1.96 1.603,-3.191 1.786,-4.056 1.761,-5.031 1.528,-6.059"
         style="fill:#ffffff;fill-opacity:1;fill-rule:nonzero;stroke:none"
         id="path404" /></g><g
       id="g406"
       transform="translate(309.55791,245.12743)"
       style="fill:#6f4324;fill-opacity:1"><path
         d="M 0,0 C 0.816,-0.092 1.397,-0.37 1.9,-0.784 2.391,-1.199 2.771,-1.775 2.96,-2.441 3.154,-3.109 3.13,-3.832 2.902,-4.462 2.666,-5.095 2.257,-5.667 1.528,-6.059 1.038,-5.396 0.77,-4.89 0.543,-4.441 0.327,-3.992 0.177,-3.628 0.074,-3.256 -0.03,-2.881 -0.1,-2.466 -0.145,-1.942 -0.176,-1.416 -0.204,-0.799 0,0"
         style="fill:#6f4324;fill-opacity:1;fill-rule:nonzero;stroke:none"
         id="path408" /></g><g
       id="g410"
       transform="translate(320.87721,250.00333)"><path
         d="M 0,0 C -4.385,-5.223 -8.771,-10.446 -13.156,-15.669"
         style="fill:#ffffff;fill-opacity:1;fill-rule:nonzero;stroke:none"
         id="path412" /></g><g
       id="g414"
       transform="translate(320.87771,250.00333)"
       style="fill:#6f4324;fill-opacity:1"><path
         d="m 0,0 c -0.621,-1.705 -1.471,-3.218 -2.389,-4.673 -0.928,-1.448 -1.946,-2.819 -3.041,-4.126 -1.094,-1.307 -2.27,-2.547 -3.534,-3.711 -1.274,-1.157 -2.618,-2.255 -4.193,-3.159 0.618,1.707 1.467,3.221 2.386,4.675 0.928,1.448 1.946,2.819 3.044,4.123 1.098,1.305 2.272,2.545 3.538,3.709 C -2.915,-2.005 -1.572,-0.907 0,0"
         style="fill:#6f4324;fill-opacity:1;fill-rule:nonzero;stroke:none"
         id="path416" /></g><g
       id="g418"
       transform="translate(335.78591,242.57173)"><path
         d="m 0,0 c 0,-11.724 -9.504,-21.229 -21.229,-21.229 -11.725,0 -21.229,9.505 -21.229,21.229 0,11.725 9.504,21.229 21.229,21.229 C -9.504,21.229 0,11.725 0,0 Z"
         style="fill:none;stroke:#f36220;stroke-width:5;stroke-linecap:butt;stroke-linejoin:miter;stroke-miterlimit:10;stroke-dasharray:none;stroke-opacity:1"
         id="path420" /></g><g
       id="g422"
       transform="translate(203.93837,243.24222)"><path
         d="m 0,0 c 0.065,11.509 7.316,22.264 18.228,26.216 11.185,4.051 23.74,0.617 31.345,-8.51 7.49,-8.99 8.296,-22.231 2.271,-32.185 C 45.831,-24.413 33.838,-29.755 22.43,-27.404 11.029,-25.054 2.218,-15.809 0.321,-4.34 0.084,-2.908 0.008,-1.451 0,0 c -0.018,3.216 -5.018,3.223 -5,0 0.079,-13.804 8.803,-26.201 21.742,-30.979 12.773,-4.718 27.817,-0.636 36.47,9.864 8.827,10.71 10.179,26.174 2.949,38.118 C 48.998,28.838 34.977,34.925 21.434,32.292 8.245,29.728 -2.509,18.626 -4.554,5.332 -4.827,3.563 -4.99,1.791 -5,0 -5.018,-3.218 -0.018,-3.222 0,0"
         style="fill:#f36220;fill-opacity:1;fill-rule:nonzero;stroke:none"
         id="path424" /></g><path
       d="m 235.00017,209.12652 h -6.24 v 68.23 h 6.24 z"
       style="fill:#6f4324;fill-opacity:1;fill-rule:nonzero;stroke:none"
       id="path426" /><g
       id="g428"
       transform="translate(234.99987,209.12692)"
       style="fill:#6f4324;fill-opacity:1"><path
         d="M 0,0 -0.334,34.253 C -0.456,45.616 -0.441,56.909 -0.485,68.23 L 0,67.745 -6.24,67.731 -5.74,68.23 -5.834,34.115 -5.959,17.058 -6.145,0 -6.24,0.095 Z M 0,0 -6.24,-0.095 -6.333,-0.097 -6.334,0 -6.52,17.058 -6.646,34.115 -6.739,68.23 -6.741,68.731 -6.24,68.73 0,68.716 0.487,68.715 0.485,68.23 C 0.441,56.809 0.456,45.358 0.334,33.977 Z"
         style="fill:#6f4324;fill-opacity:1;fill-rule:nonzero;stroke:none"
         id="path430" /></g><path
       d="m 265.99517,240.12252 h -68.231 v 6.239 h 68.231 z"
       style="fill:#6f4324;fill-opacity:1;fill-rule:nonzero;stroke:none"
       id="path432" /><g
       id="g434"
       transform="translate(265.99547,246.36182)"
       style="fill:#6f4324;fill-opacity:1"><path
         d="m 0,0 -34.254,-0.334 c -11.362,-0.122 -22.655,-0.107 -33.977,-0.151 l 0.485,0.485 0.015,-6.239 -0.5,0.499 34.115,-0.093 17.058,-0.126 L 0,-6.145 -0.095,-6.239 Z M 0,0 0.095,-6.239 0.096,-6.333 0,-6.334 -17.058,-6.52 l -17.058,-0.125 -34.115,-0.094 -0.5,-0.001 10e-4,0.501 0.014,6.239 10e-4,0.487 0.484,-0.002 c 11.422,-0.044 22.873,-0.029 34.254,-0.151 z"
         style="fill:#6f4324;fill-opacity:1;fill-rule:nonzero;stroke:none"
         id="path436" /></g><g
       id="g438"
       transform="translate(240.05457,252.90032)"><path
         d="m 0,0 c 0,0 -9.47,0.594 -13.985,-4.74 -4.515,-5.334 -2.364,-14.576 -2.364,-14.576 0,0 9.47,-0.594 13.985,4.74 C 2.151,-9.242 0,0 0,0"
         style="fill:#f36220;fill-opacity:1;fill-rule:nonzero;stroke:none"
         id="path440" /></g><g
       id="g442"
       transform="translate(239.38807,243.61182)"><path
         d="M 0,0 C -1.084,0.466 -2.182,0.937 -3.44,0.955 -4.325,0.967 -5.277,0.754 -6.24,0.327"
         style="fill:#ffffff;fill-opacity:1;fill-rule:nonzero;stroke:none"
         id="path444" /></g><g
       id="g446"
       transform="translate(239.38807,243.61182)"
       style="fill:#6f4324;fill-opacity:1"><path
         d="m 0,0 c -0.744,-0.355 -1.355,-0.447 -1.877,-0.519 -0.522,-0.057 -0.943,-0.068 -1.332,-0.039 -0.385,0.029 -0.77,0.106 -1.253,0.232 -0.484,0.135 -1.032,0.3 -1.778,0.653 0.243,0.791 0.726,1.302 1.301,1.657 0.574,0.345 1.278,0.509 1.971,0.447 0.69,-0.056 1.329,-0.318 1.831,-0.719 C -0.633,1.299 -0.248,0.782 0,0"
         style="fill:#6f4324;fill-opacity:1;fill-rule:nonzero;stroke:none"
         id="path448" /></g><g
       id="g450"
       transform="translate(235.56967,238.84082)"><path
         d="M 0,0 C -1.084,0.467 -2.182,0.937 -3.44,0.955 -4.325,0.967 -5.277,0.754 -6.239,0.327"
         style="fill:#ffffff;fill-opacity:1;fill-rule:nonzero;stroke:none"
         id="path452" /></g><g
       id="g454"
       transform="translate(235.56967,238.84082)"
       style="fill:#6f4324;fill-opacity:1"><path
         d="m 0,0 c -0.744,-0.355 -1.355,-0.446 -1.877,-0.519 -0.522,-0.057 -0.943,-0.068 -1.332,-0.039 -0.385,0.03 -0.77,0.106 -1.253,0.232 -0.484,0.135 -1.032,0.3 -1.778,0.653 0.243,0.791 0.726,1.302 1.301,1.657 0.574,0.346 1.278,0.509 1.971,0.447 0.69,-0.056 1.329,-0.318 1.832,-0.719 C -0.633,1.299 -0.248,0.782 0,0"
         style="fill:#6f4324;fill-opacity:1;fill-rule:nonzero;stroke:none"
         id="path456" /></g><g
       id="g458"
       transform="translate(230.82307,250.46672)"><path
         d="M 0,0 C 0.667,-0.973 1.341,-1.96 1.603,-3.191 1.786,-4.056 1.761,-5.031 1.528,-6.058"
         style="fill:#ffffff;fill-opacity:1;fill-rule:nonzero;stroke:none"
         id="path460" /></g><g
       id="g462"
       transform="translate(230.82307,250.46672)"
       style="fill:#6f4324;fill-opacity:1"><path
         d="M 0,0 C 0.815,-0.092 1.397,-0.37 1.9,-0.784 2.391,-1.199 2.771,-1.775 2.959,-2.441 3.154,-3.109 3.13,-3.832 2.902,-4.462 2.666,-5.095 2.257,-5.667 1.528,-6.058 1.038,-5.395 0.77,-4.89 0.543,-4.441 c -0.216,0.45 -0.366,0.813 -0.47,1.185 -0.103,0.375 -0.174,0.79 -0.218,1.314 C -0.176,-1.416 -0.204,-0.799 0,0"
         style="fill:#6f4324;fill-opacity:1;fill-rule:nonzero;stroke:none"
         id="path464" /></g><g
       id="g466"
       transform="translate(226.88117,245.79782)"><path
         d="M 0,0 C 0.667,-0.973 1.341,-1.96 1.603,-3.191 1.786,-4.056 1.761,-5.031 1.528,-6.059"
         style="fill:#ffffff;fill-opacity:1;fill-rule:nonzero;stroke:none"
         id="path468" /></g><g
       id="g470"
       transform="translate(226.88117,245.79782)"
       style="fill:#6f4324;fill-opacity:1"><path
         d="M 0,0 C 0.815,-0.092 1.397,-0.37 1.9,-0.784 2.391,-1.199 2.771,-1.776 2.959,-2.442 3.154,-3.109 3.13,-3.832 2.902,-4.462 2.665,-5.095 2.257,-5.667 1.528,-6.059 1.037,-5.396 0.77,-4.89 0.543,-4.441 0.327,-3.992 0.177,-3.628 0.073,-3.257 -0.03,-2.881 -0.101,-2.466 -0.146,-1.942 -0.176,-1.416 -0.204,-0.799 0,0"
         style="fill:#6f4324;fill-opacity:1;fill-rule:nonzero;stroke:none"
         id="path472" /></g><g
       id="g474"
       transform="translate(238.20057,250.67382)"><path
         d="M 0,0 C -4.386,-5.223 -8.771,-10.446 -13.157,-15.669"
         style="fill:#ffffff;fill-opacity:1;fill-rule:nonzero;stroke:none"
         id="path476" /></g><g
       id="g478"
       transform="translate(238.20057,250.67382)"
       style="fill:#6f4324;fill-opacity:1"><path
         d="m 0,0 c -0.621,-1.705 -1.471,-3.218 -2.389,-4.673 -0.928,-1.448 -1.946,-2.819 -3.041,-4.126 -1.094,-1.307 -2.269,-2.547 -3.534,-3.712 -1.274,-1.156 -2.618,-2.254 -4.193,-3.158 0.618,1.707 1.467,3.221 2.386,4.675 0.928,1.448 1.946,2.819 3.044,4.123 1.098,1.305 2.273,2.545 3.538,3.709 C -2.915,-2.005 -1.572,-0.907 0,0"
         style="fill:#6f4324;fill-opacity:1;fill-rule:nonzero;stroke:none"
         id="path480" /></g><g
       id="g482"
       transform="translate(67.96117,194.12842)"><path
         d="m 0,0 c 0,0 -9.532,-6.883 -9.656,-15.54 -0.125,-8.657 9.205,-15.812 9.205,-15.812 0,0 9.532,6.883 9.656,15.541 C 9.33,-7.153 0,0 0,0"
         style="fill:#6f4324;fill-opacity:1;fill-rule:nonzero;stroke:none"
         id="path484" /></g><g
       id="g486"
       transform="translate(74.63107,184.71432)"><path
         d="M 0,0 C -1.404,-0.406 -2.826,-0.821 -4.044,-1.794 -4.9,-2.477 -5.644,-3.431 -6.229,-4.597"
         style="fill:#ffffff;fill-opacity:1;fill-rule:nonzero;stroke:none"
         id="path488" /></g><g
       id="g490"
       transform="translate(74.63107,184.71432)"
       style="fill:#f36220;fill-opacity:1"><path
         d="M 0,0 C -0.474,-0.783 -1.012,-1.277 -1.49,-1.711 -1.978,-2.134 -2.412,-2.467 -2.837,-2.765 -3.26,-3.06 -3.7,-3.336 -4.233,-3.646 -4.774,-3.949 -5.371,-4.28 -6.229,-4.597 c -0.257,0.881 -0.14,1.693 0.16,2.432 0.305,0.732 0.84,1.396 1.52,1.862 0.674,0.469 1.451,0.73 2.215,0.785 C -1.562,0.529 -0.812,0.41 0,0"
         style="fill:#f36220;fill-opacity:1;fill-rule:nonzero;stroke:none"
         id="path492" /></g><g
       id="g494"
       transform="translate(74.73067,177.14302)"><path
         d="m 0,0 c -1.405,-0.405 -2.826,-0.82 -4.045,-1.793 -0.856,-0.684 -1.6,-1.637 -2.184,-2.803"
         style="fill:#ffffff;fill-opacity:1;fill-rule:nonzero;stroke:none"
         id="path496" /></g><g
       id="g498"
       transform="translate(74.73067,177.14302)"
       style="fill:#f36220;fill-opacity:1"><path
         d="M 0,0 C -0.474,-0.782 -1.012,-1.277 -1.49,-1.711 -1.979,-2.133 -2.413,-2.466 -2.838,-2.765 -3.26,-3.06 -3.7,-3.335 -4.234,-3.646 c -0.541,-0.302 -1.138,-0.634 -1.995,-0.95 -0.257,0.881 -0.141,1.692 0.16,2.432 0.304,0.732 0.839,1.396 1.519,1.862 0.675,0.469 1.452,0.73 2.215,0.785 C -1.562,0.53 -0.813,0.411 0,0"
         style="fill:#f36220;fill-opacity:1;fill-rule:nonzero;stroke:none"
         id="path500" /></g><g
       id="g502"
       transform="translate(61.03927,184.53662)"><path
         d="M 0,0 C 1.405,-0.406 2.826,-0.821 4.045,-1.794 4.9,-2.477 5.645,-3.431 6.229,-4.597"
         style="fill:#ffffff;fill-opacity:1;fill-rule:nonzero;stroke:none"
         id="path504" /></g><g
       id="g506"
       transform="translate(61.03927,184.53662)"
       style="fill:#f36220;fill-opacity:1"><path
         d="M 0,0 C 0.813,0.41 1.562,0.529 2.335,0.482 3.098,0.427 3.875,0.166 4.55,-0.303 5.23,-0.769 5.764,-1.432 6.069,-2.165 6.369,-2.904 6.486,-3.716 6.229,-4.597 5.371,-4.28 4.774,-3.949 4.234,-3.646 3.7,-3.336 3.26,-3.06 2.837,-2.765 2.413,-2.467 1.978,-2.134 1.49,-1.711 1.012,-1.277 0.474,-0.782 0,0"
         style="fill:#f36220;fill-opacity:1;fill-rule:nonzero;stroke:none"
         id="path508" /></g><g
       id="g510"
       transform="translate(60.94067,176.96632)"><path
         d="M 0,0 C 1.404,-0.406 2.825,-0.821 4.044,-1.794 4.9,-2.478 5.644,-3.431 6.229,-4.597"
         style="fill:#ffffff;fill-opacity:1;fill-rule:nonzero;stroke:none"
         id="path512" /></g><g
       id="g514"
       transform="translate(60.94067,176.96632)"
       style="fill:#f36220;fill-opacity:1"><path
         d="m 0,0 c 0.812,0.41 1.562,0.529 2.334,0.482 0.764,-0.055 1.54,-0.316 2.215,-0.785 0.68,-0.466 1.215,-1.13 1.52,-1.862 0.3,-0.74 0.417,-1.551 0.16,-2.432 C 5.371,-4.281 4.774,-3.949 4.233,-3.646 3.7,-3.336 3.26,-3.061 2.837,-2.766 2.412,-2.467 1.978,-2.134 1.49,-1.712 1.011,-1.277 0.474,-0.783 0,0"
         style="fill:#f36220;fill-opacity:1;fill-rule:nonzero;stroke:none"
         id="path516" /></g><g
       id="g518"
       transform="translate(67.93777,191.33342)"><path
         d="M 0,0 C -0.199,-12.621 -0.398,-25.242 -0.599,-37.864"
         style="fill:#ffffff;fill-opacity:1;fill-rule:nonzero;stroke:none"
         id="path520" /></g><g
       id="g522"
       transform="translate(67.93777,191.33442)"
       style="fill:#f36220;fill-opacity:1"><path
         d="m 0,0 c 0.571,-3.166 0.846,-6.326 1.017,-9.485 0.188,-3.16 0.227,-6.316 0.183,-9.471 -0.052,-3.155 -0.191,-6.31 -0.478,-9.461 -0.27,-3.152 -0.646,-6.303 -1.321,-9.448 -0.574,3.166 -0.85,6.326 -1.02,9.485 -0.188,3.159 -0.228,6.316 -0.18,9.471 0.056,3.155 0.195,6.309 0.484,9.461 C -1.045,-6.296 -0.67,-3.146 0,0"
         style="fill:#f36220;fill-opacity:1;fill-rule:nonzero;stroke:none"
         id="path524" /></g><g
       id="g526"
       transform="translate(101.60277,160.98682)"><path
         d="m 0,0 c 0,0 -6.952,9.481 -15.61,9.543 -8.658,0.061 -15.744,-9.32 -15.744,-9.32 0,0 6.953,-9.482 15.611,-9.543 C -7.085,-9.382 0,0 0,0"
         style="fill:#6f4324;fill-opacity:1;fill-rule:nonzero;stroke:none"
         id="path528" /></g><g
       id="g530"
       transform="translate(92.23757,154.24852)"><path
         d="m 0,0 c -0.417,1.401 -0.842,2.819 -1.823,4.031 -0.69,0.851 -1.649,1.587 -2.819,2.165"
         style="fill:#ffffff;fill-opacity:1;fill-rule:nonzero;stroke:none"
         id="path532" /></g><g
       id="g534"
       transform="translate(92.23757,154.24852)"
       style="fill:#f36220;fill-opacity:1"><path
         d="m 0,0 c -0.786,0.468 -1.285,1.002 -1.723,1.478 -0.424,0.484 -0.761,0.917 -1.062,1.338 -0.299,0.421 -0.577,0.86 -0.892,1.391 -0.307,0.539 -0.642,1.133 -0.965,1.989 0.879,0.263 1.691,0.152 2.433,-0.143 0.734,-0.3 1.402,-0.828 1.873,-1.506 C 0.138,3.876 0.404,3.101 0.466,2.338 0.519,1.566 0.404,0.815 0,0"
         style="fill:#f36220;fill-opacity:1;fill-rule:nonzero;stroke:none"
         id="path536" /></g><g
       id="g538"
       transform="translate(84.66717,154.09422)"><path
         d="m 0,0 c -0.416,1.401 -0.841,2.819 -1.822,4.031 -0.69,0.852 -1.649,1.588 -2.819,2.165"
         style="fill:#ffffff;fill-opacity:1;fill-rule:nonzero;stroke:none"
         id="path540" /></g><g
       id="g542"
       transform="translate(84.66717,154.09422)"
       style="fill:#f36220;fill-opacity:1"><path
         d="M 0,0 C -0.785,0.468 -1.284,1.002 -1.722,1.478 -2.147,1.962 -2.483,2.395 -2.785,2.816 -3.083,3.237 -3.362,3.676 -3.677,4.207 -3.983,4.746 -4.319,5.34 -4.641,6.196 -3.763,6.459 -2.95,6.348 -2.208,6.054 -1.474,5.753 -0.806,5.225 -0.335,4.547 0.139,3.876 0.405,3.101 0.466,2.338 0.519,1.566 0.405,0.815 0,0"
         style="fill:#f36220;fill-opacity:1;fill-rule:nonzero;stroke:none"
         id="path544" /></g><g
       id="g546"
       transform="translate(91.96017,167.83832)"><path
         d="M 0,0 C -0.396,-1.407 -0.8,-2.832 -1.764,-4.058 -2.44,-4.918 -3.389,-5.669 -4.551,-6.263"
         style="fill:#ffffff;fill-opacity:1;fill-rule:nonzero;stroke:none"
         id="path548" /></g><g
       id="g550"
       transform="translate(91.96017,167.83832)"
       style="fill:#f36220;fill-opacity:1"><path
         d="m 0,0 c 0.417,-0.81 0.542,-1.559 0.5,-2.331 -0.05,-0.763 -0.305,-1.542 -0.769,-2.22 -0.46,-0.684 -1.121,-1.223 -1.851,-1.534 -0.737,-0.306 -1.548,-0.429 -2.431,-0.178 0.311,0.861 0.637,1.459 0.936,2.003 0.307,0.535 0.58,0.978 0.872,1.403 0.295,0.426 0.625,0.864 1.043,1.354 0.43,0.482 0.922,1.024 1.7,1.503"
         style="fill:#f36220;fill-opacity:1;fill-rule:nonzero;stroke:none"
         id="path552" /></g><g
       id="g554"
       transform="translate(84.38987,167.88232)"><path
         d="M 0,0 C -0.396,-1.407 -0.801,-2.832 -1.765,-4.058 -2.441,-4.918 -3.39,-5.669 -4.551,-6.263"
         style="fill:#ffffff;fill-opacity:1;fill-rule:nonzero;stroke:none"
         id="path556" /></g><g
       id="g558"
       transform="translate(84.38987,167.88232)"
       style="fill:#f36220;fill-opacity:1"><path
         d="m 0,0 c 0.416,-0.81 0.541,-1.559 0.499,-2.331 -0.05,-0.763 -0.305,-1.542 -0.769,-2.22 -0.46,-0.684 -1.121,-1.223 -1.85,-1.534 -0.738,-0.306 -1.549,-0.428 -2.431,-0.178 0.31,0.861 0.636,1.46 0.936,2.003 0.306,0.535 0.579,0.978 0.871,1.403 0.295,0.426 0.625,0.864 1.044,1.354 0.429,0.482 0.921,1.024 1.7,1.503"
         style="fill:#f36220;fill-opacity:1;fill-rule:nonzero;stroke:none"
         id="path560" /></g><g
       id="g562"
       transform="translate(98.80787,160.98972)"><path
         d="M 0,0 C -12.622,0.107 -25.245,0.215 -37.867,0.323"
         style="fill:#ffffff;fill-opacity:1;fill-rule:nonzero;stroke:none"
         id="path564" /></g><g
       id="g566"
       transform="translate(98.80787,160.98972)"
       style="fill:#f36220;fill-opacity:1"><path
         d="m 0,0 c -3.16,-0.594 -6.319,-0.892 -9.477,-1.085 -3.157,-0.212 -6.314,-0.274 -9.469,-0.253 -3.156,0.028 -6.311,0.146 -9.464,0.409 -3.154,0.247 -6.307,0.601 -9.457,1.252 3.161,0.598 6.319,0.897 9.476,1.09 3.159,0.21 6.315,0.274 9.47,0.248 3.155,-0.033 6.311,-0.148 9.464,-0.414 C -6.303,0.999 -3.15,0.647 0,0"
         style="fill:#f36220;fill-opacity:1;fill-rule:nonzero;stroke:none"
         id="path568" /></g><g
       id="g570"
       transform="translate(66.94847,128.06782)"><path
         d="M 0,0 C 0,0 9.531,6.883 9.656,15.54 9.78,24.197 0.45,31.352 0.45,31.352 c 0,0 -9.532,-6.883 -9.656,-15.541 C -9.33,7.153 0,0 0,0"
         style="fill:#6f4324;fill-opacity:1;fill-rule:nonzero;stroke:none"
         id="path572" /></g><g
       id="g574"
       transform="translate(60.27757,137.48192)"><path
         d="M 0,0 C 1.405,0.406 2.826,0.821 4.045,1.794 4.9,2.478 5.645,3.431 6.229,4.597"
         style="fill:#ffffff;fill-opacity:1;fill-rule:nonzero;stroke:none"
         id="path576" /></g><g
       id="g578"
       transform="translate(60.27757,137.48192)"
       style="fill:#f36220;fill-opacity:1"><path
         d="M 0,0 C 0.474,0.783 1.012,1.277 1.49,1.712 1.978,2.134 2.413,2.467 2.838,2.766 3.26,3.061 3.7,3.336 4.234,3.646 4.775,3.949 5.372,4.28 6.229,4.597 6.486,3.716 6.369,2.905 6.069,2.165 5.764,1.433 5.23,0.769 4.55,0.303 3.875,-0.166 3.098,-0.427 2.335,-0.482 1.562,-0.529 0.813,-0.41 0,0"
         style="fill:#f36220;fill-opacity:1;fill-rule:nonzero;stroke:none"
         id="path580" /></g><g
       id="g582"
       transform="translate(60.17897,145.05322)"><path
         d="M 0,0 C 1.404,0.406 2.825,0.82 4.044,1.793 4.9,2.477 5.644,3.43 6.229,4.596"
         style="fill:#ffffff;fill-opacity:1;fill-rule:nonzero;stroke:none"
         id="path584" /></g><g
       id="g586"
       transform="translate(60.17897,145.05322)"
       style="fill:#f36220;fill-opacity:1"><path
         d="M 0,0 C 0.474,0.782 1.012,1.277 1.49,1.711 1.978,2.133 2.412,2.466 2.837,2.765 3.26,3.06 3.7,3.335 4.233,3.646 4.774,3.949 5.371,4.28 6.229,4.596 6.486,3.716 6.369,2.904 6.069,2.164 5.764,1.432 5.229,0.768 4.549,0.302 3.874,-0.167 3.098,-0.428 2.334,-0.483 1.562,-0.53 0.812,-0.411 0,0"
         style="fill:#f36220;fill-opacity:1;fill-rule:nonzero;stroke:none"
         id="path588" /></g><g
       id="g590"
       transform="translate(73.86937,137.65962)"><path
         d="M 0,0 C -1.404,0.406 -2.825,0.821 -4.044,1.794 -4.9,2.477 -5.644,3.431 -6.229,4.597"
         style="fill:#ffffff;fill-opacity:1;fill-rule:nonzero;stroke:none"
         id="path592" /></g><g
       id="g594"
       transform="translate(73.86937,137.65962)"
       style="fill:#f36220;fill-opacity:1"><path
         d="m 0,0 c -0.812,-0.41 -1.562,-0.529 -2.334,-0.482 -0.764,0.055 -1.541,0.316 -2.215,0.785 -0.68,0.466 -1.215,1.13 -1.52,1.862 -0.3,0.739 -0.417,1.551 -0.16,2.432 C -5.371,4.28 -4.774,3.949 -4.233,3.646 -3.7,3.336 -3.26,3.061 -2.837,2.765 -2.412,2.467 -1.978,2.134 -1.49,1.712 -1.012,1.277 -0.474,0.783 0,0"
         style="fill:#f36220;fill-opacity:1;fill-rule:nonzero;stroke:none"
         id="path596" /></g><g
       id="g598"
       transform="translate(73.96897,145.23092)"><path
         d="m 0,0 c -1.405,0.406 -2.826,0.82 -4.045,1.793 -0.856,0.684 -1.6,1.637 -2.184,2.803"
         style="fill:#ffffff;fill-opacity:1;fill-rule:nonzero;stroke:none"
         id="path600" /></g><g
       id="g602"
       transform="translate(73.96897,145.23092)"
       style="fill:#f36220;fill-opacity:1"><path
         d="m 0,0 c -0.813,-0.411 -1.562,-0.53 -2.335,-0.483 -0.763,0.055 -1.54,0.316 -2.215,0.785 -0.68,0.466 -1.215,1.13 -1.519,1.862 -0.301,0.74 -0.417,1.552 -0.16,2.432 C -5.372,4.28 -4.775,3.949 -4.234,3.646 -3.7,3.335 -3.26,3.06 -2.838,2.765 -2.413,2.466 -1.978,2.133 -1.49,1.711 -1.012,1.277 -0.474,0.782 0,0"
         style="fill:#f36220;fill-opacity:1;fill-rule:nonzero;stroke:none"
         id="path604" /></g><g
       id="g606"
       transform="translate(66.97097,130.86272)"><path
         d="M 0,0 C 0.199,12.621 0.399,25.242 0.599,37.864"
         style="fill:#ffffff;fill-opacity:1;fill-rule:nonzero;stroke:none"
         id="path608" /></g><g
       id="g610"
       transform="translate(66.97097,130.86272)"
       style="fill:#f36220;fill-opacity:1"><path
         d="m 0,0 c -0.57,3.165 -0.846,6.325 -1.016,9.484 -0.189,3.16 -0.228,6.316 -0.184,9.472 0.052,3.155 0.191,6.309 0.478,9.461 0.271,3.151 0.647,6.302 1.321,9.447 C 1.173,34.699 1.45,31.538 1.619,28.38 1.808,25.221 1.847,22.063 1.799,18.908 1.743,15.753 1.604,12.599 1.315,9.447 1.045,6.296 0.671,3.146 0,0"
         style="fill:#f36220;fill-opacity:1;fill-rule:nonzero;stroke:none"
         id="path612" /></g><g
       id="g614"
       transform="translate(33.30587,161.20942)"><path
         d="m 0,0 c 0,0 6.952,-9.481 15.61,-9.543 8.659,-0.061 15.744,9.32 15.744,9.32 0,0 -6.952,9.482 -15.61,9.543 C 7.086,9.382 0,0 0,0"
         style="fill:#6f4324;fill-opacity:1;fill-rule:nonzero;stroke:none"
         id="path616" /></g><g
       id="g618"
       transform="translate(42.67207,167.94772)"><path
         d="m 0,0 c 0.416,-1.401 0.841,-2.819 1.822,-4.031 0.69,-0.851 1.649,-1.587 2.82,-2.164"
         style="fill:#ffffff;fill-opacity:1;fill-rule:nonzero;stroke:none"
         id="path620" /></g><g
       id="g622"
       transform="translate(42.67207,167.94772)"
       style="fill:#f36220;fill-opacity:1"><path
         d="M 0,0 C 0.786,-0.468 1.284,-1.002 1.722,-1.478 2.147,-1.962 2.483,-2.395 2.785,-2.816 3.083,-3.237 3.362,-3.676 3.677,-4.207 3.983,-4.745 4.319,-5.34 4.642,-6.195 3.763,-6.459 2.95,-6.348 2.208,-6.053 c -0.734,0.3 -1.402,0.829 -1.873,1.506 -0.474,0.672 -0.74,1.446 -0.801,2.209 C -0.519,-1.566 -0.405,-0.815 0,0"
         style="fill:#f36220;fill-opacity:1;fill-rule:nonzero;stroke:none"
         id="path624" /></g><g
       id="g626"
       transform="translate(50.24147,168.10202)"><path
         d="m 0,0 c 0.416,-1.401 0.841,-2.819 1.823,-4.031 0.69,-0.851 1.648,-1.587 2.819,-2.164"
         style="fill:#ffffff;fill-opacity:1;fill-rule:nonzero;stroke:none"
         id="path628" /></g><g
       id="g630"
       transform="translate(50.24147,168.10202)"
       style="fill:#f36220;fill-opacity:1"><path
         d="m 0,0 c 0.786,-0.468 1.285,-1.002 1.722,-1.478 0.425,-0.484 0.762,-0.917 1.063,-1.338 0.298,-0.421 0.577,-0.86 0.892,-1.391 0.307,-0.538 0.642,-1.133 0.965,-1.988 -0.879,-0.264 -1.691,-0.153 -2.433,0.142 -0.735,0.3 -1.403,0.829 -1.873,1.506 -0.475,0.671 -0.74,1.446 -0.802,2.209 C -0.519,-1.566 -0.405,-0.815 0,0"
         style="fill:#f36220;fill-opacity:1;fill-rule:nonzero;stroke:none"
         id="path632" /></g><g
       id="g634"
       transform="translate(42.94847,154.35792)"><path
         d="M 0,0 C 0.396,1.408 0.8,2.832 1.764,4.058 2.44,4.919 3.389,5.669 4.551,6.263"
         style="fill:#ffffff;fill-opacity:1;fill-rule:nonzero;stroke:none"
         id="path636" /></g><g
       id="g638"
       transform="translate(42.94847,154.35792)"
       style="fill:#f36220;fill-opacity:1"><path
         d="M 0,0 C -0.417,0.81 -0.541,1.559 -0.5,2.331 -0.45,3.095 -0.195,3.873 0.27,4.552 0.729,5.235 1.39,5.774 2.12,6.085 2.857,6.391 3.668,6.514 4.551,6.263 4.241,5.402 3.914,4.804 3.615,4.261 3.309,3.725 3.036,3.282 2.744,2.857 2.449,2.431 2.118,1.993 1.7,1.503 1.27,1.021 0.779,0.479 0,0"
         style="fill:#f36220;fill-opacity:1;fill-rule:nonzero;stroke:none"
         id="path640" /></g><g
       id="g642"
       transform="translate(50.51977,154.31392)"><path
         d="M 0,0 C 0.396,1.408 0.8,2.832 1.764,4.058 2.44,4.919 3.389,5.669 4.551,6.263"
         style="fill:#ffffff;fill-opacity:1;fill-rule:nonzero;stroke:none"
         id="path644" /></g><g
       id="g646"
       transform="translate(50.51977,154.31392)"
       style="fill:#f36220;fill-opacity:1"><path
         d="M 0,0 C -0.417,0.81 -0.541,1.559 -0.5,2.331 -0.45,3.095 -0.195,3.873 0.269,4.552 0.729,5.235 1.39,5.774 2.12,6.085 2.857,6.391 3.668,6.514 4.551,6.263 4.241,5.402 3.914,4.804 3.615,4.261 3.309,3.725 3.036,3.282 2.744,2.857 2.448,2.431 2.118,1.993 1.7,1.503 1.27,1.021 0.779,0.479 0,0"
         style="fill:#f36220;fill-opacity:1;fill-rule:nonzero;stroke:none"
         id="path648" /></g><g
       id="g650"
       transform="translate(36.10077,161.20652)"><path
         d="M 0,0 C 12.623,-0.107 25.245,-0.215 37.868,-0.322"
         style="fill:#ffffff;fill-opacity:1;fill-rule:nonzero;stroke:none"
         id="path652" /></g><g
       id="g654"
       transform="translate(36.10077,161.20652)"
       style="fill:#f36220;fill-opacity:1"><path
         d="m 0,0 c 3.161,0.594 6.319,0.892 9.477,1.086 3.158,0.211 6.314,0.273 9.469,0.252 3.157,-0.028 6.311,-0.145 9.465,-0.409 3.153,-0.247 6.307,-0.6 9.457,-1.251 -3.161,-0.598 -6.319,-0.898 -9.477,-1.09 -3.158,-0.211 -6.314,-0.275 -9.47,-0.249 -3.155,0.033 -6.311,0.149 -9.464,0.415 C 6.304,-0.999 3.15,-0.647 0,0"
         style="fill:#f36220;fill-opacity:1;fill-rule:nonzero;stroke:none"
         id="path656" /></g><g
       id="g658"
       transform="translate(122.68332,188.95388)"><path
         d="m 0,0 c 0,0 -2.26,-14.159 5.019,-21.734 7.279,-7.576 21.338,-5.698 21.338,-5.698 0,0 2.26,14.16 -5.018,21.735 C 14.061,1.878 0,0 0,0"
         style="fill:#6f4324;fill-opacity:1;fill-rule:nonzero;stroke:none"
         id="path660" /></g><g
       id="g662"
       transform="translate(136.40302,186.58668)"><path
         d="m 0,0 c -0.852,-1.562 -1.71,-3.146 -1.92,-5.035 -0.147,-1.328 0.032,-2.792 0.527,-4.303"
         style="fill:#ffffff;fill-opacity:1;fill-rule:nonzero;stroke:none"
         id="path664" /></g><g
       id="g666"
       transform="translate(136.40302,186.58668)"
       style="fill:#f36220;fill-opacity:1"><path
         d="m 0,0 c 0.152,-1.016 0.056,-1.875 -0.032,-2.654 -0.103,-0.778 -0.22,-1.462 -0.334,-2.119 l -0.377,-2.054 c -0.153,-0.743 -0.31,-1.543 -0.65,-2.511 -0.848,0.583 -1.37,1.383 -1.696,2.264 -0.316,0.879 -0.406,1.871 -0.23,2.824 0.169,0.952 0.578,1.826 1.134,2.54 C -1.616,-0.994 -0.934,-0.417 0,0"
         style="fill:#f36220;fill-opacity:1;fill-rule:nonzero;stroke:none"
         id="path668" /></g><g
       id="g670"
       transform="translate(142.94502,180.14238)"><path
         d="m 0,0 c -0.852,-1.562 -1.71,-3.146 -1.92,-5.036 -0.147,-1.328 0.032,-2.791 0.527,-4.303"
         style="fill:#ffffff;fill-opacity:1;fill-rule:nonzero;stroke:none"
         id="path672" /></g><g
       id="g674"
       transform="translate(142.94502,180.14238)"
       style="fill:#f36220;fill-opacity:1"><path
         d="m 0,0 c 0.152,-1.017 0.056,-1.875 -0.032,-2.655 -0.103,-0.778 -0.22,-1.461 -0.334,-2.119 l -0.376,-2.053 c -0.154,-0.743 -0.31,-1.543 -0.651,-2.512 -0.848,0.583 -1.37,1.384 -1.696,2.264 -0.316,0.879 -0.406,1.871 -0.229,2.825 0.168,0.951 0.577,1.825 1.133,2.54 0.57,0.715 1.251,1.293 2.185,1.71"
         style="fill:#f36220;fill-opacity:1;fill-rule:nonzero;stroke:none"
         id="path676" /></g><g
       id="g678"
       transform="translate(124.96162,174.70978)"><path
         d="M 0,0 C 1.544,0.861 3.11,1.729 4.979,1.941 6.292,2.091 7.739,1.909 9.234,1.408"
         style="fill:#ffffff;fill-opacity:1;fill-rule:nonzero;stroke:none"
         id="path680" /></g><g
       id="g682"
       transform="translate(124.96162,174.70978)"
       style="fill:#f36220;fill-opacity:1"><path
         d="M 0,0 C 0.401,0.934 0.966,1.618 1.67,2.19 2.373,2.751 3.239,3.165 4.186,3.337 5.135,3.518 6.125,3.429 6.997,3.11 7.872,2.783 8.664,2.259 9.234,1.409 8.271,1.072 7.479,0.917 6.744,0.765 L 4.724,0.387 C 4.077,0.271 3.403,0.152 2.634,0.046 1.862,-0.045 1.011,-0.146 0,0"
         style="fill:#f36220;fill-opacity:1;fill-rule:nonzero;stroke:none"
         id="path684" /></g><g
       id="g686"
       transform="translate(131.33462,168.09348)"><path
         d="M 0,0 C 1.544,0.861 3.11,1.729 4.979,1.941 6.292,2.091 7.739,1.909 9.234,1.409"
         style="fill:#ffffff;fill-opacity:1;fill-rule:nonzero;stroke:none"
         id="path688" /></g><g
       id="g690"
       transform="translate(131.33462,168.09348)"
       style="fill:#f36220;fill-opacity:1"><path
         d="M 0,0 C 0.401,0.935 0.966,1.618 1.67,2.19 2.373,2.751 3.239,3.165 4.186,3.338 5.135,3.518 6.125,3.429 6.997,3.11 7.872,2.783 8.664,2.259 9.234,1.409 8.271,1.072 7.479,0.918 6.744,0.765 L 4.724,0.387 C 4.077,0.271 3.403,0.152 2.634,0.047 1.862,-0.045 1.011,-0.146 0,0"
         style="fill:#f36220;fill-opacity:1;fill-rule:nonzero;stroke:none"
         id="path692" /></g><g
       id="g694"
       transform="translate(125.04752,186.52318)"><path
         d="M 0,0 C 10.596,-11.059 21.191,-22.118 31.787,-33.178"
         style="fill:#ffffff;fill-opacity:1;fill-rule:nonzero;stroke:none"
         id="path696" /></g><g
       id="g698"
       transform="translate(125.04752,186.52318)"
       style="fill:#f36220;fill-opacity:1"><path
         d="m 0,0 c 3.097,-2.335 5.98,-4.875 8.789,-7.487 1.424,-1.287 2.771,-2.649 4.153,-3.975 l 4.034,-4.09 c 2.655,-2.759 5.217,-5.606 7.71,-8.521 2.49,-2.917 4.903,-5.908 7.101,-9.105 -3.1,2.333 -5.984,4.872 -8.792,7.485 -2.806,2.615 -5.542,5.297 -8.184,8.067 l -3.914,4.205 c -1.265,1.439 -2.568,2.842 -3.793,4.32 C 4.615,-6.184 2.2,-3.194 0,0"
         style="fill:#f36220;fill-opacity:1;fill-rule:nonzero;stroke:none"
         id="path700" /></g><g
       id="g702"
       transform="translate(179.64812,189.38648)"><path
         d="m 0,0 c 0,0 -14.018,2.182 -21.455,-5.234 -7.438,-7.416 -5.479,-21.62 -5.479,-21.62 0,0 14.018,-2.183 21.455,5.233 C 1.959,-14.205 0,0 0,0"
         style="fill:#6f4324;fill-opacity:1;fill-rule:nonzero;stroke:none"
         id="path704" /></g><g
       id="g706"
       transform="translate(177.40792,175.49388)"><path
         d="m 0,0 c -1.551,0.851 -3.123,1.707 -4.994,1.905 -1.314,0.14 -2.76,-0.052 -4.25,-0.564"
         style="fill:#ffffff;fill-opacity:1;fill-rule:nonzero;stroke:none"
         id="path708" /></g><g
       id="g710"
       transform="translate(177.40792,175.49388)"
       style="fill:#f36220;fill-opacity:1"><path
         d="M 0,0 C -1.01,-0.153 -1.862,-0.059 -2.635,0.027 -3.404,0.128 -4.08,0.242 -4.727,0.353 L -6.75,0.716 c -0.735,0.147 -1.528,0.296 -2.494,0.625 0.563,0.854 1.351,1.385 2.223,1.718 0.871,0.325 1.86,0.42 2.81,0.248 C -3.263,3.142 -2.394,2.733 -1.687,2.179 -0.979,1.611 -0.409,0.932 0,0"
         style="fill:#f36220;fill-opacity:1;fill-rule:nonzero;stroke:none"
         id="path712" /></g><g
       id="g714"
       transform="translate(171.08272,168.83178)"><path
         d="m 0,0 c -1.551,0.85 -3.123,1.706 -4.994,1.904 -1.314,0.14 -2.76,-0.051 -4.25,-0.563"
         style="fill:#ffffff;fill-opacity:1;fill-rule:nonzero;stroke:none"
         id="path716" /></g><g
       id="g718"
       transform="translate(171.08172,168.83178)"
       style="fill:#f36220;fill-opacity:1"><path
         d="M 0,0 C -1.009,-0.154 -1.861,-0.06 -2.634,0.026 -3.403,0.128 -4.079,0.241 -4.726,0.352 L -6.75,0.715 c -0.734,0.147 -1.527,0.296 -2.493,0.626 0.563,0.853 1.351,1.384 2.223,1.718 0.871,0.324 1.86,0.42 2.81,0.248 C -3.262,3.141 -2.393,2.733 -1.686,2.178 -0.978,1.61 -0.408,0.931 0,0"
         style="fill:#f36220;fill-opacity:1;fill-rule:nonzero;stroke:none"
         id="path720" /></g><g
       id="g722"
       transform="translate(165.57972,186.97828)"><path
         d="M 0,0 C 0.862,-1.556 1.732,-3.133 1.956,-5.021 2.113,-6.349 1.944,-7.813 1.46,-9.328"
         style="fill:#ffffff;fill-opacity:1;fill-rule:nonzero;stroke:none"
         id="path724" /></g><g
       id="g726"
       transform="translate(165.57972,186.97828)"
       style="fill:#f36220;fill-opacity:1"><path
         d="M 0,0 C 0.937,-0.41 1.623,-0.983 2.197,-1.694 2.759,-2.404 3.174,-3.275 3.35,-4.226 3.532,-5.178 3.449,-6.171 3.14,-7.052 2.82,-7.935 2.305,-8.739 1.46,-9.328 1.112,-8.362 0.95,-7.563 0.792,-6.821 L 0.4,-4.771 C 0.282,-4.114 0.159,-3.431 0.051,-2.654 -0.042,-1.875 -0.146,-1.017 0,0"
         style="fill:#f36220;fill-opacity:1;fill-rule:nonzero;stroke:none"
         id="path728" /></g><g
       id="g730"
       transform="translate(159.08372,180.48508)"><path
         d="M 0,0 C 0.863,-1.556 1.733,-3.133 1.957,-5.021 2.113,-6.348 1.945,-7.812 1.461,-9.327"
         style="fill:#ffffff;fill-opacity:1;fill-rule:nonzero;stroke:none"
         id="path732" /></g><g
       id="g734"
       transform="translate(159.08372,180.48508)"
       style="fill:#f36220;fill-opacity:1"><path
         d="M 0,0 C 0.937,-0.41 1.623,-0.982 2.197,-1.693 2.76,-2.404 3.175,-3.275 3.35,-4.226 3.533,-5.178 3.45,-6.171 3.14,-7.052 2.82,-7.935 2.305,-8.738 1.461,-9.327 1.113,-8.362 0.951,-7.563 0.792,-6.821 L 0.4,-4.771 C 0.282,-4.114 0.16,-3.431 0.052,-2.654 -0.042,-1.875 -0.145,-1.017 0,0"
         style="fill:#f36220;fill-opacity:1;fill-rule:nonzero;stroke:none"
         id="path736" /></g><g
       id="g738"
       transform="translate(177.26242,186.97728)"><path
         d="M 0,0 C -10.858,-10.796 -21.718,-21.591 -32.576,-32.386"
         style="fill:#ffffff;fill-opacity:1;fill-rule:nonzero;stroke:none"
         id="path740" /></g><g
       id="g742"
       transform="translate(177.26242,186.97728)"
       style="fill:#f36220;fill-opacity:1"><path
         d="m 0,0 c -2.277,-3.139 -4.763,-6.068 -7.322,-8.924 -1.26,-1.447 -2.596,-2.818 -3.896,-4.225 l -4.013,-4.107 c -2.708,-2.705 -5.508,-5.319 -8.375,-7.864 -2.871,-2.543 -5.815,-5.01 -8.97,-7.266 2.274,3.142 4.759,6.072 7.318,8.926 2.562,2.854 5.192,5.638 7.913,8.33 l 4.13,3.989 c 1.415,1.292 2.794,2.62 4.249,3.871 2.87,2.542 5.814,5.011 8.966,7.27"
         style="fill:#f36220;fill-opacity:1;fill-rule:nonzero;stroke:none"
         id="path744" /></g><g
       id="g746"
       transform="translate(178.16862,131.09648)"><path
         d="m 0,0 c 0,0 2.259,14.159 -5.02,21.734 -7.278,7.576 -21.338,5.699 -21.338,5.699 0,0 -2.26,-14.16 5.018,-21.735 C -14.061,-1.877 0,0 0,0"
         style="fill:#6f4324;fill-opacity:1;fill-rule:nonzero;stroke:none"
         id="path748" /></g><g
       id="g750"
       transform="translate(164.44792,133.46368)"><path
         d="M 0,0 C 0.852,1.562 1.71,3.146 1.92,5.036 2.067,6.363 1.889,7.827 1.394,9.338"
         style="fill:#f36220;fill-opacity:1;fill-rule:nonzero;stroke:none"
         id="path752" /></g><g
       id="g754"
       transform="translate(164.44792,133.46368)"
       style="fill:#f36220;fill-opacity:1"><path
         d="M 0,0 C -0.152,1.016 -0.056,1.875 0.032,2.655 0.135,3.433 0.253,4.116 0.366,4.773 L 0.743,6.827 C 0.896,7.57 1.053,8.37 1.394,9.338 2.241,8.756 2.763,7.955 3.089,7.075 3.405,6.196 3.495,5.203 3.319,4.25 3.15,3.299 2.741,2.425 2.185,1.71 1.616,0.995 0.934,0.417 0,0"
         style="fill:#f36220;fill-opacity:1;fill-rule:nonzero;stroke:none"
         id="path756" /></g><g
       id="g758"
       transform="translate(157.90592,139.90898)"><path
         d="M 0,0 C 0.852,1.562 1.71,3.146 1.92,5.035 2.067,6.363 1.888,7.827 1.393,9.338"
         style="fill:#f36220;fill-opacity:1;fill-rule:nonzero;stroke:none"
         id="path760" /></g><g
       id="g762"
       transform="translate(157.90592,139.90898)"
       style="fill:#f36220;fill-opacity:1"><path
         d="m 0,0 c -0.152,1.016 -0.056,1.874 0.032,2.654 0.103,0.778 0.22,1.462 0.334,2.119 L 0.743,6.826 C 0.896,7.57 1.053,8.37 1.393,9.338 2.241,8.755 2.763,7.954 3.089,7.074 3.405,6.195 3.495,5.203 3.319,4.25 3.15,3.298 2.741,2.424 2.185,1.71 1.616,0.994 0.934,0.416 0,0"
         style="fill:#f36220;fill-opacity:1;fill-rule:nonzero;stroke:none"
         id="path764" /></g><g
       id="g766"
       transform="translate(175.88932,145.34058)"><path
         d="m 0,0 c -1.544,-0.861 -3.11,-1.729 -4.979,-1.941 -1.313,-0.15 -2.76,0.032 -4.254,0.533"
         style="fill:#f36220;fill-opacity:1;fill-rule:nonzero;stroke:none"
         id="path768" /></g><g
       id="g770"
       transform="translate(175.88932,145.34058)"
       style="fill:#f36220;fill-opacity:1"><path
         d="m 0,0 c -0.401,-0.934 -0.966,-1.617 -1.67,-2.19 -0.703,-0.56 -1.569,-0.975 -2.516,-1.147 -0.949,-0.18 -1.938,-0.091 -2.811,0.227 -0.875,0.327 -1.667,0.852 -2.236,1.702 0.962,0.336 1.754,0.491 2.489,0.643 l 2.02,0.378 c 0.647,0.116 1.322,0.235 2.09,0.341 C -1.862,0.046 -1.011,0.146 0,0"
         style="fill:#f36220;fill-opacity:1;fill-rule:nonzero;stroke:none"
         id="path772" /></g><g
       id="g774"
       transform="translate(169.51632,151.95678)"><path
         d="m 0,0 c -1.544,-0.861 -3.11,-1.729 -4.979,-1.941 -1.313,-0.15 -2.76,0.032 -4.254,0.532"
         style="fill:#f36220;fill-opacity:1;fill-rule:nonzero;stroke:none"
         id="path776" /></g><g
       id="g778"
       transform="translate(169.51632,151.95678)"
       style="fill:#f36220;fill-opacity:1"><path
         d="m 0,0 c -0.401,-0.934 -0.966,-1.618 -1.67,-2.19 -0.703,-0.561 -1.569,-0.975 -2.516,-1.147 -0.949,-0.181 -1.938,-0.092 -2.811,0.227 -0.875,0.327 -1.667,0.851 -2.236,1.701 0.962,0.337 1.754,0.491 2.489,0.644 l 2.02,0.378 c 0.647,0.116 1.322,0.235 2.09,0.341 C -1.862,0.045 -1.011,0.146 0,0"
         style="fill:#f36220;fill-opacity:1;fill-rule:nonzero;stroke:none"
         id="path780" /></g><g
       id="g782"
       transform="translate(175.80342,133.52708)"><path
         d="M 0,0 C -10.596,11.06 -21.191,22.118 -31.787,33.178"
         style="fill:#ffffff;fill-opacity:1;fill-rule:nonzero;stroke:none"
         id="path784" /></g><g
       id="g786"
       transform="translate(175.80342,133.52708)"
       style="fill:#f36220;fill-opacity:1"><path
         d="m 0,0 c -3.097,2.335 -5.98,4.875 -8.788,7.487 -1.425,1.287 -2.772,2.649 -4.154,3.975 l -4.034,4.09 c -2.655,2.759 -5.217,5.606 -7.71,8.522 -2.49,2.916 -4.903,5.907 -7.1,9.104 3.099,-2.332 5.983,-4.872 8.791,-7.485 2.807,-2.614 5.542,-5.296 8.184,-8.067 l 3.914,-4.204 c 1.265,-1.44 2.568,-2.843 3.793,-4.321 C -4.615,6.184 -2.2,3.194 0,0"
         style="fill:#f36220;fill-opacity:1;fill-rule:nonzero;stroke:none"
         id="path788" /></g><g
       id="g790"
       transform="translate(121.20282,130.66478)"><path
         d="m 0,0 c 0,0 14.018,-2.183 21.455,5.233 7.438,7.416 5.479,21.621 5.479,21.621 0,0 -14.018,2.182 -21.455,-5.234 C -1.959,14.205 0,0 0,0"
         style="fill:#6f4324;fill-opacity:1;fill-rule:nonzero;stroke:none"
         id="path792" /></g><g
       id="g794"
       transform="translate(123.44402,144.55638)"><path
         d="m 0,0 c 1.551,-0.85 3.122,-1.707 4.993,-1.905 1.315,-0.14 2.76,0.052 4.251,0.564"
         style="fill:#ffffff;fill-opacity:1;fill-rule:nonzero;stroke:none"
         id="path796" /></g><g
       id="g798"
       transform="translate(123.44402,144.55638)"
       style="fill:#f36220;fill-opacity:1"><path
         d="M 0,0 C 1.009,0.154 1.861,0.059 2.634,-0.027 3.403,-0.128 4.079,-0.242 4.726,-0.353 L 6.75,-0.716 C 7.484,-0.862 8.278,-1.012 9.244,-1.341 8.68,-2.195 7.892,-2.726 7.02,-3.059 6.149,-3.384 5.16,-3.479 4.21,-3.307 3.262,-3.142 2.394,-2.733 1.686,-2.179 0.978,-1.611 0.408,-0.932 0,0"
         style="fill:#f36220;fill-opacity:1;fill-rule:nonzero;stroke:none"
         id="path800" /></g><g
       id="g802"
       transform="translate(129.76922,151.21848)"><path
         d="m 0,0 c 1.551,-0.85 3.122,-1.706 4.993,-1.904 1.315,-0.14 2.76,0.051 4.251,0.563"
         style="fill:#ffffff;fill-opacity:1;fill-rule:nonzero;stroke:none"
         id="path804" /></g><g
       id="g806"
       transform="translate(129.76922,151.21848)"
       style="fill:#f36220;fill-opacity:1"><path
         d="M 0,0 C 1.009,0.154 1.861,0.06 2.634,-0.026 3.403,-0.127 4.079,-0.241 4.726,-0.352 L 6.75,-0.715 C 7.484,-0.862 8.278,-1.011 9.244,-1.341 8.68,-2.194 7.892,-2.725 7.02,-3.059 6.149,-3.383 5.16,-3.479 4.21,-3.306 3.262,-3.141 2.394,-2.732 1.686,-2.178 0.978,-1.61 0.408,-0.931 0,0"
         style="fill:#f36220;fill-opacity:1;fill-rule:nonzero;stroke:none"
         id="path808" /></g><g
       id="g810"
       transform="translate(135.27122,133.07208)"><path
         d="m 0,0 c -0.862,1.556 -1.732,3.133 -1.956,5.021 -0.157,1.328 0.012,2.792 0.496,4.307"
         style="fill:#ffffff;fill-opacity:1;fill-rule:nonzero;stroke:none"
         id="path812" /></g><g
       id="g814"
       transform="translate(135.27122,133.07208)"
       style="fill:#f36220;fill-opacity:1"><path
         d="m 0,0 c -0.937,0.41 -1.623,0.983 -2.196,1.694 -0.563,0.71 -0.978,1.581 -1.154,2.533 -0.182,0.952 -0.099,1.945 0.21,2.826 0.32,0.882 0.836,1.686 1.68,2.275 0.348,-0.966 0.51,-1.765 0.668,-2.507 L -0.4,4.771 C -0.282,4.114 -0.159,3.432 -0.051,2.654 0.043,1.875 0.146,1.018 0,0"
         style="fill:#f36220;fill-opacity:1;fill-rule:nonzero;stroke:none"
         id="path816" /></g><g
       id="g818"
       transform="translate(141.76722,139.56518)"><path
         d="m 0,0 c -0.863,1.556 -1.733,3.133 -1.956,5.021 -0.157,1.328 0.012,2.792 0.495,4.307"
         style="fill:#ffffff;fill-opacity:1;fill-rule:nonzero;stroke:none"
         id="path820" /></g><g
       id="g822"
       transform="translate(141.76722,139.56518)"
       style="fill:#f36220;fill-opacity:1"><path
         d="m 0,0 c -0.937,0.41 -1.623,0.983 -2.197,1.694 -0.562,0.71 -0.978,1.581 -1.153,2.532 -0.183,0.952 -0.1,1.945 0.21,2.826 0.32,0.883 0.835,1.687 1.679,2.276 0.348,-0.966 0.51,-1.765 0.669,-2.507 L -0.4,4.771 C -0.282,4.114 -0.16,3.431 -0.052,2.654 0.042,1.875 0.145,1.017 0,0"
         style="fill:#f36220;fill-opacity:1;fill-rule:nonzero;stroke:none"
         id="path824" /></g><g
       id="g826"
       transform="translate(123.58852,133.07298)"><path
         d="M 0,0 C 10.859,10.796 21.718,21.591 32.576,32.387"
         style="fill:#f36220;fill-opacity:1;fill-rule:nonzero;stroke:none"
         id="path828" /></g><g
       id="g830"
       transform="translate(123.58852,133.07298)"
       style="fill:#f36220;fill-opacity:1"><path
         d="m 0,0 c 2.277,3.14 4.763,6.068 7.322,8.924 1.26,1.447 2.596,2.818 3.896,4.225 l 4.013,4.108 c 2.708,2.705 5.508,5.318 8.376,7.863 2.87,2.543 5.814,5.01 8.969,7.267 -2.274,-3.142 -4.759,-6.073 -7.318,-8.927 -2.562,-2.854 -5.192,-5.637 -7.912,-8.33 L 13.215,11.141 C 11.8,9.849 10.421,8.521 8.967,7.27 6.097,4.728 3.152,2.259 0,0"
         style="fill:#f36220;fill-opacity:1;fill-rule:nonzero;stroke:none"
         id="path832" /></g><g
       id="g834"
       transform="translate(323.41346,169.74253)"><path
         d="m 0,0 c 0,0 -9.47,0.594 -13.985,-4.74 -4.515,-5.334 -2.364,-14.576 -2.364,-14.576 0,0 9.47,-0.594 13.985,4.74 C 2.151,-9.242 0,0 0,0"
         style="fill:#6f4324;fill-opacity:1;fill-rule:nonzero;stroke:none"
         id="path836" /></g><g
       id="g838"
       transform="translate(322.74696,160.45343)"><path
         d="m 0,0 c -1.084,0.467 -2.182,0.937 -3.44,0.955 -0.885,0.013 -1.837,-0.2 -2.8,-0.628"
         style="fill:#ffffff;fill-opacity:1;fill-rule:nonzero;stroke:none"
         id="path840" /></g><g
       id="g842"
       transform="translate(322.74696,160.45343)"
       style="fill:#f36220;fill-opacity:1"><path
         d="m 0,0 c -0.744,-0.354 -1.355,-0.446 -1.877,-0.518 -0.522,-0.057 -0.943,-0.069 -1.332,-0.04 -0.385,0.03 -0.77,0.107 -1.253,0.232 -0.484,0.136 -1.032,0.301 -1.778,0.653 0.243,0.791 0.726,1.303 1.301,1.657 0.574,0.346 1.278,0.509 1.971,0.448 0.69,-0.056 1.329,-0.319 1.831,-0.719 C -0.633,1.3 -0.248,0.783 0,0"
         style="fill:#f36220;fill-opacity:1;fill-rule:nonzero;stroke:none"
         id="path844" /></g><g
       id="g846"
       transform="translate(318.92866,155.68293)"><path
         d="M 0,0 C -1.084,0.467 -2.182,0.937 -3.44,0.955 -4.325,0.968 -5.277,0.754 -6.239,0.327"
         style="fill:#ffffff;fill-opacity:1;fill-rule:nonzero;stroke:none"
         id="path848" /></g><g
       id="g850"
       transform="translate(318.92866,155.68293)"
       style="fill:#f36220;fill-opacity:1"><path
         d="m 0,0 c -0.744,-0.354 -1.355,-0.446 -1.877,-0.519 -0.522,-0.056 -0.943,-0.068 -1.332,-0.039 -0.385,0.03 -0.77,0.107 -1.253,0.232 -0.484,0.136 -1.032,0.3 -1.777,0.653 0.242,0.791 0.725,1.302 1.3,1.657 0.574,0.345 1.278,0.509 1.971,0.448 0.69,-0.056 1.329,-0.319 1.832,-0.719 C -0.633,1.3 -0.248,0.782 0,0"
         style="fill:#f36220;fill-opacity:1;fill-rule:nonzero;stroke:none"
         id="path852" /></g><g
       id="g854"
       transform="translate(314.18206,167.30893)"><path
         d="M 0,0 C 0.667,-0.973 1.341,-1.96 1.603,-3.19 1.786,-4.056 1.761,-5.031 1.528,-6.059"
         style="fill:#ffffff;fill-opacity:1;fill-rule:nonzero;stroke:none"
         id="path856" /></g><g
       id="g858"
       transform="translate(314.18206,167.30893)"
       style="fill:#f36220;fill-opacity:1"><path
         d="M 0,0 C 0.815,-0.092 1.397,-0.369 1.9,-0.783 2.391,-1.198 2.771,-1.775 2.959,-2.441 3.154,-3.109 3.13,-3.831 2.902,-4.462 2.666,-5.095 2.257,-5.667 1.528,-6.059 1.038,-5.396 0.77,-4.89 0.543,-4.44 0.327,-3.991 0.177,-3.628 0.073,-3.256 -0.03,-2.881 -0.101,-2.466 -0.145,-1.942 -0.176,-1.415 -0.204,-0.799 0,0"
         style="fill:#f36220;fill-opacity:1;fill-rule:nonzero;stroke:none"
         id="path860" /></g><g
       id="g862"
       transform="translate(310.24016,162.64003)"><path
         d="M 0,0 C 0.667,-0.974 1.341,-1.96 1.603,-3.191 1.786,-4.056 1.761,-5.031 1.528,-6.059"
         style="fill:#ffffff;fill-opacity:1;fill-rule:nonzero;stroke:none"
         id="path864" /></g><g
       id="g866"
       transform="translate(310.24016,162.64003)"
       style="fill:#f36220;fill-opacity:1"><path
         d="M 0,0 C 0.815,-0.093 1.397,-0.37 1.9,-0.784 2.391,-1.199 2.771,-1.775 2.959,-2.441 3.154,-3.109 3.13,-3.831 2.902,-4.462 2.665,-5.095 2.257,-5.667 1.528,-6.059 1.038,-5.396 0.77,-4.89 0.543,-4.441 0.327,-3.991 0.177,-3.629 0.073,-3.257 -0.03,-2.881 -0.101,-2.466 -0.145,-1.942 -0.176,-1.416 -0.204,-0.799 0,0"
         style="fill:#f36220;fill-opacity:1;fill-rule:nonzero;stroke:none"
         id="path868" /></g><g
       id="g870"
       transform="translate(321.55946,167.51593)"><path
         d="M 0,0 C -4.386,-5.223 -8.771,-10.446 -13.157,-15.669"
         style="fill:#ffffff;fill-opacity:1;fill-rule:nonzero;stroke:none"
         id="path872" /></g><g
       id="g874"
       transform="translate(321.55946,167.51593)"
       style="fill:#f36220;fill-opacity:1"><path
         d="m 0,0 c -0.621,-1.705 -1.471,-3.218 -2.389,-4.673 -0.928,-1.447 -1.946,-2.819 -3.041,-4.126 -1.094,-1.307 -2.269,-2.547 -3.534,-3.712 -1.274,-1.156 -2.618,-2.255 -4.193,-3.158 0.618,1.707 1.467,3.221 2.386,4.676 0.928,1.446 1.946,2.818 3.044,4.123 1.098,1.305 2.273,2.544 3.538,3.709 C -2.915,-2.005 -1.572,-0.906 0,0"
         style="fill:#f36220;fill-opacity:1;fill-rule:nonzero;stroke:none"
         id="path876" /></g><g
       id="g878"
       transform="translate(336.46766,160.08433)"><path
         d="m 0,0 c 0,-11.725 -9.504,-21.229 -21.229,-21.229 -11.724,0 -21.229,9.504 -21.229,21.229 0,11.725 9.505,21.229 21.229,21.229 C -9.504,21.229 0,11.725 0,0 Z"
         style="fill:none;stroke:#6f4324;stroke-width:5;stroke-linecap:butt;stroke-linejoin:miter;stroke-miterlimit:10;stroke-dasharray:none;stroke-opacity:1"
         id="path880" /></g><g
       id="g882"
       transform="translate(204.59658,160.12977)"><path
         d="m 0,0 c 0.065,11.509 7.316,22.264 18.228,26.216 11.185,4.051 23.74,0.617 31.345,-8.51 7.49,-8.989 8.296,-22.231 2.271,-32.185 C 45.831,-24.412 33.838,-29.755 22.43,-27.403 11.029,-25.054 2.218,-15.809 0.321,-4.34 0.084,-2.908 0.008,-1.45 0,0 c -0.018,3.217 -5.018,3.224 -5,0 0.079,-13.804 8.803,-26.201 21.742,-30.979 12.773,-4.717 27.817,-0.636 36.47,9.864 8.827,10.71 10.179,26.174 2.949,38.118 C 48.998,28.838 34.977,34.925 21.434,32.292 8.245,29.728 -2.509,18.627 -4.554,5.332 -4.827,3.563 -4.99,1.791 -5,0 -5.018,-3.218 -0.018,-3.222 0,0"
         style="fill:#6f4324;fill-opacity:1;fill-rule:nonzero;stroke:none"
         id="path884" /></g><path
       d="m 235.65838,126.01417 h -6.24 v 68.23 h 6.24 z"
       style="fill:#f36220;fill-opacity:1;fill-rule:nonzero;stroke:none"
       id="path886" /><g
       id="g888"
       transform="translate(235.65808,126.01457)"
       style="fill:none;stroke:none"><path
         d="M 0,0 -0.334,34.254 C -0.456,45.615 -0.441,56.909 -0.485,68.23 L 0,67.745 -6.24,67.731 -5.74,68.23 -5.834,34.115 -5.959,17.058 -6.145,0 -6.24,0.095 Z M 0,0 -6.24,-0.095 -6.333,-0.097 -6.334,0 -6.52,17.058 -6.646,34.115 -6.739,68.23 -6.741,68.731 -6.24,68.73 0,68.716 0.487,68.715 0.485,68.23 C 0.441,56.809 0.456,45.358 0.334,33.977 Z"
         style="fill:none;fill-opacity:1;fill-rule:nonzero;stroke:none"
         id="path890" /></g><path
       d="m 266.65338,157.00917 h -68.231 v 6.24 h 68.231 z"
       style="fill:#f36220;fill-opacity:1;fill-rule:nonzero;stroke:none"
       id="path892" /><g
       id="g894"
       transform="translate(266.65368,163.24987)"
       style="fill:none;stroke:none;stroke-width:0.99975;stroke-miterlimit:4;stroke-dasharray:none"><path
         d="m 0,0 -34.254,-0.334 c -11.362,-0.122 -22.655,-0.107 -33.977,-0.151 l 0.485,0.485 0.015,-6.239 -0.5,0.499 34.115,-0.094 17.058,-0.125 L 0,-6.145 -0.095,-6.239 Z M 0,0 0.095,-6.239 0.096,-6.334 0,-6.335 l -17.058,-0.186 -17.058,-0.125 -34.115,-0.093 -0.5,-0.001 10e-4,0.501 0.014,6.239 10e-4,0.487 0.484,-0.002 c 11.422,-0.044 22.873,-0.029 34.254,-0.151 z"
         style="fill:none;fill-opacity:1;fill-rule:nonzero;stroke:none;stroke-width:0.99975;stroke-miterlimit:4;stroke-dasharray:none"
         id="path896" /></g><g
       id="g898"
       transform="translate(240.71278,169.78797)"><path
         d="m 0,0 c 0,0 -9.47,0.594 -13.985,-4.74 -4.515,-5.334 -2.364,-14.576 -2.364,-14.576 0,0 9.47,-0.594 13.985,4.74 C 2.151,-9.242 0,0 0,0"
         style="fill:#6f4324;fill-opacity:1;fill-rule:nonzero;stroke:none"
         id="path900" /></g><g
       id="g902"
       transform="translate(240.04628,160.49887)"><path
         d="m 0,0 c -1.084,0.467 -2.182,0.937 -3.44,0.955 -0.885,0.013 -1.837,-0.2 -2.8,-0.628"
         style="fill:#ffffff;fill-opacity:1;fill-rule:nonzero;stroke:none"
         id="path904" /></g><g
       id="g906"
       transform="translate(240.04628,160.49887)"
       style="fill:#f36220;fill-opacity:1"><path
         d="m 0,0 c -0.744,-0.354 -1.355,-0.446 -1.877,-0.518 -0.522,-0.057 -0.943,-0.069 -1.332,-0.04 -0.385,0.03 -0.77,0.107 -1.253,0.232 -0.484,0.136 -1.032,0.301 -1.778,0.653 0.243,0.791 0.726,1.303 1.301,1.657 0.574,0.346 1.278,0.509 1.971,0.448 0.69,-0.056 1.329,-0.319 1.831,-0.719 C -0.633,1.3 -0.248,0.783 0,0"
         style="fill:#f36220;fill-opacity:1;fill-rule:nonzero;stroke:none"
         id="path908" /></g><g
       id="g910"
       transform="translate(236.22788,155.72837)"><path
         d="M 0,0 C -1.084,0.467 -2.182,0.937 -3.44,0.955 -4.325,0.968 -5.277,0.754 -6.239,0.327"
         style="fill:#ffffff;fill-opacity:1;fill-rule:nonzero;stroke:none"
         id="path912" /></g><g
       id="g914"
       transform="translate(236.22788,155.72837)"
       style="fill:#f36220;fill-opacity:1"><path
         d="m 0,0 c -0.744,-0.354 -1.355,-0.446 -1.877,-0.519 -0.522,-0.056 -0.943,-0.068 -1.332,-0.039 -0.385,0.03 -0.77,0.107 -1.253,0.232 -0.484,0.136 -1.032,0.3 -1.778,0.653 0.243,0.791 0.726,1.302 1.301,1.657 0.574,0.345 1.278,0.509 1.971,0.448 0.69,-0.056 1.329,-0.319 1.832,-0.719 C -0.633,1.3 -0.248,0.782 0,0"
         style="fill:#f36220;fill-opacity:1;fill-rule:nonzero;stroke:none"
         id="path916" /></g><g
       id="g918"
       transform="translate(231.48128,167.35437)"><path
         d="M 0,0 C 0.667,-0.973 1.341,-1.96 1.603,-3.19 1.786,-4.056 1.761,-5.031 1.528,-6.059"
         style="fill:#ffffff;fill-opacity:1;fill-rule:nonzero;stroke:none"
         id="path920" /></g><g
       id="g922"
       transform="translate(231.48128,167.35437)"
       style="fill:#f36220;fill-opacity:1"><path
         d="M 0,0 C 0.815,-0.092 1.397,-0.369 1.9,-0.783 2.391,-1.198 2.771,-1.775 2.959,-2.441 3.154,-3.109 3.13,-3.831 2.902,-4.462 2.666,-5.095 2.257,-5.667 1.528,-6.059 1.038,-5.396 0.77,-4.89 0.543,-4.44 0.327,-3.991 0.177,-3.628 0.073,-3.256 -0.03,-2.881 -0.101,-2.466 -0.145,-1.942 -0.176,-1.415 -0.204,-0.799 0,0"
         style="fill:#f36220;fill-opacity:1;fill-rule:nonzero;stroke:none"
         id="path924" /></g><g
       id="g926"
       transform="translate(227.53938,162.68547)"><path
         d="M 0,0 C 0.667,-0.974 1.341,-1.96 1.603,-3.191 1.786,-4.056 1.761,-5.031 1.528,-6.059"
         style="fill:#ffffff;fill-opacity:1;fill-rule:nonzero;stroke:none"
         id="path928" /></g><g
       id="g930"
       transform="translate(227.53938,162.68547)"
       style="fill:#f36220;fill-opacity:1"><path
         d="M 0,0 C 0.815,-0.093 1.397,-0.37 1.9,-0.784 2.391,-1.199 2.771,-1.775 2.959,-2.441 3.154,-3.109 3.13,-3.831 2.902,-4.462 2.665,-5.095 2.257,-5.667 1.528,-6.059 1.037,-5.396 0.77,-4.89 0.543,-4.441 0.327,-3.991 0.177,-3.629 0.073,-3.257 -0.03,-2.881 -0.101,-2.466 -0.146,-1.942 -0.176,-1.416 -0.204,-0.799 0,0"
         style="fill:#f36220;fill-opacity:1;fill-rule:nonzero;stroke:none"
         id="path932" /></g><g
       id="g934"
       transform="translate(238.85878,167.56137)"><path
         d="M 0,0 C -4.386,-5.223 -8.771,-10.446 -13.157,-15.669"
         style="fill:#ffffff;fill-opacity:1;fill-rule:nonzero;stroke:none"
         id="path936" /></g><g
       id="g938"
       transform="translate(238.85878,167.56137)"
       style="fill:#f36220;fill-opacity:1"><path
         d="m 0,0 c -0.621,-1.705 -1.471,-3.218 -2.389,-4.673 -0.928,-1.447 -1.946,-2.819 -3.041,-4.126 -1.094,-1.307 -2.269,-2.547 -3.534,-3.712 -1.274,-1.156 -2.618,-2.255 -4.193,-3.158 0.618,1.707 1.467,3.221 2.386,4.676 0.928,1.446 1.946,2.818 3.044,4.123 1.098,1.305 2.273,2.544 3.538,3.709 C -2.915,-2.005 -1.572,-0.906 0,0"
         style="fill:#f36220;fill-opacity:1;fill-rule:nonzero;stroke:none"
         id="path940" /></g></g></svg>
